# N = 1494, version = 1
# 100 facet sizes: [25, 25, 20, 25, 20, 16]
# 111 facet sizes: [65, 65, 75, 75, 79, 79, 69, 69]
# 100 hollow sites: [16, 16, 12, 16, 12, 9]
# 111 hollow sites: [52, 52, 61, 61, 65, 65, 56, 56]
# edges: [5, 5, 5, 5, 5, 5, 5, 5, 4, 5, 4, 5, 5, 5, 5, 5, 4, 5, 4, 5, 4, 4, 4, 4, 6, 5, 6, 6, 6, 6, 6, 6, 7, 7, 7, 6]
# x,          y,          z
  -1.252677376171349   -1.747322623828651   -6.645573169103031
  -0.252677376171349   -1.747322623828651   -6.645573169103031
   0.747322623828651   -1.747322623828651   -6.645573169103031
   1.747322623828651   -1.747322623828651   -6.645573169103031
  -1.252677376171349   -0.747322623828651   -6.645573169103031
  -0.252677376171349   -0.747322623828651   -6.645573169103031
   0.747322623828651   -0.747322623828651   -6.645573169103031
   1.747322623828651   -0.747322623828651   -6.645573169103031
  -1.252677376171349    0.252677376171349   -6.645573169103031
  -0.252677376171349    0.252677376171349   -6.645573169103031
   0.747322623828651    0.252677376171349   -6.645573169103031
   1.747322623828651    0.252677376171349   -6.645573169103031
  -1.252677376171349    1.252677376171349   -6.645573169103031
  -0.252677376171349    1.252677376171349   -6.645573169103031
   0.747322623828651    1.252677376171349   -6.645573169103031
   1.747322623828651    1.252677376171349   -6.645573169103031
  -1.752677376171349   -2.247322623828651   -5.938466387916478
  -0.752677376171349   -2.247322623828651   -5.938466387916478
   0.247322623828651   -2.247322623828651   -5.938466387916478
   1.247322623828651   -2.247322623828651   -5.938466387916478
   2.247322623828651   -2.247322623828651   -5.938466387916478
  -1.752677376171349   -1.247322623828651   -5.938466387916478
  -0.752677376171349   -1.247322623828651   -5.938466387916478
   0.247322623828651   -1.247322623828651   -5.938466387916478
   1.247322623828651   -1.247322623828651   -5.938466387916478
   2.247322623828651   -1.247322623828651   -5.938466387916478
  -1.752677376171349   -0.247322623828651   -5.938466387916478
  -0.752677376171349   -0.247322623828651   -5.938466387916478
   0.247322623828651   -0.247322623828651   -5.938466387916478
   1.247322623828651   -0.247322623828651   -5.938466387916478
   2.247322623828651   -0.247322623828651   -5.938466387916478
  -1.752677376171349    0.752677376171349   -5.938466387916478
  -0.752677376171349    0.752677376171349   -5.938466387916478
   0.247322623828651    0.752677376171349   -5.938466387916478
   1.247322623828651    0.752677376171349   -5.938466387916478
   2.247322623828651    0.752677376171349   -5.938466387916478
  -1.752677376171349    1.752677376171349   -5.938466387916478
  -0.752677376171349    1.752677376171349   -5.938466387916478
   0.247322623828651    1.752677376171349   -5.938466387916478
   1.247322623828651    1.752677376171349   -5.938466387916478
   2.247322623828651    1.752677376171349   -5.938466387916478
  -2.252677376171349   -2.747322623828651   -5.231359606729931
  -1.252677376171349   -2.747322623828651   -5.231359606729931
  -0.252677376171349   -2.747322623828651   -5.231359606729931
   0.747322623828651   -2.747322623828651   -5.231359606729931
   1.747322623828651   -2.747322623828651   -5.231359606729931
   2.747322623828651   -2.747322623828651   -5.231359606729931
  -2.252677376171349   -1.747322623828651   -5.231359606729931
  -1.252677376171349   -1.747322623828651   -5.231359606729931
  -0.252677376171349   -1.747322623828651   -5.231359606729931
   0.747322623828651   -1.747322623828651   -5.231359606729931
   1.747322623828651   -1.747322623828651   -5.231359606729931
   2.747322623828651   -1.747322623828651   -5.231359606729931
  -2.252677376171349   -0.747322623828651   -5.231359606729931
  -1.252677376171349   -0.747322623828651   -5.231359606729931
  -0.252677376171349   -0.747322623828651   -5.231359606729931
   0.747322623828651   -0.747322623828651   -5.231359606729931
   1.747322623828651   -0.747322623828651   -5.231359606729931
   2.747322623828651   -0.747322623828651   -5.231359606729931
  -2.252677376171349    0.252677376171349   -5.231359606729931
  -1.252677376171349    0.252677376171349   -5.231359606729931
  -0.252677376171349    0.252677376171349   -5.231359606729931
   0.747322623828651    0.252677376171349   -5.231359606729931
   1.747322623828651    0.252677376171349   -5.231359606729931
   2.747322623828651    0.252677376171349   -5.231359606729931
  -2.252677376171349    1.252677376171349   -5.231359606729931
  -1.252677376171349    1.252677376171349   -5.231359606729931
  -0.252677376171349    1.252677376171349   -5.231359606729931
   0.747322623828651    1.252677376171349   -5.231359606729931
   1.747322623828651    1.252677376171349   -5.231359606729931
   2.747322623828651    1.252677376171349   -5.231359606729931
  -2.252677376171349    2.252677376171349   -5.231359606729931
  -1.252677376171349    2.252677376171349   -5.231359606729931
  -0.252677376171349    2.252677376171349   -5.231359606729931
   0.747322623828651    2.252677376171349   -5.231359606729931
   1.747322623828651    2.252677376171349   -5.231359606729931
   2.747322623828651    2.252677376171349   -5.231359606729931
  -2.752677376171349   -3.247322623828651   -4.524252825543385
  -1.752677376171349   -3.247322623828651   -4.524252825543385
  -0.752677376171349   -3.247322623828651   -4.524252825543385
   0.247322623828651   -3.247322623828651   -4.524252825543385
   1.247322623828651   -3.247322623828651   -4.524252825543385
   2.247322623828651   -3.247322623828651   -4.524252825543385
   3.247322623828651   -3.247322623828651   -4.524252825543385
  -2.752677376171349   -2.247322623828651   -4.524252825543385
  -1.752677376171349   -2.247322623828651   -4.524252825543385
  -0.752677376171349   -2.247322623828651   -4.524252825543385
   0.247322623828651   -2.247322623828651   -4.524252825543385
   1.247322623828651   -2.247322623828651   -4.524252825543385
   2.247322623828651   -2.247322623828651   -4.524252825543385
   3.247322623828651   -2.247322623828651   -4.524252825543385
  -2.752677376171349   -1.247322623828651   -4.524252825543385
  -1.752677376171349   -1.247322623828651   -4.524252825543385
  -0.752677376171349   -1.247322623828651   -4.524252825543385
   0.247322623828651   -1.247322623828651   -4.524252825543385
   1.247322623828651   -1.247322623828651   -4.524252825543385
   2.247322623828651   -1.247322623828651   -4.524252825543385
   3.247322623828651   -1.247322623828651   -4.524252825543385
  -2.752677376171349   -0.247322623828651   -4.524252825543385
  -1.752677376171349   -0.247322623828651   -4.524252825543385
  -0.752677376171349   -0.247322623828651   -4.524252825543385
   0.247322623828651   -0.247322623828651   -4.524252825543385
   1.247322623828651   -0.247322623828651   -4.524252825543385
   2.247322623828651   -0.247322623828651   -4.524252825543385
   3.247322623828651   -0.247322623828651   -4.524252825543385
  -2.752677376171349    0.752677376171349   -4.524252825543385
  -1.752677376171349    0.752677376171349   -4.524252825543385
  -0.752677376171349    0.752677376171349   -4.524252825543385
   0.247322623828651    0.752677376171349   -4.524252825543385
   1.247322623828651    0.752677376171349   -4.524252825543385
   2.247322623828651    0.752677376171349   -4.524252825543385
   3.247322623828651    0.752677376171349   -4.524252825543385
  -2.752677376171349    1.752677376171349   -4.524252825543385
  -1.752677376171349    1.752677376171349   -4.524252825543385
  -0.752677376171349    1.752677376171349   -4.524252825543385
   0.247322623828651    1.752677376171349   -4.524252825543385
   1.247322623828651    1.752677376171349   -4.524252825543385
   2.247322623828651    1.752677376171349   -4.524252825543385
   3.247322623828651    1.752677376171349   -4.524252825543385
  -2.752677376171349    2.752677376171349   -4.524252825543385
  -1.752677376171349    2.752677376171349   -4.524252825543385
  -0.752677376171349    2.752677376171349   -4.524252825543385
   0.247322623828651    2.752677376171349   -4.524252825543385
   1.247322623828651    2.752677376171349   -4.524252825543385
   2.247322623828651    2.752677376171349   -4.524252825543385
   3.247322623828651    2.752677376171349   -4.524252825543385
  -3.252677376171349   -3.747322623828651   -3.817146044356839
  -2.252677376171349   -3.747322623828651   -3.817146044356839
  -1.252677376171349   -3.747322623828651   -3.817146044356839
  -0.252677376171349   -3.747322623828651   -3.817146044356839
   0.747322623828651   -3.747322623828651   -3.817146044356839
   1.747322623828651   -3.747322623828651   -3.817146044356839
   2.747322623828651   -3.747322623828651   -3.817146044356839
   3.747322623828651   -3.747322623828651   -3.817146044356839
  -3.252677376171349   -2.747322623828651   -3.817146044356839
  -2.252677376171349   -2.747322623828651   -3.817146044356839
  -1.252677376171349   -2.747322623828651   -3.817146044356839
  -0.252677376171349   -2.747322623828651   -3.817146044356839
   0.747322623828651   -2.747322623828651   -3.817146044356839
   1.747322623828651   -2.747322623828651   -3.817146044356839
   2.747322623828651   -2.747322623828651   -3.817146044356839
   3.747322623828651   -2.747322623828651   -3.817146044356839
  -3.252677376171349   -1.747322623828651   -3.817146044356839
  -2.252677376171349   -1.747322623828651   -3.817146044356839
  -1.252677376171349   -1.747322623828651   -3.817146044356839
  -0.252677376171349   -1.747322623828651   -3.817146044356839
   0.747322623828651   -1.747322623828651   -3.817146044356839
   1.747322623828651   -1.747322623828651   -3.817146044356839
   2.747322623828651   -1.747322623828651   -3.817146044356839
   3.747322623828651   -1.747322623828651   -3.817146044356839
  -3.252677376171349   -0.747322623828651   -3.817146044356839
  -2.252677376171349   -0.747322623828651   -3.817146044356839
  -1.252677376171349   -0.747322623828651   -3.817146044356839
  -0.252677376171349   -0.747322623828651   -3.817146044356839
   0.747322623828651   -0.747322623828651   -3.817146044356839
   1.747322623828651   -0.747322623828651   -3.817146044356839
   2.747322623828651   -0.747322623828651   -3.817146044356839
   3.747322623828651   -0.747322623828651   -3.817146044356839
  -3.252677376171349    0.252677376171349   -3.817146044356839
  -2.252677376171349    0.252677376171349   -3.817146044356839
  -1.252677376171349    0.252677376171349   -3.817146044356839
  -0.252677376171349    0.252677376171349   -3.817146044356839
   0.747322623828651    0.252677376171349   -3.817146044356839
   1.747322623828651    0.252677376171349   -3.817146044356839
   2.747322623828651    0.252677376171349   -3.817146044356839
   3.747322623828651    0.252677376171349   -3.817146044356839
  -3.252677376171349    1.252677376171349   -3.817146044356839
  -2.252677376171349    1.252677376171349   -3.817146044356839
  -1.252677376171349    1.252677376171349   -3.817146044356839
  -0.252677376171349    1.252677376171349   -3.817146044356839
   0.747322623828651    1.252677376171349   -3.817146044356839
   1.747322623828651    1.252677376171349   -3.817146044356839
   2.747322623828651    1.252677376171349   -3.817146044356839
   3.747322623828651    1.252677376171349   -3.817146044356839
  -3.252677376171349    2.252677376171349   -3.817146044356839
  -2.252677376171349    2.252677376171349   -3.817146044356839
  -1.252677376171349    2.252677376171349   -3.817146044356839
  -0.252677376171349    2.252677376171349   -3.817146044356839
   0.747322623828651    2.252677376171349   -3.817146044356839
   1.747322623828651    2.252677376171349   -3.817146044356839
   2.747322623828651    2.252677376171349   -3.817146044356839
   3.747322623828651    2.252677376171349   -3.817146044356839
  -3.252677376171349    3.252677376171349   -3.817146044356839
  -2.252677376171349    3.252677376171349   -3.817146044356839
  -1.252677376171349    3.252677376171349   -3.817146044356839
  -0.252677376171349    3.252677376171349   -3.817146044356839
   0.747322623828651    3.252677376171349   -3.817146044356839
   1.747322623828651    3.252677376171349   -3.817146044356839
   2.747322623828651    3.252677376171349   -3.817146044356839
   3.747322623828651    3.252677376171349   -3.817146044356839
  -3.752677376171349   -4.247322623828651   -3.110039263170293
  -2.752677376171349   -4.247322623828651   -3.110039263170293
  -1.752677376171349   -4.247322623828651   -3.110039263170293
  -0.752677376171349   -4.247322623828651   -3.110039263170293
   0.247322623828651   -4.247322623828651   -3.110039263170293
   1.247322623828651   -4.247322623828651   -3.110039263170293
   2.247322623828651   -4.247322623828651   -3.110039263170293
   3.247322623828651   -4.247322623828651   -3.110039263170293
   4.247322623828651   -4.247322623828651   -3.110039263170293
  -3.752677376171349   -3.247322623828651   -3.110039263170293
  -2.752677376171349   -3.247322623828651   -3.110039263170293
  -1.752677376171349   -3.247322623828651   -3.110039263170293
  -0.752677376171349   -3.247322623828651   -3.110039263170293
   0.247322623828651   -3.247322623828651   -3.110039263170293
   1.247322623828651   -3.247322623828651   -3.110039263170293
   2.247322623828651   -3.247322623828651   -3.110039263170293
   3.247322623828651   -3.247322623828651   -3.110039263170293
   4.247322623828651   -3.247322623828651   -3.110039263170293
  -3.752677376171349   -2.247322623828651   -3.110039263170293
  -2.752677376171349   -2.247322623828651   -3.110039263170293
  -1.752677376171349   -2.247322623828651   -3.110039263170293
  -0.752677376171349   -2.247322623828651   -3.110039263170293
   0.247322623828651   -2.247322623828651   -3.110039263170293
   1.247322623828651   -2.247322623828651   -3.110039263170293
   2.247322623828651   -2.247322623828651   -3.110039263170293
   3.247322623828651   -2.247322623828651   -3.110039263170293
   4.247322623828651   -2.247322623828651   -3.110039263170293
  -3.752677376171349   -1.247322623828651   -3.110039263170293
  -2.752677376171349   -1.247322623828651   -3.110039263170293
  -1.752677376171349   -1.247322623828651   -3.110039263170293
  -0.752677376171349   -1.247322623828651   -3.110039263170293
   0.247322623828651   -1.247322623828651   -3.110039263170293
   1.247322623828651   -1.247322623828651   -3.110039263170293
   2.247322623828651   -1.247322623828651   -3.110039263170293
   3.247322623828651   -1.247322623828651   -3.110039263170293
   4.247322623828651   -1.247322623828651   -3.110039263170293
  -3.752677376171349   -0.247322623828651   -3.110039263170293
  -2.752677376171349   -0.247322623828651   -3.110039263170293
  -1.752677376171349   -0.247322623828651   -3.110039263170293
  -0.752677376171349   -0.247322623828651   -3.110039263170293
   0.247322623828651   -0.247322623828651   -3.110039263170293
   1.247322623828651   -0.247322623828651   -3.110039263170293
   2.247322623828651   -0.247322623828651   -3.110039263170293
   3.247322623828651   -0.247322623828651   -3.110039263170293
   4.247322623828651   -0.247322623828651   -3.110039263170293
  -3.752677376171349    0.752677376171349   -3.110039263170293
  -2.752677376171349    0.752677376171349   -3.110039263170293
  -1.752677376171349    0.752677376171349   -3.110039263170293
  -0.752677376171349    0.752677376171349   -3.110039263170293
   0.247322623828651    0.752677376171349   -3.110039263170293
   1.247322623828651    0.752677376171349   -3.110039263170293
   2.247322623828651    0.752677376171349   -3.110039263170293
   3.247322623828651    0.752677376171349   -3.110039263170293
   4.247322623828651    0.752677376171349   -3.110039263170293
  -3.752677376171349    1.752677376171349   -3.110039263170293
  -2.752677376171349    1.752677376171349   -3.110039263170293
  -1.752677376171349    1.752677376171349   -3.110039263170293
  -0.752677376171349    1.752677376171349   -3.110039263170293
   0.247322623828651    1.752677376171349   -3.110039263170293
   1.247322623828651    1.752677376171349   -3.110039263170293
   2.247322623828651    1.752677376171349   -3.110039263170293
   3.247322623828651    1.752677376171349   -3.110039263170293
   4.247322623828651    1.752677376171349   -3.110039263170293
  -3.752677376171349    2.752677376171349   -3.110039263170293
  -2.752677376171349    2.752677376171349   -3.110039263170293
  -1.752677376171349    2.752677376171349   -3.110039263170293
  -0.752677376171349    2.752677376171349   -3.110039263170293
   0.247322623828651    2.752677376171349   -3.110039263170293
   1.247322623828651    2.752677376171349   -3.110039263170293
   2.247322623828651    2.752677376171349   -3.110039263170293
   3.247322623828651    2.752677376171349   -3.110039263170293
   4.247322623828651    2.752677376171349   -3.110039263170293
  -3.752677376171349    3.752677376171349   -3.110039263170293
  -2.752677376171349    3.752677376171349   -3.110039263170293
  -1.752677376171349    3.752677376171349   -3.110039263170293
  -0.752677376171349    3.752677376171349   -3.110039263170293
   0.247322623828651    3.752677376171349   -3.110039263170293
   1.247322623828651    3.752677376171349   -3.110039263170293
   2.247322623828651    3.752677376171349   -3.110039263170293
   3.247322623828651    3.752677376171349   -3.110039263170293
   4.247322623828651    3.752677376171349   -3.110039263170293
  -4.252677376171349   -4.747322623828651   -2.402932481983747
  -3.252677376171349   -4.747322623828651   -2.402932481983747
  -2.252677376171349   -4.747322623828651   -2.402932481983747
  -1.252677376171349   -4.747322623828651   -2.402932481983747
  -0.252677376171349   -4.747322623828651   -2.402932481983747
   0.747322623828651   -4.747322623828651   -2.402932481983747
   1.747322623828651   -4.747322623828651   -2.402932481983747
   2.747322623828651   -4.747322623828651   -2.402932481983747
   3.747322623828651   -4.747322623828651   -2.402932481983747
  -4.252677376171349   -3.747322623828651   -2.402932481983747
  -3.252677376171349   -3.747322623828651   -2.402932481983747
  -2.252677376171349   -3.747322623828651   -2.402932481983747
  -1.252677376171349   -3.747322623828651   -2.402932481983747
  -0.252677376171349   -3.747322623828651   -2.402932481983747
   0.747322623828651   -3.747322623828651   -2.402932481983747
   1.747322623828651   -3.747322623828651   -2.402932481983747
   2.747322623828651   -3.747322623828651   -2.402932481983747
   3.747322623828651   -3.747322623828651   -2.402932481983747
   4.747322623828651   -3.747322623828651   -2.402932481983747
  -4.252677376171349   -2.747322623828651   -2.402932481983747
  -3.252677376171349   -2.747322623828651   -2.402932481983747
  -2.252677376171349   -2.747322623828651   -2.402932481983747
  -1.252677376171349   -2.747322623828651   -2.402932481983747
  -0.252677376171349   -2.747322623828651   -2.402932481983747
   0.747322623828651   -2.747322623828651   -2.402932481983747
   1.747322623828651   -2.747322623828651   -2.402932481983747
   2.747322623828651   -2.747322623828651   -2.402932481983747
   3.747322623828651   -2.747322623828651   -2.402932481983747
   4.747322623828651   -2.747322623828651   -2.402932481983747
  -4.252677376171349   -1.747322623828651   -2.402932481983747
  -3.252677376171349   -1.747322623828651   -2.402932481983747
  -2.252677376171349   -1.747322623828651   -2.402932481983747
  -1.252677376171349   -1.747322623828651   -2.402932481983747
  -0.252677376171349   -1.747322623828651   -2.402932481983747
   0.747322623828651   -1.747322623828651   -2.402932481983747
   1.747322623828651   -1.747322623828651   -2.402932481983747
   2.747322623828651   -1.747322623828651   -2.402932481983747
   3.747322623828651   -1.747322623828651   -2.402932481983747
   4.747322623828651   -1.747322623828651   -2.402932481983747
  -4.252677376171349   -0.747322623828651   -2.402932481983747
  -3.252677376171349   -0.747322623828651   -2.402932481983747
  -2.252677376171349   -0.747322623828651   -2.402932481983747
  -1.252677376171349   -0.747322623828651   -2.402932481983747
  -0.252677376171349   -0.747322623828651   -2.402932481983747
   0.747322623828651   -0.747322623828651   -2.402932481983747
   1.747322623828651   -0.747322623828651   -2.402932481983747
   2.747322623828651   -0.747322623828651   -2.402932481983747
   3.747322623828651   -0.747322623828651   -2.402932481983747
   4.747322623828651   -0.747322623828651   -2.402932481983747
  -4.252677376171349    0.252677376171349   -2.402932481983747
  -3.252677376171349    0.252677376171349   -2.402932481983747
  -2.252677376171349    0.252677376171349   -2.402932481983747
  -1.252677376171349    0.252677376171349   -2.402932481983747
  -0.252677376171349    0.252677376171349   -2.402932481983747
   0.747322623828651    0.252677376171349   -2.402932481983747
   1.747322623828651    0.252677376171349   -2.402932481983747
   2.747322623828651    0.252677376171349   -2.402932481983747
   3.747322623828651    0.252677376171349   -2.402932481983747
   4.747322623828651    0.252677376171349   -2.402932481983747
  -4.252677376171349    1.252677376171349   -2.402932481983747
  -3.252677376171349    1.252677376171349   -2.402932481983747
  -2.252677376171349    1.252677376171349   -2.402932481983747
  -1.252677376171349    1.252677376171349   -2.402932481983747
  -0.252677376171349    1.252677376171349   -2.402932481983747
   0.747322623828651    1.252677376171349   -2.402932481983747
   1.747322623828651    1.252677376171349   -2.402932481983747
   2.747322623828651    1.252677376171349   -2.402932481983747
   3.747322623828651    1.252677376171349   -2.402932481983747
   4.747322623828651    1.252677376171349   -2.402932481983747
  -4.252677376171349    2.252677376171349   -2.402932481983747
  -3.252677376171349    2.252677376171349   -2.402932481983747
  -2.252677376171349    2.252677376171349   -2.402932481983747
  -1.252677376171349    2.252677376171349   -2.402932481983747
  -0.252677376171349    2.252677376171349   -2.402932481983747
   0.747322623828651    2.252677376171349   -2.402932481983747
   1.747322623828651    2.252677376171349   -2.402932481983747
   2.747322623828651    2.252677376171349   -2.402932481983747
   3.747322623828651    2.252677376171349   -2.402932481983747
   4.747322623828651    2.252677376171349   -2.402932481983747
  -4.252677376171349    3.252677376171349   -2.402932481983747
  -3.252677376171349    3.252677376171349   -2.402932481983747
  -2.252677376171349    3.252677376171349   -2.402932481983747
  -1.252677376171349    3.252677376171349   -2.402932481983747
  -0.252677376171349    3.252677376171349   -2.402932481983747
   0.747322623828651    3.252677376171349   -2.402932481983747
   1.747322623828651    3.252677376171349   -2.402932481983747
   2.747322623828651    3.252677376171349   -2.402932481983747
   3.747322623828651    3.252677376171349   -2.402932481983747
   4.747322623828651    3.252677376171349   -2.402932481983747
  -4.252677376171349    4.252677376171349   -2.402932481983747
  -3.252677376171349    4.252677376171349   -2.402932481983747
  -2.252677376171349    4.252677376171349   -2.402932481983747
  -1.252677376171349    4.252677376171349   -2.402932481983747
  -0.252677376171349    4.252677376171349   -2.402932481983747
   0.747322623828651    4.252677376171349   -2.402932481983747
   1.747322623828651    4.252677376171349   -2.402932481983747
   2.747322623828651    4.252677376171349   -2.402932481983747
   3.747322623828651    4.252677376171349   -2.402932481983747
   4.747322623828651    4.252677376171349   -2.402932481983747
  -3.752677376171349   -5.247322623828651   -1.695825700797194
  -2.752677376171349   -5.247322623828651   -1.695825700797194
  -1.752677376171349   -5.247322623828651   -1.695825700797194
  -0.752677376171349   -5.247322623828651   -1.695825700797194
   0.247322623828651   -5.247322623828651   -1.695825700797194
   1.247322623828651   -5.247322623828651   -1.695825700797194
   2.247322623828651   -5.247322623828651   -1.695825700797194
   3.247322623828651   -5.247322623828651   -1.695825700797194
  -4.752677376171349   -4.247322623828651   -1.695825700797194
  -3.752677376171349   -4.247322623828651   -1.695825700797194
  -2.752677376171349   -4.247322623828651   -1.695825700797194
  -1.752677376171349   -4.247322623828651   -1.695825700797194
  -0.752677376171349   -4.247322623828651   -1.695825700797194
   0.247322623828651   -4.247322623828651   -1.695825700797194
   1.247322623828651   -4.247322623828651   -1.695825700797194
   2.247322623828651   -4.247322623828651   -1.695825700797194
   3.247322623828651   -4.247322623828651   -1.695825700797194
   4.247322623828651   -4.247322623828651   -1.695825700797194
  -4.752677376171349   -3.247322623828651   -1.695825700797194
  -3.752677376171349   -3.247322623828651   -1.695825700797194
  -2.752677376171349   -3.247322623828651   -1.695825700797194
  -1.752677376171349   -3.247322623828651   -1.695825700797194
  -0.752677376171349   -3.247322623828651   -1.695825700797194
   0.247322623828651   -3.247322623828651   -1.695825700797194
   1.247322623828651   -3.247322623828651   -1.695825700797194
   2.247322623828651   -3.247322623828651   -1.695825700797194
   3.247322623828651   -3.247322623828651   -1.695825700797194
   4.247322623828651   -3.247322623828651   -1.695825700797194
   5.247322623828651   -3.247322623828651   -1.695825700797194
  -4.752677376171349   -2.247322623828651   -1.695825700797194
  -3.752677376171349   -2.247322623828651   -1.695825700797194
  -2.752677376171349   -2.247322623828651   -1.695825700797194
  -1.752677376171349   -2.247322623828651   -1.695825700797194
  -0.752677376171349   -2.247322623828651   -1.695825700797194
   0.247322623828651   -2.247322623828651   -1.695825700797194
   1.247322623828651   -2.247322623828651   -1.695825700797194
   2.247322623828651   -2.247322623828651   -1.695825700797194
   3.247322623828651   -2.247322623828651   -1.695825700797194
   4.247322623828651   -2.247322623828651   -1.695825700797194
   5.247322623828651   -2.247322623828651   -1.695825700797194
  -4.752677376171349   -1.247322623828651   -1.695825700797194
  -3.752677376171349   -1.247322623828651   -1.695825700797194
  -2.752677376171349   -1.247322623828651   -1.695825700797194
  -1.752677376171349   -1.247322623828651   -1.695825700797194
  -0.752677376171349   -1.247322623828651   -1.695825700797194
   0.247322623828651   -1.247322623828651   -1.695825700797194
   1.247322623828651   -1.247322623828651   -1.695825700797194
   2.247322623828651   -1.247322623828651   -1.695825700797194
   3.247322623828651   -1.247322623828651   -1.695825700797194
   4.247322623828651   -1.247322623828651   -1.695825700797194
   5.247322623828651   -1.247322623828651   -1.695825700797194
  -4.752677376171349   -0.247322623828651   -1.695825700797194
  -3.752677376171349   -0.247322623828651   -1.695825700797194
  -2.752677376171349   -0.247322623828651   -1.695825700797194
  -1.752677376171349   -0.247322623828651   -1.695825700797194
  -0.752677376171349   -0.247322623828651   -1.695825700797194
   0.247322623828651   -0.247322623828651   -1.695825700797194
   1.247322623828651   -0.247322623828651   -1.695825700797194
   2.247322623828651   -0.247322623828651   -1.695825700797194
   3.247322623828651   -0.247322623828651   -1.695825700797194
   4.247322623828651   -0.247322623828651   -1.695825700797194
   5.247322623828651   -0.247322623828651   -1.695825700797194
  -4.752677376171349    0.752677376171349   -1.695825700797194
  -3.752677376171349    0.752677376171349   -1.695825700797194
  -2.752677376171349    0.752677376171349   -1.695825700797194
  -1.752677376171349    0.752677376171349   -1.695825700797194
  -0.752677376171349    0.752677376171349   -1.695825700797194
   0.247322623828651    0.752677376171349   -1.695825700797194
   1.247322623828651    0.752677376171349   -1.695825700797194
   2.247322623828651    0.752677376171349   -1.695825700797194
   3.247322623828651    0.752677376171349   -1.695825700797194
   4.247322623828651    0.752677376171349   -1.695825700797194
   5.247322623828651    0.752677376171349   -1.695825700797194
  -4.752677376171349    1.752677376171349   -1.695825700797194
  -3.752677376171349    1.752677376171349   -1.695825700797194
  -2.752677376171349    1.752677376171349   -1.695825700797194
  -1.752677376171349    1.752677376171349   -1.695825700797194
  -0.752677376171349    1.752677376171349   -1.695825700797194
   0.247322623828651    1.752677376171349   -1.695825700797194
   1.247322623828651    1.752677376171349   -1.695825700797194
   2.247322623828651    1.752677376171349   -1.695825700797194
   3.247322623828651    1.752677376171349   -1.695825700797194
   4.247322623828651    1.752677376171349   -1.695825700797194
   5.247322623828651    1.752677376171349   -1.695825700797194
  -4.752677376171349    2.752677376171349   -1.695825700797194
  -3.752677376171349    2.752677376171349   -1.695825700797194
  -2.752677376171349    2.752677376171349   -1.695825700797194
  -1.752677376171349    2.752677376171349   -1.695825700797194
  -0.752677376171349    2.752677376171349   -1.695825700797194
   0.247322623828651    2.752677376171349   -1.695825700797194
   1.247322623828651    2.752677376171349   -1.695825700797194
   2.247322623828651    2.752677376171349   -1.695825700797194
   3.247322623828651    2.752677376171349   -1.695825700797194
   4.247322623828651    2.752677376171349   -1.695825700797194
   5.247322623828651    2.752677376171349   -1.695825700797194
  -4.752677376171349    3.752677376171349   -1.695825700797194
  -3.752677376171349    3.752677376171349   -1.695825700797194
  -2.752677376171349    3.752677376171349   -1.695825700797194
  -1.752677376171349    3.752677376171349   -1.695825700797194
  -0.752677376171349    3.752677376171349   -1.695825700797194
   0.247322623828651    3.752677376171349   -1.695825700797194
   1.247322623828651    3.752677376171349   -1.695825700797194
   2.247322623828651    3.752677376171349   -1.695825700797194
   3.247322623828651    3.752677376171349   -1.695825700797194
   4.247322623828651    3.752677376171349   -1.695825700797194
   5.247322623828651    3.752677376171349   -1.695825700797194
  -3.752677376171349    4.752677376171349   -1.695825700797194
  -2.752677376171349    4.752677376171349   -1.695825700797194
  -1.752677376171349    4.752677376171349   -1.695825700797194
  -0.752677376171349    4.752677376171349   -1.695825700797194
   0.247322623828651    4.752677376171349   -1.695825700797194
   1.247322623828651    4.752677376171349   -1.695825700797194
   2.247322623828651    4.752677376171349   -1.695825700797194
   3.247322623828651    4.752677376171349   -1.695825700797194
   4.247322623828651    4.752677376171349   -1.695825700797194
  -3.252677376171349   -5.747322623828651   -0.988718919610648
  -2.252677376171349   -5.747322623828651   -0.988718919610648
  -1.252677376171349   -5.747322623828651   -0.988718919610648
  -0.252677376171349   -5.747322623828651   -0.988718919610648
   0.747322623828651   -5.747322623828651   -0.988718919610648
   1.747322623828651   -5.747322623828651   -0.988718919610648
   2.747322623828651   -5.747322623828651   -0.988718919610648
  -4.252677376171349   -4.747322623828651   -0.988718919610648
  -3.252677376171349   -4.747322623828651   -0.988718919610648
  -2.252677376171349   -4.747322623828651   -0.988718919610648
  -1.252677376171349   -4.747322623828651   -0.988718919610648
  -0.252677376171349   -4.747322623828651   -0.988718919610648
   0.747322623828651   -4.747322623828651   -0.988718919610648
   1.747322623828651   -4.747322623828651   -0.988718919610648
   2.747322623828651   -4.747322623828651   -0.988718919610648
   3.747322623828651   -4.747322623828651   -0.988718919610648
  -5.252677376171349   -3.747322623828651   -0.988718919610648
  -4.252677376171349   -3.747322623828651   -0.988718919610648
  -3.252677376171349   -3.747322623828651   -0.988718919610648
  -2.252677376171349   -3.747322623828651   -0.988718919610648
  -1.252677376171349   -3.747322623828651   -0.988718919610648
  -0.252677376171349   -3.747322623828651   -0.988718919610648
   0.747322623828651   -3.747322623828651   -0.988718919610648
   1.747322623828651   -3.747322623828651   -0.988718919610648
   2.747322623828651   -3.747322623828651   -0.988718919610648
   3.747322623828651   -3.747322623828651   -0.988718919610648
   4.747322623828651   -3.747322623828651   -0.988718919610648
  -5.252677376171349   -2.747322623828651   -0.988718919610648
  -4.252677376171349   -2.747322623828651   -0.988718919610648
  -3.252677376171349   -2.747322623828651   -0.988718919610648
  -2.252677376171349   -2.747322623828651   -0.988718919610648
  -1.252677376171349   -2.747322623828651   -0.988718919610648
  -0.252677376171349   -2.747322623828651   -0.988718919610648
   0.747322623828651   -2.747322623828651   -0.988718919610648
   1.747322623828651   -2.747322623828651   -0.988718919610648
   2.747322623828651   -2.747322623828651   -0.988718919610648
   3.747322623828651   -2.747322623828651   -0.988718919610648
   4.747322623828651   -2.747322623828651   -0.988718919610648
   5.747322623828651   -2.747322623828651   -0.988718919610648
  -5.252677376171349   -1.747322623828651   -0.988718919610648
  -4.252677376171349   -1.747322623828651   -0.988718919610648
  -3.252677376171349   -1.747322623828651   -0.988718919610648
  -2.252677376171349   -1.747322623828651   -0.988718919610648
  -1.252677376171349   -1.747322623828651   -0.988718919610648
  -0.252677376171349   -1.747322623828651   -0.988718919610648
   0.747322623828651   -1.747322623828651   -0.988718919610648
   1.747322623828651   -1.747322623828651   -0.988718919610648
   2.747322623828651   -1.747322623828651   -0.988718919610648
   3.747322623828651   -1.747322623828651   -0.988718919610648
   4.747322623828651   -1.747322623828651   -0.988718919610648
   5.747322623828651   -1.747322623828651   -0.988718919610648
  -5.252677376171349   -0.747322623828651   -0.988718919610648
  -4.252677376171349   -0.747322623828651   -0.988718919610648
  -3.252677376171349   -0.747322623828651   -0.988718919610648
  -2.252677376171349   -0.747322623828651   -0.988718919610648
  -1.252677376171349   -0.747322623828651   -0.988718919610648
  -0.252677376171349   -0.747322623828651   -0.988718919610648
   0.747322623828651   -0.747322623828651   -0.988718919610648
   1.747322623828651   -0.747322623828651   -0.988718919610648
   2.747322623828651   -0.747322623828651   -0.988718919610648
   3.747322623828651   -0.747322623828651   -0.988718919610648
   4.747322623828651   -0.747322623828651   -0.988718919610648
   5.747322623828651   -0.747322623828651   -0.988718919610648
  -5.252677376171349    0.252677376171349   -0.988718919610648
  -4.252677376171349    0.252677376171349   -0.988718919610648
  -3.252677376171349    0.252677376171349   -0.988718919610648
  -2.252677376171349    0.252677376171349   -0.988718919610648
  -1.252677376171349    0.252677376171349   -0.988718919610648
  -0.252677376171349    0.252677376171349   -0.988718919610648
   0.747322623828651    0.252677376171349   -0.988718919610648
   1.747322623828651    0.252677376171349   -0.988718919610648
   2.747322623828651    0.252677376171349   -0.988718919610648
   3.747322623828651    0.252677376171349   -0.988718919610648
   4.747322623828651    0.252677376171349   -0.988718919610648
   5.747322623828651    0.252677376171349   -0.988718919610648
  -5.252677376171349    1.252677376171349   -0.988718919610648
  -4.252677376171349    1.252677376171349   -0.988718919610648
  -3.252677376171349    1.252677376171349   -0.988718919610648
  -2.252677376171349    1.252677376171349   -0.988718919610648
  -1.252677376171349    1.252677376171349   -0.988718919610648
  -0.252677376171349    1.252677376171349   -0.988718919610648
   0.747322623828651    1.252677376171349   -0.988718919610648
   1.747322623828651    1.252677376171349   -0.988718919610648
   2.747322623828651    1.252677376171349   -0.988718919610648
   3.747322623828651    1.252677376171349   -0.988718919610648
   4.747322623828651    1.252677376171349   -0.988718919610648
   5.747322623828651    1.252677376171349   -0.988718919610648
  -5.252677376171349    2.252677376171349   -0.988718919610648
  -4.252677376171349    2.252677376171349   -0.988718919610648
  -3.252677376171349    2.252677376171349   -0.988718919610648
  -2.252677376171349    2.252677376171349   -0.988718919610648
  -1.252677376171349    2.252677376171349   -0.988718919610648
  -0.252677376171349    2.252677376171349   -0.988718919610648
   0.747322623828651    2.252677376171349   -0.988718919610648
   1.747322623828651    2.252677376171349   -0.988718919610648
   2.747322623828651    2.252677376171349   -0.988718919610648
   3.747322623828651    2.252677376171349   -0.988718919610648
   4.747322623828651    2.252677376171349   -0.988718919610648
   5.747322623828651    2.252677376171349   -0.988718919610648
  -5.252677376171349    3.252677376171349   -0.988718919610648
  -4.252677376171349    3.252677376171349   -0.988718919610648
  -3.252677376171349    3.252677376171349   -0.988718919610648
  -2.252677376171349    3.252677376171349   -0.988718919610648
  -1.252677376171349    3.252677376171349   -0.988718919610648
  -0.252677376171349    3.252677376171349   -0.988718919610648
   0.747322623828651    3.252677376171349   -0.988718919610648
   1.747322623828651    3.252677376171349   -0.988718919610648
   2.747322623828651    3.252677376171349   -0.988718919610648
   3.747322623828651    3.252677376171349   -0.988718919610648
   4.747322623828651    3.252677376171349   -0.988718919610648
   5.747322623828651    3.252677376171349   -0.988718919610648
  -4.252677376171349    4.252677376171349   -0.988718919610648
  -3.252677376171349    4.252677376171349   -0.988718919610648
  -2.252677376171349    4.252677376171349   -0.988718919610648
  -1.252677376171349    4.252677376171349   -0.988718919610648
  -0.252677376171349    4.252677376171349   -0.988718919610648
   0.747322623828651    4.252677376171349   -0.988718919610648
   1.747322623828651    4.252677376171349   -0.988718919610648
   2.747322623828651    4.252677376171349   -0.988718919610648
   3.747322623828651    4.252677376171349   -0.988718919610648
   4.747322623828651    4.252677376171349   -0.988718919610648
  -3.252677376171349    5.252677376171349   -0.988718919610648
  -2.252677376171349    5.252677376171349   -0.988718919610648
  -1.252677376171349    5.252677376171349   -0.988718919610648
  -0.252677376171349    5.252677376171349   -0.988718919610648
   0.747322623828651    5.252677376171349   -0.988718919610648
   1.747322623828651    5.252677376171349   -0.988718919610648
   2.747322623828651    5.252677376171349   -0.988718919610648
   3.747322623828651    5.252677376171349   -0.988718919610648
  -2.752677376171349   -6.247322623828651   -0.281612138424101
  -1.752677376171349   -6.247322623828651   -0.281612138424101
  -0.752677376171349   -6.247322623828651   -0.281612138424101
   0.247322623828651   -6.247322623828651   -0.281612138424101
   1.247322623828651   -6.247322623828651   -0.281612138424101
   2.247322623828651   -6.247322623828651   -0.281612138424101
  -3.752677376171349   -5.247322623828651   -0.281612138424101
  -2.752677376171349   -5.247322623828651   -0.281612138424101
  -1.752677376171349   -5.247322623828651   -0.281612138424101
  -0.752677376171349   -5.247322623828651   -0.281612138424101
   0.247322623828651   -5.247322623828651   -0.281612138424101
   1.247322623828651   -5.247322623828651   -0.281612138424101
   2.247322623828651   -5.247322623828651   -0.281612138424101
   3.247322623828651   -5.247322623828651   -0.281612138424101
  -4.752677376171349   -4.247322623828651   -0.281612138424101
  -3.752677376171349   -4.247322623828651   -0.281612138424101
  -2.752677376171349   -4.247322623828651   -0.281612138424101
  -1.752677376171349   -4.247322623828651   -0.281612138424101
  -0.752677376171349   -4.247322623828651   -0.281612138424101
   0.247322623828651   -4.247322623828651   -0.281612138424101
   1.247322623828651   -4.247322623828651   -0.281612138424101
   2.247322623828651   -4.247322623828651   -0.281612138424101
   3.247322623828651   -4.247322623828651   -0.281612138424101
   4.247322623828651   -4.247322623828651   -0.281612138424101
  -5.752677376171349   -3.247322623828651   -0.281612138424101
  -4.752677376171349   -3.247322623828651   -0.281612138424101
  -3.752677376171349   -3.247322623828651   -0.281612138424101
  -2.752677376171349   -3.247322623828651   -0.281612138424101
  -1.752677376171349   -3.247322623828651   -0.281612138424101
  -0.752677376171349   -3.247322623828651   -0.281612138424101
   0.247322623828651   -3.247322623828651   -0.281612138424101
   1.247322623828651   -3.247322623828651   -0.281612138424101
   2.247322623828651   -3.247322623828651   -0.281612138424101
   3.247322623828651   -3.247322623828651   -0.281612138424101
   4.247322623828651   -3.247322623828651   -0.281612138424101
   5.247322623828651   -3.247322623828651   -0.281612138424101
  -5.752677376171349   -2.247322623828651   -0.281612138424101
  -4.752677376171349   -2.247322623828651   -0.281612138424101
  -3.752677376171349   -2.247322623828651   -0.281612138424101
  -2.752677376171349   -2.247322623828651   -0.281612138424101
  -1.752677376171349   -2.247322623828651   -0.281612138424101
  -0.752677376171349   -2.247322623828651   -0.281612138424101
   0.247322623828651   -2.247322623828651   -0.281612138424101
   1.247322623828651   -2.247322623828651   -0.281612138424101
   2.247322623828651   -2.247322623828651   -0.281612138424101
   3.247322623828651   -2.247322623828651   -0.281612138424101
   4.247322623828651   -2.247322623828651   -0.281612138424101
   5.247322623828651   -2.247322623828651   -0.281612138424101
   6.247322623828651   -2.247322623828651   -0.281612138424101
  -5.752677376171349   -1.247322623828651   -0.281612138424101
  -4.752677376171349   -1.247322623828651   -0.281612138424101
  -3.752677376171349   -1.247322623828651   -0.281612138424101
  -2.752677376171349   -1.247322623828651   -0.281612138424101
  -1.752677376171349   -1.247322623828651   -0.281612138424101
  -0.752677376171349   -1.247322623828651   -0.281612138424101
   0.247322623828651   -1.247322623828651   -0.281612138424101
   1.247322623828651   -1.247322623828651   -0.281612138424101
   2.247322623828651   -1.247322623828651   -0.281612138424101
   3.247322623828651   -1.247322623828651   -0.281612138424101
   4.247322623828651   -1.247322623828651   -0.281612138424101
   5.247322623828651   -1.247322623828651   -0.281612138424101
   6.247322623828651   -1.247322623828651   -0.281612138424101
  -5.752677376171349   -0.247322623828651   -0.281612138424101
  -4.752677376171349   -0.247322623828651   -0.281612138424101
  -3.752677376171349   -0.247322623828651   -0.281612138424101
  -2.752677376171349   -0.247322623828651   -0.281612138424101
  -1.752677376171349   -0.247322623828651   -0.281612138424101
  -0.752677376171349   -0.247322623828651   -0.281612138424101
   0.247322623828651   -0.247322623828651   -0.281612138424101
   1.247322623828651   -0.247322623828651   -0.281612138424101
   2.247322623828651   -0.247322623828651   -0.281612138424101
   3.247322623828651   -0.247322623828651   -0.281612138424101
   4.247322623828651   -0.247322623828651   -0.281612138424101
   5.247322623828651   -0.247322623828651   -0.281612138424101
   6.247322623828651   -0.247322623828651   -0.281612138424101
  -5.752677376171349    0.752677376171349   -0.281612138424101
  -4.752677376171349    0.752677376171349   -0.281612138424101
  -3.752677376171349    0.752677376171349   -0.281612138424101
  -2.752677376171349    0.752677376171349   -0.281612138424101
  -1.752677376171349    0.752677376171349   -0.281612138424101
  -0.752677376171349    0.752677376171349   -0.281612138424101
   0.247322623828651    0.752677376171349   -0.281612138424101
   1.247322623828651    0.752677376171349   -0.281612138424101
   2.247322623828651    0.752677376171349   -0.281612138424101
   3.247322623828651    0.752677376171349   -0.281612138424101
   4.247322623828651    0.752677376171349   -0.281612138424101
   5.247322623828651    0.752677376171349   -0.281612138424101
   6.247322623828651    0.752677376171349   -0.281612138424101
  -5.752677376171349    1.752677376171349   -0.281612138424101
  -4.752677376171349    1.752677376171349   -0.281612138424101
  -3.752677376171349    1.752677376171349   -0.281612138424101
  -2.752677376171349    1.752677376171349   -0.281612138424101
  -1.752677376171349    1.752677376171349   -0.281612138424101
  -0.752677376171349    1.752677376171349   -0.281612138424101
   0.247322623828651    1.752677376171349   -0.281612138424101
   1.247322623828651    1.752677376171349   -0.281612138424101
   2.247322623828651    1.752677376171349   -0.281612138424101
   3.247322623828651    1.752677376171349   -0.281612138424101
   4.247322623828651    1.752677376171349   -0.281612138424101
   5.247322623828651    1.752677376171349   -0.281612138424101
   6.247322623828651    1.752677376171349   -0.281612138424101
  -5.752677376171349    2.752677376171349   -0.281612138424101
  -4.752677376171349    2.752677376171349   -0.281612138424101
  -3.752677376171349    2.752677376171349   -0.281612138424101
  -2.752677376171349    2.752677376171349   -0.281612138424101
  -1.752677376171349    2.752677376171349   -0.281612138424101
  -0.752677376171349    2.752677376171349   -0.281612138424101
   0.247322623828651    2.752677376171349   -0.281612138424101
   1.247322623828651    2.752677376171349   -0.281612138424101
   2.247322623828651    2.752677376171349   -0.281612138424101
   3.247322623828651    2.752677376171349   -0.281612138424101
   4.247322623828651    2.752677376171349   -0.281612138424101
   5.247322623828651    2.752677376171349   -0.281612138424101
   6.247322623828651    2.752677376171349   -0.281612138424101
  -4.752677376171349    3.752677376171349   -0.281612138424101
  -3.752677376171349    3.752677376171349   -0.281612138424101
  -2.752677376171349    3.752677376171349   -0.281612138424101
  -1.752677376171349    3.752677376171349   -0.281612138424101
  -0.752677376171349    3.752677376171349   -0.281612138424101
   0.247322623828651    3.752677376171349   -0.281612138424101
   1.247322623828651    3.752677376171349   -0.281612138424101
   2.247322623828651    3.752677376171349   -0.281612138424101
   3.247322623828651    3.752677376171349   -0.281612138424101
   4.247322623828651    3.752677376171349   -0.281612138424101
   5.247322623828651    3.752677376171349   -0.281612138424101
  -3.752677376171349    4.752677376171349   -0.281612138424101
  -2.752677376171349    4.752677376171349   -0.281612138424101
  -1.752677376171349    4.752677376171349   -0.281612138424101
  -0.752677376171349    4.752677376171349   -0.281612138424101
   0.247322623828651    4.752677376171349   -0.281612138424101
   1.247322623828651    4.752677376171349   -0.281612138424101
   2.247322623828651    4.752677376171349   -0.281612138424101
   3.247322623828651    4.752677376171349   -0.281612138424101
   4.247322623828651    4.752677376171349   -0.281612138424101
  -2.752677376171349    5.752677376171349   -0.281612138424101
  -1.752677376171349    5.752677376171349   -0.281612138424101
  -0.752677376171349    5.752677376171349   -0.281612138424101
   0.247322623828651    5.752677376171349   -0.281612138424101
   1.247322623828651    5.752677376171349   -0.281612138424101
   2.247322623828651    5.752677376171349   -0.281612138424101
   3.247322623828651    5.752677376171349   -0.281612138424101
  -3.252677376171349   -5.747322623828651    0.425494642762445
  -2.252677376171349   -5.747322623828651    0.425494642762445
  -1.252677376171349   -5.747322623828651    0.425494642762445
  -0.252677376171349   -5.747322623828651    0.425494642762445
   0.747322623828651   -5.747322623828651    0.425494642762445
   1.747322623828651   -5.747322623828651    0.425494642762445
   2.747322623828651   -5.747322623828651    0.425494642762445
  -4.252677376171349   -4.747322623828651    0.425494642762445
  -3.252677376171349   -4.747322623828651    0.425494642762445
  -2.252677376171349   -4.747322623828651    0.425494642762445
  -1.252677376171349   -4.747322623828651    0.425494642762445
  -0.252677376171349   -4.747322623828651    0.425494642762445
   0.747322623828651   -4.747322623828651    0.425494642762445
   1.747322623828651   -4.747322623828651    0.425494642762445
   2.747322623828651   -4.747322623828651    0.425494642762445
   3.747322623828651   -4.747322623828651    0.425494642762445
  -5.252677376171349   -3.747322623828651    0.425494642762445
  -4.252677376171349   -3.747322623828651    0.425494642762445
  -3.252677376171349   -3.747322623828651    0.425494642762445
  -2.252677376171349   -3.747322623828651    0.425494642762445
  -1.252677376171349   -3.747322623828651    0.425494642762445
  -0.252677376171349   -3.747322623828651    0.425494642762445
   0.747322623828651   -3.747322623828651    0.425494642762445
   1.747322623828651   -3.747322623828651    0.425494642762445
   2.747322623828651   -3.747322623828651    0.425494642762445
   3.747322623828651   -3.747322623828651    0.425494642762445
   4.747322623828651   -3.747322623828651    0.425494642762445
  -6.252677376171349   -2.747322623828651    0.425494642762445
  -5.252677376171349   -2.747322623828651    0.425494642762445
  -4.252677376171349   -2.747322623828651    0.425494642762445
  -3.252677376171349   -2.747322623828651    0.425494642762445
  -2.252677376171349   -2.747322623828651    0.425494642762445
  -1.252677376171349   -2.747322623828651    0.425494642762445
  -0.252677376171349   -2.747322623828651    0.425494642762445
   0.747322623828651   -2.747322623828651    0.425494642762445
   1.747322623828651   -2.747322623828651    0.425494642762445
   2.747322623828651   -2.747322623828651    0.425494642762445
   3.747322623828651   -2.747322623828651    0.425494642762445
   4.747322623828651   -2.747322623828651    0.425494642762445
   5.747322623828651   -2.747322623828651    0.425494642762445
  -6.252677376171349   -1.747322623828651    0.425494642762445
  -5.252677376171349   -1.747322623828651    0.425494642762445
  -4.252677376171349   -1.747322623828651    0.425494642762445
  -3.252677376171349   -1.747322623828651    0.425494642762445
  -2.252677376171349   -1.747322623828651    0.425494642762445
  -1.252677376171349   -1.747322623828651    0.425494642762445
  -0.252677376171349   -1.747322623828651    0.425494642762445
   0.747322623828651   -1.747322623828651    0.425494642762445
   1.747322623828651   -1.747322623828651    0.425494642762445
   2.747322623828651   -1.747322623828651    0.425494642762445
   3.747322623828651   -1.747322623828651    0.425494642762445
   4.747322623828651   -1.747322623828651    0.425494642762445
   5.747322623828651   -1.747322623828651    0.425494642762445
  -6.252677376171349   -0.747322623828651    0.425494642762445
  -5.252677376171349   -0.747322623828651    0.425494642762445
  -4.252677376171349   -0.747322623828651    0.425494642762445
  -3.252677376171349   -0.747322623828651    0.425494642762445
  -2.252677376171349   -0.747322623828651    0.425494642762445
  -1.252677376171349   -0.747322623828651    0.425494642762445
  -0.252677376171349   -0.747322623828651    0.425494642762445
   0.747322623828651   -0.747322623828651    0.425494642762445
   1.747322623828651   -0.747322623828651    0.425494642762445
   2.747322623828651   -0.747322623828651    0.425494642762445
   3.747322623828651   -0.747322623828651    0.425494642762445
   4.747322623828651   -0.747322623828651    0.425494642762445
   5.747322623828651   -0.747322623828651    0.425494642762445
  -6.252677376171349    0.252677376171349    0.425494642762445
  -5.252677376171349    0.252677376171349    0.425494642762445
  -4.252677376171349    0.252677376171349    0.425494642762445
  -3.252677376171349    0.252677376171349    0.425494642762445
  -2.252677376171349    0.252677376171349    0.425494642762445
  -1.252677376171349    0.252677376171349    0.425494642762445
  -0.252677376171349    0.252677376171349    0.425494642762445
   0.747322623828651    0.252677376171349    0.425494642762445
   1.747322623828651    0.252677376171349    0.425494642762445
   2.747322623828651    0.252677376171349    0.425494642762445
   3.747322623828651    0.252677376171349    0.425494642762445
   4.747322623828651    0.252677376171349    0.425494642762445
   5.747322623828651    0.252677376171349    0.425494642762445
  -6.252677376171349    1.252677376171349    0.425494642762445
  -5.252677376171349    1.252677376171349    0.425494642762445
  -4.252677376171349    1.252677376171349    0.425494642762445
  -3.252677376171349    1.252677376171349    0.425494642762445
  -2.252677376171349    1.252677376171349    0.425494642762445
  -1.252677376171349    1.252677376171349    0.425494642762445
  -0.252677376171349    1.252677376171349    0.425494642762445
   0.747322623828651    1.252677376171349    0.425494642762445
   1.747322623828651    1.252677376171349    0.425494642762445
   2.747322623828651    1.252677376171349    0.425494642762445
   3.747322623828651    1.252677376171349    0.425494642762445
   4.747322623828651    1.252677376171349    0.425494642762445
   5.747322623828651    1.252677376171349    0.425494642762445
  -6.252677376171349    2.252677376171349    0.425494642762445
  -5.252677376171349    2.252677376171349    0.425494642762445
  -4.252677376171349    2.252677376171349    0.425494642762445
  -3.252677376171349    2.252677376171349    0.425494642762445
  -2.252677376171349    2.252677376171349    0.425494642762445
  -1.252677376171349    2.252677376171349    0.425494642762445
  -0.252677376171349    2.252677376171349    0.425494642762445
   0.747322623828651    2.252677376171349    0.425494642762445
   1.747322623828651    2.252677376171349    0.425494642762445
   2.747322623828651    2.252677376171349    0.425494642762445
   3.747322623828651    2.252677376171349    0.425494642762445
   4.747322623828651    2.252677376171349    0.425494642762445
   5.747322623828651    2.252677376171349    0.425494642762445
  -5.252677376171349    3.252677376171349    0.425494642762445
  -4.252677376171349    3.252677376171349    0.425494642762445
  -3.252677376171349    3.252677376171349    0.425494642762445
  -2.252677376171349    3.252677376171349    0.425494642762445
  -1.252677376171349    3.252677376171349    0.425494642762445
  -0.252677376171349    3.252677376171349    0.425494642762445
   0.747322623828651    3.252677376171349    0.425494642762445
   1.747322623828651    3.252677376171349    0.425494642762445
   2.747322623828651    3.252677376171349    0.425494642762445
   3.747322623828651    3.252677376171349    0.425494642762445
   4.747322623828651    3.252677376171349    0.425494642762445
   5.747322623828651    3.252677376171349    0.425494642762445
  -4.252677376171349    4.252677376171349    0.425494642762445
  -3.252677376171349    4.252677376171349    0.425494642762445
  -2.252677376171349    4.252677376171349    0.425494642762445
  -1.252677376171349    4.252677376171349    0.425494642762445
  -0.252677376171349    4.252677376171349    0.425494642762445
   0.747322623828651    4.252677376171349    0.425494642762445
   1.747322623828651    4.252677376171349    0.425494642762445
   2.747322623828651    4.252677376171349    0.425494642762445
   3.747322623828651    4.252677376171349    0.425494642762445
   4.747322623828651    4.252677376171349    0.425494642762445
  -3.252677376171349    5.252677376171349    0.425494642762445
  -2.252677376171349    5.252677376171349    0.425494642762445
  -1.252677376171349    5.252677376171349    0.425494642762445
  -0.252677376171349    5.252677376171349    0.425494642762445
   0.747322623828651    5.252677376171349    0.425494642762445
   1.747322623828651    5.252677376171349    0.425494642762445
   2.747322623828651    5.252677376171349    0.425494642762445
   3.747322623828651    5.252677376171349    0.425494642762445
  -2.252677376171349    6.252677376171349    0.425494642762445
  -1.252677376171349    6.252677376171349    0.425494642762445
  -0.252677376171349    6.252677376171349    0.425494642762445
   0.747322623828651    6.252677376171349    0.425494642762445
   1.747322623828651    6.252677376171349    0.425494642762445
   2.747322623828651    6.252677376171349    0.425494642762445
  -3.752677376171349   -5.247322623828651    1.132601423948991
  -2.752677376171349   -5.247322623828651    1.132601423948991
  -1.752677376171349   -5.247322623828651    1.132601423948991
  -0.752677376171349   -5.247322623828651    1.132601423948991
   0.247322623828651   -5.247322623828651    1.132601423948991
   1.247322623828651   -5.247322623828651    1.132601423948991
   2.247322623828651   -5.247322623828651    1.132601423948991
   3.247322623828651   -5.247322623828651    1.132601423948991
  -4.752677376171349   -4.247322623828651    1.132601423948991
  -3.752677376171349   -4.247322623828651    1.132601423948991
  -2.752677376171349   -4.247322623828651    1.132601423948991
  -1.752677376171349   -4.247322623828651    1.132601423948991
  -0.752677376171349   -4.247322623828651    1.132601423948991
   0.247322623828651   -4.247322623828651    1.132601423948991
   1.247322623828651   -4.247322623828651    1.132601423948991
   2.247322623828651   -4.247322623828651    1.132601423948991
   3.247322623828651   -4.247322623828651    1.132601423948991
   4.247322623828651   -4.247322623828651    1.132601423948991
  -5.752677376171349   -3.247322623828651    1.132601423948991
  -4.752677376171349   -3.247322623828651    1.132601423948991
  -3.752677376171349   -3.247322623828651    1.132601423948991
  -2.752677376171349   -3.247322623828651    1.132601423948991
  -1.752677376171349   -3.247322623828651    1.132601423948991
  -0.752677376171349   -3.247322623828651    1.132601423948991
   0.247322623828651   -3.247322623828651    1.132601423948991
   1.247322623828651   -3.247322623828651    1.132601423948991
   2.247322623828651   -3.247322623828651    1.132601423948991
   3.247322623828651   -3.247322623828651    1.132601423948991
   4.247322623828651   -3.247322623828651    1.132601423948991
   5.247322623828651   -3.247322623828651    1.132601423948991
  -5.752677376171349   -2.247322623828651    1.132601423948991
  -4.752677376171349   -2.247322623828651    1.132601423948991
  -3.752677376171349   -2.247322623828651    1.132601423948991
  -2.752677376171349   -2.247322623828651    1.132601423948991
  -1.752677376171349   -2.247322623828651    1.132601423948991
  -0.752677376171349   -2.247322623828651    1.132601423948991
   0.247322623828651   -2.247322623828651    1.132601423948991
   1.247322623828651   -2.247322623828651    1.132601423948991
   2.247322623828651   -2.247322623828651    1.132601423948991
   3.247322623828651   -2.247322623828651    1.132601423948991
   4.247322623828651   -2.247322623828651    1.132601423948991
   5.247322623828651   -2.247322623828651    1.132601423948991
  -5.752677376171349   -1.247322623828651    1.132601423948991
  -4.752677376171349   -1.247322623828651    1.132601423948991
  -3.752677376171349   -1.247322623828651    1.132601423948991
  -2.752677376171349   -1.247322623828651    1.132601423948991
  -1.752677376171349   -1.247322623828651    1.132601423948991
  -0.752677376171349   -1.247322623828651    1.132601423948991
   0.247322623828651   -1.247322623828651    1.132601423948991
   1.247322623828651   -1.247322623828651    1.132601423948991
   2.247322623828651   -1.247322623828651    1.132601423948991
   3.247322623828651   -1.247322623828651    1.132601423948991
   4.247322623828651   -1.247322623828651    1.132601423948991
   5.247322623828651   -1.247322623828651    1.132601423948991
  -5.752677376171349   -0.247322623828651    1.132601423948991
  -4.752677376171349   -0.247322623828651    1.132601423948991
  -3.752677376171349   -0.247322623828651    1.132601423948991
  -2.752677376171349   -0.247322623828651    1.132601423948991
  -1.752677376171349   -0.247322623828651    1.132601423948991
  -0.752677376171349   -0.247322623828651    1.132601423948991
   0.247322623828651   -0.247322623828651    1.132601423948991
   1.247322623828651   -0.247322623828651    1.132601423948991
   2.247322623828651   -0.247322623828651    1.132601423948991
   3.247322623828651   -0.247322623828651    1.132601423948991
   4.247322623828651   -0.247322623828651    1.132601423948991
   5.247322623828651   -0.247322623828651    1.132601423948991
  -5.752677376171349    0.752677376171349    1.132601423948991
  -4.752677376171349    0.752677376171349    1.132601423948991
  -3.752677376171349    0.752677376171349    1.132601423948991
  -2.752677376171349    0.752677376171349    1.132601423948991
  -1.752677376171349    0.752677376171349    1.132601423948991
  -0.752677376171349    0.752677376171349    1.132601423948991
   0.247322623828651    0.752677376171349    1.132601423948991
   1.247322623828651    0.752677376171349    1.132601423948991
   2.247322623828651    0.752677376171349    1.132601423948991
   3.247322623828651    0.752677376171349    1.132601423948991
   4.247322623828651    0.752677376171349    1.132601423948991
   5.247322623828651    0.752677376171349    1.132601423948991
  -5.752677376171349    1.752677376171349    1.132601423948991
  -4.752677376171349    1.752677376171349    1.132601423948991
  -3.752677376171349    1.752677376171349    1.132601423948991
  -2.752677376171349    1.752677376171349    1.132601423948991
  -1.752677376171349    1.752677376171349    1.132601423948991
  -0.752677376171349    1.752677376171349    1.132601423948991
   0.247322623828651    1.752677376171349    1.132601423948991
   1.247322623828651    1.752677376171349    1.132601423948991
   2.247322623828651    1.752677376171349    1.132601423948991
   3.247322623828651    1.752677376171349    1.132601423948991
   4.247322623828651    1.752677376171349    1.132601423948991
   5.247322623828651    1.752677376171349    1.132601423948991
  -5.752677376171349    2.752677376171349    1.132601423948991
  -4.752677376171349    2.752677376171349    1.132601423948991
  -3.752677376171349    2.752677376171349    1.132601423948991
  -2.752677376171349    2.752677376171349    1.132601423948991
  -1.752677376171349    2.752677376171349    1.132601423948991
  -0.752677376171349    2.752677376171349    1.132601423948991
   0.247322623828651    2.752677376171349    1.132601423948991
   1.247322623828651    2.752677376171349    1.132601423948991
   2.247322623828651    2.752677376171349    1.132601423948991
   3.247322623828651    2.752677376171349    1.132601423948991
   4.247322623828651    2.752677376171349    1.132601423948991
   5.247322623828651    2.752677376171349    1.132601423948991
  -4.752677376171349    3.752677376171349    1.132601423948991
  -3.752677376171349    3.752677376171349    1.132601423948991
  -2.752677376171349    3.752677376171349    1.132601423948991
  -1.752677376171349    3.752677376171349    1.132601423948991
  -0.752677376171349    3.752677376171349    1.132601423948991
   0.247322623828651    3.752677376171349    1.132601423948991
   1.247322623828651    3.752677376171349    1.132601423948991
   2.247322623828651    3.752677376171349    1.132601423948991
   3.247322623828651    3.752677376171349    1.132601423948991
   4.247322623828651    3.752677376171349    1.132601423948991
   5.247322623828651    3.752677376171349    1.132601423948991
  -3.752677376171349    4.752677376171349    1.132601423948991
  -2.752677376171349    4.752677376171349    1.132601423948991
  -1.752677376171349    4.752677376171349    1.132601423948991
  -0.752677376171349    4.752677376171349    1.132601423948991
   0.247322623828651    4.752677376171349    1.132601423948991
   1.247322623828651    4.752677376171349    1.132601423948991
   2.247322623828651    4.752677376171349    1.132601423948991
   3.247322623828651    4.752677376171349    1.132601423948991
   4.247322623828651    4.752677376171349    1.132601423948991
  -2.752677376171349    5.752677376171349    1.132601423948991
  -1.752677376171349    5.752677376171349    1.132601423948991
  -0.752677376171349    5.752677376171349    1.132601423948991
   0.247322623828651    5.752677376171349    1.132601423948991
   1.247322623828651    5.752677376171349    1.132601423948991
   2.247322623828651    5.752677376171349    1.132601423948991
   3.247322623828651    5.752677376171349    1.132601423948991
  -4.252677376171349   -4.747322623828651    1.839708205135544
  -3.252677376171349   -4.747322623828651    1.839708205135544
  -2.252677376171349   -4.747322623828651    1.839708205135544
  -1.252677376171349   -4.747322623828651    1.839708205135544
  -0.252677376171349   -4.747322623828651    1.839708205135544
   0.747322623828651   -4.747322623828651    1.839708205135544
   1.747322623828651   -4.747322623828651    1.839708205135544
   2.747322623828651   -4.747322623828651    1.839708205135544
   3.747322623828651   -4.747322623828651    1.839708205135544
  -5.252677376171349   -3.747322623828651    1.839708205135544
  -4.252677376171349   -3.747322623828651    1.839708205135544
  -3.252677376171349   -3.747322623828651    1.839708205135544
  -2.252677376171349   -3.747322623828651    1.839708205135544
  -1.252677376171349   -3.747322623828651    1.839708205135544
  -0.252677376171349   -3.747322623828651    1.839708205135544
   0.747322623828651   -3.747322623828651    1.839708205135544
   1.747322623828651   -3.747322623828651    1.839708205135544
   2.747322623828651   -3.747322623828651    1.839708205135544
   3.747322623828651   -3.747322623828651    1.839708205135544
   4.747322623828651   -3.747322623828651    1.839708205135544
  -5.252677376171349   -2.747322623828651    1.839708205135544
  -4.252677376171349   -2.747322623828651    1.839708205135544
  -3.252677376171349   -2.747322623828651    1.839708205135544
  -2.252677376171349   -2.747322623828651    1.839708205135544
  -1.252677376171349   -2.747322623828651    1.839708205135544
  -0.252677376171349   -2.747322623828651    1.839708205135544
   0.747322623828651   -2.747322623828651    1.839708205135544
   1.747322623828651   -2.747322623828651    1.839708205135544
   2.747322623828651   -2.747322623828651    1.839708205135544
   3.747322623828651   -2.747322623828651    1.839708205135544
   4.747322623828651   -2.747322623828651    1.839708205135544
  -5.252677376171349   -1.747322623828651    1.839708205135544
  -4.252677376171349   -1.747322623828651    1.839708205135544
  -3.252677376171349   -1.747322623828651    1.839708205135544
  -2.252677376171349   -1.747322623828651    1.839708205135544
  -1.252677376171349   -1.747322623828651    1.839708205135544
  -0.252677376171349   -1.747322623828651    1.839708205135544
   0.747322623828651   -1.747322623828651    1.839708205135544
   1.747322623828651   -1.747322623828651    1.839708205135544
   2.747322623828651   -1.747322623828651    1.839708205135544
   3.747322623828651   -1.747322623828651    1.839708205135544
   4.747322623828651   -1.747322623828651    1.839708205135544
  -5.252677376171349   -0.747322623828651    1.839708205135544
  -4.252677376171349   -0.747322623828651    1.839708205135544
  -3.252677376171349   -0.747322623828651    1.839708205135544
  -2.252677376171349   -0.747322623828651    1.839708205135544
  -1.252677376171349   -0.747322623828651    1.839708205135544
  -0.252677376171349   -0.747322623828651    1.839708205135544
   0.747322623828651   -0.747322623828651    1.839708205135544
   1.747322623828651   -0.747322623828651    1.839708205135544
   2.747322623828651   -0.747322623828651    1.839708205135544
   3.747322623828651   -0.747322623828651    1.839708205135544
   4.747322623828651   -0.747322623828651    1.839708205135544
  -5.252677376171349    0.252677376171349    1.839708205135544
  -4.252677376171349    0.252677376171349    1.839708205135544
  -3.252677376171349    0.252677376171349    1.839708205135544
  -2.252677376171349    0.252677376171349    1.839708205135544
  -1.252677376171349    0.252677376171349    1.839708205135544
  -0.252677376171349    0.252677376171349    1.839708205135544
   0.747322623828651    0.252677376171349    1.839708205135544
   1.747322623828651    0.252677376171349    1.839708205135544
   2.747322623828651    0.252677376171349    1.839708205135544
   3.747322623828651    0.252677376171349    1.839708205135544
   4.747322623828651    0.252677376171349    1.839708205135544
  -5.252677376171349    1.252677376171349    1.839708205135544
  -4.252677376171349    1.252677376171349    1.839708205135544
  -3.252677376171349    1.252677376171349    1.839708205135544
  -2.252677376171349    1.252677376171349    1.839708205135544
  -1.252677376171349    1.252677376171349    1.839708205135544
  -0.252677376171349    1.252677376171349    1.839708205135544
   0.747322623828651    1.252677376171349    1.839708205135544
   1.747322623828651    1.252677376171349    1.839708205135544
   2.747322623828651    1.252677376171349    1.839708205135544
   3.747322623828651    1.252677376171349    1.839708205135544
   4.747322623828651    1.252677376171349    1.839708205135544
  -5.252677376171349    2.252677376171349    1.839708205135544
  -4.252677376171349    2.252677376171349    1.839708205135544
  -3.252677376171349    2.252677376171349    1.839708205135544
  -2.252677376171349    2.252677376171349    1.839708205135544
  -1.252677376171349    2.252677376171349    1.839708205135544
  -0.252677376171349    2.252677376171349    1.839708205135544
   0.747322623828651    2.252677376171349    1.839708205135544
   1.747322623828651    2.252677376171349    1.839708205135544
   2.747322623828651    2.252677376171349    1.839708205135544
   3.747322623828651    2.252677376171349    1.839708205135544
   4.747322623828651    2.252677376171349    1.839708205135544
  -5.252677376171349    3.252677376171349    1.839708205135544
  -4.252677376171349    3.252677376171349    1.839708205135544
  -3.252677376171349    3.252677376171349    1.839708205135544
  -2.252677376171349    3.252677376171349    1.839708205135544
  -1.252677376171349    3.252677376171349    1.839708205135544
  -0.252677376171349    3.252677376171349    1.839708205135544
   0.747322623828651    3.252677376171349    1.839708205135544
   1.747322623828651    3.252677376171349    1.839708205135544
   2.747322623828651    3.252677376171349    1.839708205135544
   3.747322623828651    3.252677376171349    1.839708205135544
   4.747322623828651    3.252677376171349    1.839708205135544
  -4.252677376171349    4.252677376171349    1.839708205135544
  -3.252677376171349    4.252677376171349    1.839708205135544
  -2.252677376171349    4.252677376171349    1.839708205135544
  -1.252677376171349    4.252677376171349    1.839708205135544
  -0.252677376171349    4.252677376171349    1.839708205135544
   0.747322623828651    4.252677376171349    1.839708205135544
   1.747322623828651    4.252677376171349    1.839708205135544
   2.747322623828651    4.252677376171349    1.839708205135544
   3.747322623828651    4.252677376171349    1.839708205135544
   4.747322623828651    4.252677376171349    1.839708205135544
  -3.252677376171349    5.252677376171349    1.839708205135544
  -2.252677376171349    5.252677376171349    1.839708205135544
  -1.252677376171349    5.252677376171349    1.839708205135544
  -0.252677376171349    5.252677376171349    1.839708205135544
   0.747322623828651    5.252677376171349    1.839708205135544
   1.747322623828651    5.252677376171349    1.839708205135544
   2.747322623828651    5.252677376171349    1.839708205135544
   3.747322623828651    5.252677376171349    1.839708205135544
  -4.752677376171349   -4.247322623828651    2.546814986322090
  -3.752677376171349   -4.247322623828651    2.546814986322090
  -2.752677376171349   -4.247322623828651    2.546814986322090
  -1.752677376171349   -4.247322623828651    2.546814986322090
  -0.752677376171349   -4.247322623828651    2.546814986322090
   0.247322623828651   -4.247322623828651    2.546814986322090
   1.247322623828651   -4.247322623828651    2.546814986322090
   2.247322623828651   -4.247322623828651    2.546814986322090
   3.247322623828651   -4.247322623828651    2.546814986322090
   4.247322623828651   -4.247322623828651    2.546814986322090
  -4.752677376171349   -3.247322623828651    2.546814986322090
  -3.752677376171349   -3.247322623828651    2.546814986322090
  -2.752677376171349   -3.247322623828651    2.546814986322090
  -1.752677376171349   -3.247322623828651    2.546814986322090
  -0.752677376171349   -3.247322623828651    2.546814986322090
   0.247322623828651   -3.247322623828651    2.546814986322090
   1.247322623828651   -3.247322623828651    2.546814986322090
   2.247322623828651   -3.247322623828651    2.546814986322090
   3.247322623828651   -3.247322623828651    2.546814986322090
   4.247322623828651   -3.247322623828651    2.546814986322090
  -4.752677376171349   -2.247322623828651    2.546814986322090
  -3.752677376171349   -2.247322623828651    2.546814986322090
  -2.752677376171349   -2.247322623828651    2.546814986322090
  -1.752677376171349   -2.247322623828651    2.546814986322090
  -0.752677376171349   -2.247322623828651    2.546814986322090
   0.247322623828651   -2.247322623828651    2.546814986322090
   1.247322623828651   -2.247322623828651    2.546814986322090
   2.247322623828651   -2.247322623828651    2.546814986322090
   3.247322623828651   -2.247322623828651    2.546814986322090
   4.247322623828651   -2.247322623828651    2.546814986322090
  -4.752677376171349   -1.247322623828651    2.546814986322090
  -3.752677376171349   -1.247322623828651    2.546814986322090
  -2.752677376171349   -1.247322623828651    2.546814986322090
  -1.752677376171349   -1.247322623828651    2.546814986322090
  -0.752677376171349   -1.247322623828651    2.546814986322090
   0.247322623828651   -1.247322623828651    2.546814986322090
   1.247322623828651   -1.247322623828651    2.546814986322090
   2.247322623828651   -1.247322623828651    2.546814986322090
   3.247322623828651   -1.247322623828651    2.546814986322090
   4.247322623828651   -1.247322623828651    2.546814986322090
  -4.752677376171349   -0.247322623828651    2.546814986322090
  -3.752677376171349   -0.247322623828651    2.546814986322090
  -2.752677376171349   -0.247322623828651    2.546814986322090
  -1.752677376171349   -0.247322623828651    2.546814986322090
  -0.752677376171349   -0.247322623828651    2.546814986322090
   0.247322623828651   -0.247322623828651    2.546814986322090
   1.247322623828651   -0.247322623828651    2.546814986322090
   2.247322623828651   -0.247322623828651    2.546814986322090
   3.247322623828651   -0.247322623828651    2.546814986322090
   4.247322623828651   -0.247322623828651    2.546814986322090
  -4.752677376171349    0.752677376171349    2.546814986322090
  -3.752677376171349    0.752677376171349    2.546814986322090
  -2.752677376171349    0.752677376171349    2.546814986322090
  -1.752677376171349    0.752677376171349    2.546814986322090
  -0.752677376171349    0.752677376171349    2.546814986322090
   0.247322623828651    0.752677376171349    2.546814986322090
   1.247322623828651    0.752677376171349    2.546814986322090
   2.247322623828651    0.752677376171349    2.546814986322090
   3.247322623828651    0.752677376171349    2.546814986322090
   4.247322623828651    0.752677376171349    2.546814986322090
  -4.752677376171349    1.752677376171349    2.546814986322090
  -3.752677376171349    1.752677376171349    2.546814986322090
  -2.752677376171349    1.752677376171349    2.546814986322090
  -1.752677376171349    1.752677376171349    2.546814986322090
  -0.752677376171349    1.752677376171349    2.546814986322090
   0.247322623828651    1.752677376171349    2.546814986322090
   1.247322623828651    1.752677376171349    2.546814986322090
   2.247322623828651    1.752677376171349    2.546814986322090
   3.247322623828651    1.752677376171349    2.546814986322090
   4.247322623828651    1.752677376171349    2.546814986322090
  -4.752677376171349    2.752677376171349    2.546814986322090
  -3.752677376171349    2.752677376171349    2.546814986322090
  -2.752677376171349    2.752677376171349    2.546814986322090
  -1.752677376171349    2.752677376171349    2.546814986322090
  -0.752677376171349    2.752677376171349    2.546814986322090
   0.247322623828651    2.752677376171349    2.546814986322090
   1.247322623828651    2.752677376171349    2.546814986322090
   2.247322623828651    2.752677376171349    2.546814986322090
   3.247322623828651    2.752677376171349    2.546814986322090
   4.247322623828651    2.752677376171349    2.546814986322090
  -4.752677376171349    3.752677376171349    2.546814986322090
  -3.752677376171349    3.752677376171349    2.546814986322090
  -2.752677376171349    3.752677376171349    2.546814986322090
  -1.752677376171349    3.752677376171349    2.546814986322090
  -0.752677376171349    3.752677376171349    2.546814986322090
   0.247322623828651    3.752677376171349    2.546814986322090
   1.247322623828651    3.752677376171349    2.546814986322090
   2.247322623828651    3.752677376171349    2.546814986322090
   3.247322623828651    3.752677376171349    2.546814986322090
   4.247322623828651    3.752677376171349    2.546814986322090
  -3.752677376171349    4.752677376171349    2.546814986322090
  -2.752677376171349    4.752677376171349    2.546814986322090
  -1.752677376171349    4.752677376171349    2.546814986322090
  -0.752677376171349    4.752677376171349    2.546814986322090
   0.247322623828651    4.752677376171349    2.546814986322090
   1.247322623828651    4.752677376171349    2.546814986322090
   2.247322623828651    4.752677376171349    2.546814986322090
   3.247322623828651    4.752677376171349    2.546814986322090
   4.247322623828651    4.752677376171349    2.546814986322090
  -4.252677376171349   -3.747322623828651    3.253921767508636
  -3.252677376171349   -3.747322623828651    3.253921767508636
  -2.252677376171349   -3.747322623828651    3.253921767508636
  -1.252677376171349   -3.747322623828651    3.253921767508636
  -0.252677376171349   -3.747322623828651    3.253921767508636
   0.747322623828651   -3.747322623828651    3.253921767508636
   1.747322623828651   -3.747322623828651    3.253921767508636
   2.747322623828651   -3.747322623828651    3.253921767508636
   3.747322623828651   -3.747322623828651    3.253921767508636
  -4.252677376171349   -2.747322623828651    3.253921767508636
  -3.252677376171349   -2.747322623828651    3.253921767508636
  -2.252677376171349   -2.747322623828651    3.253921767508636
  -1.252677376171349   -2.747322623828651    3.253921767508636
  -0.252677376171349   -2.747322623828651    3.253921767508636
   0.747322623828651   -2.747322623828651    3.253921767508636
   1.747322623828651   -2.747322623828651    3.253921767508636
   2.747322623828651   -2.747322623828651    3.253921767508636
   3.747322623828651   -2.747322623828651    3.253921767508636
  -4.252677376171349   -1.747322623828651    3.253921767508636
  -3.252677376171349   -1.747322623828651    3.253921767508636
  -2.252677376171349   -1.747322623828651    3.253921767508636
  -1.252677376171349   -1.747322623828651    3.253921767508636
  -0.252677376171349   -1.747322623828651    3.253921767508636
   0.747322623828651   -1.747322623828651    3.253921767508636
   1.747322623828651   -1.747322623828651    3.253921767508636
   2.747322623828651   -1.747322623828651    3.253921767508636
   3.747322623828651   -1.747322623828651    3.253921767508636
  -4.252677376171349   -0.747322623828651    3.253921767508636
  -3.252677376171349   -0.747322623828651    3.253921767508636
  -2.252677376171349   -0.747322623828651    3.253921767508636
  -1.252677376171349   -0.747322623828651    3.253921767508636
  -0.252677376171349   -0.747322623828651    3.253921767508636
   0.747322623828651   -0.747322623828651    3.253921767508636
   1.747322623828651   -0.747322623828651    3.253921767508636
   2.747322623828651   -0.747322623828651    3.253921767508636
   3.747322623828651   -0.747322623828651    3.253921767508636
  -4.252677376171349    0.252677376171349    3.253921767508636
  -3.252677376171349    0.252677376171349    3.253921767508636
  -2.252677376171349    0.252677376171349    3.253921767508636
  -1.252677376171349    0.252677376171349    3.253921767508636
  -0.252677376171349    0.252677376171349    3.253921767508636
   0.747322623828651    0.252677376171349    3.253921767508636
   1.747322623828651    0.252677376171349    3.253921767508636
   2.747322623828651    0.252677376171349    3.253921767508636
   3.747322623828651    0.252677376171349    3.253921767508636
  -4.252677376171349    1.252677376171349    3.253921767508636
  -3.252677376171349    1.252677376171349    3.253921767508636
  -2.252677376171349    1.252677376171349    3.253921767508636
  -1.252677376171349    1.252677376171349    3.253921767508636
  -0.252677376171349    1.252677376171349    3.253921767508636
   0.747322623828651    1.252677376171349    3.253921767508636
   1.747322623828651    1.252677376171349    3.253921767508636
   2.747322623828651    1.252677376171349    3.253921767508636
   3.747322623828651    1.252677376171349    3.253921767508636
  -4.252677376171349    2.252677376171349    3.253921767508636
  -3.252677376171349    2.252677376171349    3.253921767508636
  -2.252677376171349    2.252677376171349    3.253921767508636
  -1.252677376171349    2.252677376171349    3.253921767508636
  -0.252677376171349    2.252677376171349    3.253921767508636
   0.747322623828651    2.252677376171349    3.253921767508636
   1.747322623828651    2.252677376171349    3.253921767508636
   2.747322623828651    2.252677376171349    3.253921767508636
   3.747322623828651    2.252677376171349    3.253921767508636
  -4.252677376171349    3.252677376171349    3.253921767508636
  -3.252677376171349    3.252677376171349    3.253921767508636
  -2.252677376171349    3.252677376171349    3.253921767508636
  -1.252677376171349    3.252677376171349    3.253921767508636
  -0.252677376171349    3.252677376171349    3.253921767508636
   0.747322623828651    3.252677376171349    3.253921767508636
   1.747322623828651    3.252677376171349    3.253921767508636
   2.747322623828651    3.252677376171349    3.253921767508636
   3.747322623828651    3.252677376171349    3.253921767508636
  -4.252677376171349    4.252677376171349    3.253921767508636
  -3.252677376171349    4.252677376171349    3.253921767508636
  -2.252677376171349    4.252677376171349    3.253921767508636
  -1.252677376171349    4.252677376171349    3.253921767508636
  -0.252677376171349    4.252677376171349    3.253921767508636
   0.747322623828651    4.252677376171349    3.253921767508636
   1.747322623828651    4.252677376171349    3.253921767508636
   2.747322623828651    4.252677376171349    3.253921767508636
   3.747322623828651    4.252677376171349    3.253921767508636
  -3.752677376171349   -3.247322623828651    3.961028548695182
  -2.752677376171349   -3.247322623828651    3.961028548695182
  -1.752677376171349   -3.247322623828651    3.961028548695182
  -0.752677376171349   -3.247322623828651    3.961028548695182
   0.247322623828651   -3.247322623828651    3.961028548695182
   1.247322623828651   -3.247322623828651    3.961028548695182
   2.247322623828651   -3.247322623828651    3.961028548695182
   3.247322623828651   -3.247322623828651    3.961028548695182
  -3.752677376171349   -2.247322623828651    3.961028548695182
  -2.752677376171349   -2.247322623828651    3.961028548695182
  -1.752677376171349   -2.247322623828651    3.961028548695182
  -0.752677376171349   -2.247322623828651    3.961028548695182
   0.247322623828651   -2.247322623828651    3.961028548695182
   1.247322623828651   -2.247322623828651    3.961028548695182
   2.247322623828651   -2.247322623828651    3.961028548695182
   3.247322623828651   -2.247322623828651    3.961028548695182
  -3.752677376171349   -1.247322623828651    3.961028548695182
  -2.752677376171349   -1.247322623828651    3.961028548695182
  -1.752677376171349   -1.247322623828651    3.961028548695182
  -0.752677376171349   -1.247322623828651    3.961028548695182
   0.247322623828651   -1.247322623828651    3.961028548695182
   1.247322623828651   -1.247322623828651    3.961028548695182
   2.247322623828651   -1.247322623828651    3.961028548695182
   3.247322623828651   -1.247322623828651    3.961028548695182
  -3.752677376171349   -0.247322623828651    3.961028548695182
  -2.752677376171349   -0.247322623828651    3.961028548695182
  -1.752677376171349   -0.247322623828651    3.961028548695182
  -0.752677376171349   -0.247322623828651    3.961028548695182
   0.247322623828651   -0.247322623828651    3.961028548695182
   1.247322623828651   -0.247322623828651    3.961028548695182
   2.247322623828651   -0.247322623828651    3.961028548695182
   3.247322623828651   -0.247322623828651    3.961028548695182
  -3.752677376171349    0.752677376171349    3.961028548695182
  -2.752677376171349    0.752677376171349    3.961028548695182
  -1.752677376171349    0.752677376171349    3.961028548695182
  -0.752677376171349    0.752677376171349    3.961028548695182
   0.247322623828651    0.752677376171349    3.961028548695182
   1.247322623828651    0.752677376171349    3.961028548695182
   2.247322623828651    0.752677376171349    3.961028548695182
   3.247322623828651    0.752677376171349    3.961028548695182
  -3.752677376171349    1.752677376171349    3.961028548695182
  -2.752677376171349    1.752677376171349    3.961028548695182
  -1.752677376171349    1.752677376171349    3.961028548695182
  -0.752677376171349    1.752677376171349    3.961028548695182
   0.247322623828651    1.752677376171349    3.961028548695182
   1.247322623828651    1.752677376171349    3.961028548695182
   2.247322623828651    1.752677376171349    3.961028548695182
   3.247322623828651    1.752677376171349    3.961028548695182
  -3.752677376171349    2.752677376171349    3.961028548695182
  -2.752677376171349    2.752677376171349    3.961028548695182
  -1.752677376171349    2.752677376171349    3.961028548695182
  -0.752677376171349    2.752677376171349    3.961028548695182
   0.247322623828651    2.752677376171349    3.961028548695182
   1.247322623828651    2.752677376171349    3.961028548695182
   2.247322623828651    2.752677376171349    3.961028548695182
   3.247322623828651    2.752677376171349    3.961028548695182
  -3.752677376171349    3.752677376171349    3.961028548695182
  -2.752677376171349    3.752677376171349    3.961028548695182
  -1.752677376171349    3.752677376171349    3.961028548695182
  -0.752677376171349    3.752677376171349    3.961028548695182
   0.247322623828651    3.752677376171349    3.961028548695182
   1.247322623828651    3.752677376171349    3.961028548695182
   2.247322623828651    3.752677376171349    3.961028548695182
   3.247322623828651    3.752677376171349    3.961028548695182
  -3.252677376171349   -2.747322623828651    4.668135329881729
  -2.252677376171349   -2.747322623828651    4.668135329881729
  -1.252677376171349   -2.747322623828651    4.668135329881729
  -0.252677376171349   -2.747322623828651    4.668135329881729
   0.747322623828651   -2.747322623828651    4.668135329881729
   1.747322623828651   -2.747322623828651    4.668135329881729
   2.747322623828651   -2.747322623828651    4.668135329881729
  -3.252677376171349   -1.747322623828651    4.668135329881729
  -2.252677376171349   -1.747322623828651    4.668135329881729
  -1.252677376171349   -1.747322623828651    4.668135329881729
  -0.252677376171349   -1.747322623828651    4.668135329881729
   0.747322623828651   -1.747322623828651    4.668135329881729
   1.747322623828651   -1.747322623828651    4.668135329881729
   2.747322623828651   -1.747322623828651    4.668135329881729
  -3.252677376171349   -0.747322623828651    4.668135329881729
  -2.252677376171349   -0.747322623828651    4.668135329881729
  -1.252677376171349   -0.747322623828651    4.668135329881729
  -0.252677376171349   -0.747322623828651    4.668135329881729
   0.747322623828651   -0.747322623828651    4.668135329881729
   1.747322623828651   -0.747322623828651    4.668135329881729
   2.747322623828651   -0.747322623828651    4.668135329881729
  -3.252677376171349    0.252677376171349    4.668135329881729
  -2.252677376171349    0.252677376171349    4.668135329881729
  -1.252677376171349    0.252677376171349    4.668135329881729
  -0.252677376171349    0.252677376171349    4.668135329881729
   0.747322623828651    0.252677376171349    4.668135329881729
   1.747322623828651    0.252677376171349    4.668135329881729
   2.747322623828651    0.252677376171349    4.668135329881729
  -3.252677376171349    1.252677376171349    4.668135329881729
  -2.252677376171349    1.252677376171349    4.668135329881729
  -1.252677376171349    1.252677376171349    4.668135329881729
  -0.252677376171349    1.252677376171349    4.668135329881729
   0.747322623828651    1.252677376171349    4.668135329881729
   1.747322623828651    1.252677376171349    4.668135329881729
   2.747322623828651    1.252677376171349    4.668135329881729
  -3.252677376171349    2.252677376171349    4.668135329881729
  -2.252677376171349    2.252677376171349    4.668135329881729
  -1.252677376171349    2.252677376171349    4.668135329881729
  -0.252677376171349    2.252677376171349    4.668135329881729
   0.747322623828651    2.252677376171349    4.668135329881729
   1.747322623828651    2.252677376171349    4.668135329881729
   2.747322623828651    2.252677376171349    4.668135329881729
  -3.252677376171349    3.252677376171349    4.668135329881729
  -2.252677376171349    3.252677376171349    4.668135329881729
  -1.252677376171349    3.252677376171349    4.668135329881729
  -0.252677376171349    3.252677376171349    4.668135329881729
   0.747322623828651    3.252677376171349    4.668135329881729
   1.747322623828651    3.252677376171349    4.668135329881729
   2.747322623828651    3.252677376171349    4.668135329881729
  -2.752677376171349   -2.247322623828651    5.375242111068282
  -1.752677376171349   -2.247322623828651    5.375242111068282
  -0.752677376171349   -2.247322623828651    5.375242111068282
   0.247322623828651   -2.247322623828651    5.375242111068282
   1.247322623828651   -2.247322623828651    5.375242111068282
   2.247322623828651   -2.247322623828651    5.375242111068282
  -2.752677376171349   -1.247322623828651    5.375242111068282
  -1.752677376171349   -1.247322623828651    5.375242111068282
  -0.752677376171349   -1.247322623828651    5.375242111068282
   0.247322623828651   -1.247322623828651    5.375242111068282
   1.247322623828651   -1.247322623828651    5.375242111068282
   2.247322623828651   -1.247322623828651    5.375242111068282
  -2.752677376171349   -0.247322623828651    5.375242111068282
  -1.752677376171349   -0.247322623828651    5.375242111068282
  -0.752677376171349   -0.247322623828651    5.375242111068282
   0.247322623828651   -0.247322623828651    5.375242111068282
   1.247322623828651   -0.247322623828651    5.375242111068282
   2.247322623828651   -0.247322623828651    5.375242111068282
  -2.752677376171349    0.752677376171349    5.375242111068282
  -1.752677376171349    0.752677376171349    5.375242111068282
  -0.752677376171349    0.752677376171349    5.375242111068282
   0.247322623828651    0.752677376171349    5.375242111068282
   1.247322623828651    0.752677376171349    5.375242111068282
   2.247322623828651    0.752677376171349    5.375242111068282
  -2.752677376171349    1.752677376171349    5.375242111068282
  -1.752677376171349    1.752677376171349    5.375242111068282
  -0.752677376171349    1.752677376171349    5.375242111068282
   0.247322623828651    1.752677376171349    5.375242111068282
   1.247322623828651    1.752677376171349    5.375242111068282
   2.247322623828651    1.752677376171349    5.375242111068282
  -2.752677376171349    2.752677376171349    5.375242111068282
  -1.752677376171349    2.752677376171349    5.375242111068282
  -0.752677376171349    2.752677376171349    5.375242111068282
   0.247322623828651    2.752677376171349    5.375242111068282
   1.247322623828651    2.752677376171349    5.375242111068282
   2.247322623828651    2.752677376171349    5.375242111068282
  -2.252677376171349   -1.747322623828651    6.082348892254828
  -1.252677376171349   -1.747322623828651    6.082348892254828
  -0.252677376171349   -1.747322623828651    6.082348892254828
   0.747322623828651   -1.747322623828651    6.082348892254828
   1.747322623828651   -1.747322623828651    6.082348892254828
  -2.252677376171349   -0.747322623828651    6.082348892254828
  -1.252677376171349   -0.747322623828651    6.082348892254828
  -0.252677376171349   -0.747322623828651    6.082348892254828
   0.747322623828651   -0.747322623828651    6.082348892254828
   1.747322623828651   -0.747322623828651    6.082348892254828
  -2.252677376171349    0.252677376171349    6.082348892254828
  -1.252677376171349    0.252677376171349    6.082348892254828
  -0.252677376171349    0.252677376171349    6.082348892254828
   0.747322623828651    0.252677376171349    6.082348892254828
   1.747322623828651    0.252677376171349    6.082348892254828
  -2.252677376171349    1.252677376171349    6.082348892254828
  -1.252677376171349    1.252677376171349    6.082348892254828
  -0.252677376171349    1.252677376171349    6.082348892254828
   0.747322623828651    1.252677376171349    6.082348892254828
   1.747322623828651    1.252677376171349    6.082348892254828
  -2.252677376171349    2.252677376171349    6.082348892254828
  -1.252677376171349    2.252677376171349    6.082348892254828
  -0.252677376171349    2.252677376171349    6.082348892254828
   0.747322623828651    2.252677376171349    6.082348892254828
   1.747322623828651    2.252677376171349    6.082348892254828
