# typeid, x, y, z
0  -2.88369489  -3.42350173  -5.73966885
0   0.00002794  -3.42350173  -5.73966885
0   2.88375092  -3.42350173  -5.73966885
0  -2.88369489  -0.53977895  -5.73966885
0   0.00002794  -0.53977895  -5.73966885
0   2.88375092  -0.53977895  -5.73966885
0  -2.88369489   2.34394383  -5.73966885
0   0.00002794   2.34394383  -5.73966885
0   2.88375092   2.34394383  -5.73966885
0  -4.32555628  -4.86536312  -3.70056891
0  -1.44183350  -4.86536312  -3.70056891
0   1.44188941  -4.86536312  -3.70056891
0   4.32561207  -4.86536312  -3.70056891
0  -4.32555628  -1.98164046  -3.70056891
0   4.32561207  -1.98164046  -3.70056891
0  -4.32555628   0.90208250  -3.70056891
0   4.32561207   0.90208250  -3.70056891
0  -4.32555628   3.78580546  -3.70056891
0  -1.44183350   3.78580546  -3.70056891
0   1.44188941   3.78580546  -3.70056891
0   4.32561207   3.78580546  -3.70056891
0  -2.88369489  -6.30722475  -1.66146898
0   0.00002794  -6.30722475  -1.66146898
0   2.88375092  -6.30722475  -1.66146898
0  -5.76741791  -3.42350173  -1.66146898
0   5.76747370  -3.42350173  -1.66146898
0  -5.76741791  -0.53977895  -1.66146898
0   5.76747370  -0.53977895  -1.66146898
0  -5.76741791   2.34394383  -1.66146898
0   5.76747370   2.34394383  -1.66146898
0  -2.88369489   5.22766685  -1.66146898
0   0.00002794   5.22766685  -1.66146898
0   2.88375092   5.22766685  -1.66146898
0  -4.32555628  -4.86536312   0.37763101
0  -1.44183350  -4.86536312   0.37763101
0   1.44188941  -4.86536312   0.37763101
0   4.32561207  -4.86536312   0.37763101
0  -7.20927906  -1.98164046   0.37763101
0   7.20933533  -1.98164046   0.37763101
0  -7.20927906   0.90208250   0.37763101
0   7.20933533   0.90208250   0.37763101
0  -4.32555628   3.78580546   0.37763101
0   4.32561207   3.78580546   0.37763101
0  -1.44183350   6.66952801   0.37763101
0   1.44188941   6.66952801   0.37763101
0  -5.76741791  -3.42350173   2.41673112
0  -2.88369489  -3.42350173   2.41673112
0   0.00002794  -3.42350173   2.41673112
0   2.88375092  -3.42350173   2.41673112
0   5.76747370  -3.42350173   2.41673112
0  -5.76741791  -0.53977895   2.41673112
0   5.76747370  -0.53977895   2.41673112
0  -5.76741791   2.34394383   2.41673112
0   5.76747370   2.34394383   2.41673112
0  -2.88369489   5.22766685   2.41673112
0   0.00002794   5.22766685   2.41673112
0   2.88375092   5.22766685   2.41673112
0  -4.32555628  -1.98164046   4.45583105
0  -1.44183350  -1.98164046   4.45583105
0   1.44188941  -1.98164046   4.45583105
0   4.32561207  -1.98164046   4.45583105
0  -4.32555628   0.90208250   4.45583105
0   4.32561207   0.90208250   4.45583105
0  -4.32555628   3.78580546   4.45583105
0  -1.44183350   3.78580546   4.45583105
0   1.44188941   3.78580546   4.45583105
0   4.32561207   3.78580546   4.45583105
0  -2.88369489  -0.53977895   6.49493122
0   0.00002794  -0.53977895   6.49493122
0   2.88375092  -0.53977895   6.49493122
0  -2.88369489   2.34394383   6.49493122
0   0.00002794   2.34394383   6.49493122
0   2.88375092   2.34394383   6.49493122
1   5.83699799   5.28921223  -1.74683714
1   8.76237774   3.26658106   0.16458061
1   3.86697292   8.08449459   0.31075847
1   5.71463776   5.28310061   2.42375875
1  -5.67586422  -6.45715714  -1.63206887
1  -8.11862278  -4.63738012   1.17469645
1  -5.92062950   5.12860727  -1.73515284
1  -3.62083769   8.51702785   0.79257417
1  -8.76962662   3.38173938   0.45450145
1  -5.77760172   5.37278461   2.49230003
1   8.15316677  -4.61046410   1.15229583
1   5.83410168  -6.42970991  -1.54012644
1   2.09785986   0.83162677   8.82347012
1  -1.65607953   0.90703613   8.67702866
1   2.57117343   1.44382083  -8.51667118
1  -1.42722499   0.91702783  -7.96496105
1   1.40721905  -2.12041068  -7.87217617
1  -2.86463618  -2.77437711  -8.45603752
1   0.03485709   8.10104465   2.57653451
1  -2.70713997   6.38614464   5.04132080
1   2.55577469   6.34487534   5.15186787
1  -0.32700884   4.93343163   7.78724051
1  -7.62606144  -1.93493235   4.04326105
1  -7.36488724   2.01390338   4.67741585
1  -5.60368156  -0.63157630   7.04696894
1   8.72579479  -0.56947702   2.51448965
1   6.96285152   2.45394492   5.01294041
1   6.97623253  -3.22264552   5.02230263
1   5.61709499  -0.21239270   7.02111721
1   1.65252209  -7.73038721   0.45272779
1  -2.73381066  -7.34552526   1.14542592
1   4.42454576  -5.95336771   3.03860044
1  -4.25517654  -4.87326384   4.46071815
1   0.49932623  -5.73360157   4.02545929
1   2.84132528  -3.44354510   6.56688738
1  -1.62651956  -3.03826904   7.37282562
1   0.30585232   4.92959690  -6.70932102
1   2.56888270   6.66815376  -4.10953856
1  -2.88224554   6.35878086  -4.36611891
1   0.01834483   8.18400383  -1.65788233
1  -6.10529280  -3.52145123  -5.62947321
1  -5.47852039   0.40314656  -6.29017162
1  -8.45344543  -2.52726269  -2.31953359
1  -7.77975130   1.08461940  -3.15768337
1   5.70372963  -0.71840435  -6.17489481
1   7.42732859  -3.75338769  -4.17070293
1   7.16628790   2.39220166  -4.28640127
1   8.80028152  -0.61313266  -1.69502854
1   0.92015648  -6.02883720  -6.45029163
1  -3.10796118  -6.35269403  -5.97985601
1   3.35729361  -7.70236444  -4.13862371
1  -1.54445326  -8.72911072  -2.72520804
