# typeid, x, y, z
0  -0.59527975  -2.03773761  -7.13684988
0   2.28844309  -2.03773761  -7.13684988
0  -0.59527975   0.84598517  -7.13684988
0   2.28844309   0.84598517  -7.13684988
0  -2.03714108  -3.47959924  -5.09775019
0   0.84658170  -3.47959924  -5.09775019
0   3.73030448  -3.47959924  -5.09775019
0  -2.03714108  -0.59587628  -5.09775019
0   3.73030448  -0.59587628  -5.09775019
0  -2.03714108   2.28784657  -5.09775019
0   0.84658170   2.28784657  -5.09775019
0   3.73030448   2.28784657  -5.09775019
0  -3.47900271  -4.92146063  -3.05865002
0  -0.59527975  -4.92146063  -3.05865002
0   2.28844309  -4.92146063  -3.05865002
0   5.17216587  -4.92146063  -3.05865002
0  -3.47900271  -2.03773761  -3.05865002
0   5.17216587  -2.03773761  -3.05865002
0  -3.47900271   0.84598517  -3.05865002
0   5.17216587   0.84598517  -3.05865002
0  -3.47900271   3.72970796  -3.05865002
0  -0.59527975   3.72970796  -3.05865002
0   2.28844309   3.72970796  -3.05865002
0   5.17216587   3.72970796  -3.05865002
0  -4.92086411  -6.36332178  -1.01954997
0  -2.03714108  -6.36332178  -1.01954997
0   0.84658170  -6.36332178  -1.01954997
0   3.73030448  -6.36332178  -1.01954997
0  -4.92086411  -3.47959924  -1.01954997
0   6.61402750  -3.47959924  -1.01954997
0  -4.92086411  -0.59587628  -1.01954997
0   6.61402750  -0.59587628  -1.01954997
0  -4.92086411   2.28784657  -1.01954997
0   6.61402750   2.28784657  -1.01954997
0  -4.92086411   5.17156935  -1.01954997
0  -2.03714108   5.17156935  -1.01954997
0   0.84658170   5.17156935  -1.01954997
0   3.73030448   5.17156935  -1.01954997
0  -6.36272526  -4.92146063   1.01954997
0  -3.47900271  -4.92146063   1.01954997
0  -0.59527975  -4.92146063   1.01954997
0   2.28844309  -4.92146063   1.01954997
0   5.17216587  -4.92146063   1.01954997
0  -6.36272526  -2.03773761   1.01954997
0   5.17216587  -2.03773761   1.01954997
0  -6.36272526   0.84598517   1.01954997
0   5.17216587   0.84598517   1.01954997
0  -6.36272526   3.72970796   1.01954997
0   5.17216587   3.72970796   1.01954997
0  -3.47900271   6.61343098   1.01954997
0  -0.59527975   6.61343098   1.01954997
0   2.28844309   6.61343098   1.01954997
0  -4.92086411  -3.47959924   3.05865002
0  -2.03714108  -3.47959924   3.05865002
0   0.84658170  -3.47959924   3.05865002
0   3.73030448  -3.47959924   3.05865002
0  -4.92086411  -0.59587628   3.05865002
0   3.73030448  -0.59587628   3.05865002
0  -4.92086411   2.28784657   3.05865002
0   3.73030448   2.28784657   3.05865002
0  -4.92086411   5.17156935   3.05865002
0  -2.03714108   5.17156935   3.05865002
0   0.84658170   5.17156935   3.05865002
0   3.73030448   5.17156935   3.05865002
0  -3.47900271  -2.03773761   5.09775019
0  -0.59527975  -2.03773761   5.09775019
0   2.28844309  -2.03773761   5.09775019
0  -3.47900271   0.84598517   5.09775019
0   2.28844309   0.84598517   5.09775019
0  -3.47900271   3.72970796   5.09775019
0  -0.59527975   3.72970796   5.09775019
0   2.28844309   3.72970796   5.09775019
0  -2.03714108  -0.59587628   7.13684988
0   0.84658170  -0.59587628   7.13684988
0  -2.03714108   2.28784657   7.13684988
0   0.84658170   2.28784657   7.13684988
1   7.13334656   5.23825693  -1.52004755
1   5.13841629   6.73453569   1.19935524
1  -7.24724627  -7.23194790   3.24990416
1  -6.37760019   6.87593031   1.25462019
1   6.65909958  -6.42533159  -1.02964711
1  -0.45087424   1.03272021   9.33395767
1   0.87655723  -0.58688724  -9.24179935
1   2.30065370   7.39872599   4.14640141
1  -5.08003044   7.27217913   5.07242489
1  -1.54211760   7.96173620   3.33844709
1   1.41476893   5.10229492   7.67179346
1  -2.36063075   5.21746302   7.32237530
1  -8.58418941  -3.52785444   2.17172909
1  -7.62471724   0.07680257   3.66255593
1  -6.60313845   3.59094501   5.09784508
1  -6.20482779  -2.96200395   5.72589493
1  -4.68140697   0.88762146   7.72531319
1   7.51394892  -3.60402989   1.78441715
1   7.95068884   3.22400880   1.70739198
1   6.45549679   0.01818116   3.36884451
1   4.90049267  -2.97937179   5.68431711
1   3.38862205   1.09301198   7.79388857
1   5.22834158   3.91993260   5.16525269
1  -3.57644629  -8.06521034   0.91679978
1   0.43858913  -7.55705738   1.55016279
1   4.04039049  -6.54042530   3.05624819
1  -3.40111923  -5.74922228   4.04020071
1   1.12708104  -4.76384592   5.55238199
1  -2.27325511  -3.38184810   7.44586229
1   0.77601272   3.42051744  -7.77377748
1  -1.75742269   5.26321983  -5.08951378
1   3.62444401   5.27540016  -5.23161077
1  -1.83145607   7.93660784  -1.10064721
1   2.08250809   7.43671131  -2.08619213
1  -3.18605018  -0.18969961  -7.75679541
1  -4.90124655  -3.96090603  -5.34712791
1  -5.98149681  -0.65279359  -3.75921178
1  -7.40013885  -4.88030767  -1.75767040
1  -4.81754065   2.70231557  -5.43522739
1  -7.32721138   3.61537242  -1.88045800
1  -8.27846241  -0.49710459  -0.71680903
1   5.24241877  -2.04094243  -7.13481903
1   7.49649906   2.09787011  -4.46358871
1   8.05773735  -2.14694476  -3.23028350
1   2.60234094  -5.01663399  -7.42665195
1  -0.92054117  -5.96531725  -5.89006376
1  -4.19801378  -7.70322943  -3.61226130
1   3.75877118  -7.39662170  -3.79879117
1  -0.35721749  -8.53216076  -2.54143190
