# typeid, x, y, z
0  -1.44309628  -1.44092429  -7.85648251
0   1.44062662  -1.44092429  -7.85648251
0  -1.44309628   1.44279861  -7.85648251
0   1.44062662   1.44279861  -7.85648251
0  -2.88495779  -2.88278580  -5.81738234
0  -0.00123483  -2.88278580  -5.81738234
0   2.88248801  -2.88278580  -5.81738234
0  -2.88495779   0.00093719  -5.81738234
0   2.88248801   0.00093719  -5.81738234
0  -2.88495779   2.88466001  -5.81738234
0  -0.00123483   2.88466001  -5.81738234
0   2.88248801   2.88466001  -5.81738234
0  -4.32681894  -4.32464695  -3.77828240
0  -1.44309628  -4.32464695  -3.77828240
0   1.44062662  -4.32464695  -3.77828240
0   4.32434940  -4.32464695  -3.77828240
0  -4.32681894  -1.44092429  -3.77828240
0   4.32434940  -1.44092429  -3.77828240
0  -4.32681894   1.44279861  -3.77828240
0   4.32434940   1.44279861  -3.77828240
0  -4.32681894   4.32652140  -3.77828240
0  -1.44309628   4.32652140  -3.77828240
0   1.44062662   4.32652140  -3.77828240
0   4.32434940   4.32652140  -3.77828240
0  -2.88495779  -5.76650858  -1.73918235
0  -0.00123483  -5.76650858  -1.73918235
0   2.88248801  -5.76650858  -1.73918235
0  -5.76868057  -2.88278580  -1.73918235
0   5.76621103  -2.88278580  -1.73918235
0  -5.76868057   0.00093719  -1.73918235
0   5.76621103   0.00093719  -1.73918235
0  -5.76868057   2.88466001  -1.73918235
0   5.76621103   2.88466001  -1.73918235
0  -2.88495779   5.76838303  -1.73918235
0  -0.00123483   5.76838303  -1.73918235
0   2.88248801   5.76838303  -1.73918235
0  -1.44309628  -7.20837021   0.29991764
0   1.44062662  -7.20837021   0.29991764
0  -4.32681894  -4.32464695   0.29991764
0   4.32434940  -4.32464695   0.29991764
0  -7.21054220  -1.44092429   0.29991764
0   7.20807219  -1.44092429   0.29991764
0  -7.21054220   1.44279861   0.29991764
0   7.20807219   1.44279861   0.29991764
0  -4.32681894   4.32652140   0.29991764
0   4.32434940   4.32652140   0.29991764
0  -1.44309628   7.21024418   0.29991764
0   1.44062662   7.21024418   0.29991764
0  -2.88495779  -5.76650858   2.33901763
0  -0.00123483  -5.76650858   2.33901763
0   2.88248801  -5.76650858   2.33901763
0  -5.76868057  -2.88278580   2.33901763
0   5.76621103  -2.88278580   2.33901763
0  -5.76868057   0.00093719   2.33901763
0   5.76621103   0.00093719   2.33901763
0  -5.76868057   2.88466001   2.33901763
0   5.76621103   2.88466001   2.33901763
0  -2.88495779   5.76838303   2.33901763
0  -0.00123483   5.76838303   2.33901763
0   2.88248801   5.76838303   2.33901763
0  -4.32681894  -4.32464695   4.37811756
0  -1.44309628  -4.32464695   4.37811756
0   1.44062662  -4.32464695   4.37811756
0   4.32434940  -4.32464695   4.37811756
0  -4.32681894  -1.44092429   4.37811756
0   4.32434940  -1.44092429   4.37811756
0  -4.32681894   1.44279861   4.37811756
0   4.32434940   1.44279861   4.37811756
0  -4.32681894   4.32652140   4.37811756
0  -1.44309628   4.32652140   4.37811756
0   1.44062662   4.32652140   4.37811756
0   4.32434940   4.32652140   4.37811756
0  -2.88495779  -2.88278580   6.41721773
0  -0.00123483  -2.88278580   6.41721773
0   2.88248801  -2.88278580   6.41721773
0  -2.88495779   0.00093719   6.41721773
0  -0.00123483   0.00093719   6.41721773
0   2.88248801   0.00093719   6.41721773
0  -2.88495779   2.88466001   6.41721773
0  -0.00123483   2.88466001   6.41721773
0   2.88248801   2.88466001   6.41721773
1   5.80297375   6.10145760  -1.85838151
1   8.69048882   3.86374736  -0.14952855
1   4.02170038   8.54705906   0.97971249
1   6.10767698   5.74307919   2.57420874
1  -6.22342443  -6.23847914  -2.94560432
1  -4.27917624  -7.37377691   0.37643820
1  -7.44673824  -4.43334055   0.24969848
1  -6.58494616  -6.15593863   3.73043823
1  -6.52483559   5.84710741  -2.87845945
1  -7.48778915   4.23229694   0.43861985
1  -4.36613607   7.29649591   0.35061845
1  -6.67351723   6.19042349   3.85147452
1   5.81307936  -5.98687887  -1.68953943
1   8.75981903  -3.80103517  -0.08220215
1   3.93245840  -8.59351349   1.10419655
1   6.17962217  -5.82380152   2.55053878
1  -2.51406598  -1.75402975   9.01097012
1   2.68750024   2.26099420   9.26086521
1  -1.44045913   1.72822773   8.69724655
1   1.49667442  -1.53492427   8.52088642
1   0.23434639   0.05631341 -10.06791973
1  -0.10383467   9.60171032   1.27477658
1   2.75442481   7.19254875   4.79287672
1  -1.44922745   7.34121227   4.21212530
1   0.77784598   5.48699188   7.56606865
1  -3.62555647   5.60522032   7.08224583
1  -7.62318563   1.60814559   4.17311096
1  -8.39886951  -2.18340540   3.48368144
1  -5.45693684   1.52230537   7.17090225
1  -5.90034628  -2.50441766   6.41974020
1   8.92251301  -0.15655868   2.37350798
1   7.06633377  -2.65119815   4.82641506
1   7.06155014   2.38245273   5.02905655
1   5.51935673  -0.42302474   7.51850557
1  -0.04535543  -9.73337173   1.20451033
1   3.01607561  -7.18768549   4.76803017
1  -1.23903000  -7.34463930   4.25338459
1  -3.44260502  -5.67886686   7.03020573
1   0.76255816  -5.51188421   7.00173903
1  -0.32506725   4.06231499  -8.57929611
1  -3.52167058   5.69590902  -6.40592718
1   0.12104239   6.49576235  -5.04077911
1   3.88424468   5.79389954  -6.30418587
1  -1.89579523   8.41290760  -2.35724282
1   2.05010939   8.46898651  -2.24383879
1  -3.95159554   0.20150375  -8.61067867
1  -5.99777412   2.62313294  -5.90030193
1  -5.81031561  -2.90656185  -5.88990784
1  -8.17971230  -1.81611168  -2.78301311
1  -8.26508713   1.87305355  -2.65077043
1   4.16811371  -2.30338216  -8.50959492
1   4.05712223   2.29208183  -8.48815155
1   5.94514561   0.07359777  -5.75326252
1   7.10994291   3.41659641  -4.26263618
1   7.01978493  -3.41448236  -4.29324627
1   8.67032146   0.15067799  -1.93371987
1   0.48326403  -4.19043493  -8.49005413
1   0.60834652  -6.57895565  -5.27124834
1  -2.84044123  -5.83170223  -5.90114164
1   4.18553972  -5.77077770  -6.43809795
1  -1.76123333  -8.36941719  -2.40848446
1   2.07275796  -8.57157707  -2.23570228
