# typeid, x, y, z
0  -5.04828072  -4.15137672 -17.71718788
0  -2.16455793  -4.15137672 -17.71718788
0   0.71916503  -4.15137672 -17.71718788
0   3.60288787  -4.15137672 -17.71718788
0   6.48661089  -4.15137672 -17.71718788
0  -5.04828072  -1.26765406 -17.71718788
0  -2.16455793  -1.26765406 -17.71718788
0   0.71916503  -1.26765406 -17.71718788
0   3.60288787  -1.26765406 -17.71718788
0   6.48661089  -1.26765406 -17.71718788
0  -5.04828072   1.61606884 -17.71718788
0  -2.16455793   1.61606884 -17.71718788
0   0.71916503   1.61606884 -17.71718788
0   3.60288787   1.61606884 -17.71718788
0   6.48661089   1.61606884 -17.71718788
0  -5.04828072   4.49979162 -17.71718788
0  -2.16455793   4.49979162 -17.71718788
0   0.71916503   4.49979162 -17.71718788
0   3.60288787   4.49979162 -17.71718788
0   6.48661089   4.49979162 -17.71718788
0  -6.49014235  -5.59323835 -15.67808819
0  -3.60641932  -5.59323835 -15.67808819
0  -0.72269642  -5.59323835 -15.67808819
0   2.16102648  -5.59323835 -15.67808819
0   5.04474926  -5.59323835 -15.67808819
0   7.92847204  -5.59323835 -15.67808819
0  -6.49014235  -2.70951533 -15.67808819
0   7.92847204  -2.70951533 -15.67808819
0  -6.49014235   0.17420743 -15.67808819
0   7.92847204   0.17420743 -15.67808819
0  -6.49014235   3.05793023 -15.67808819
0   7.92847204   3.05793023 -15.67808819
0  -6.49014235   5.94165325 -15.67808819
0  -3.60641932   5.94165325 -15.67808819
0  -0.72269642   5.94165325 -15.67808819
0   2.16102648   5.94165325 -15.67808819
0   5.04474926   5.94165325 -15.67808819
0   7.92847204   5.94165325 -15.67808819
0  -7.93200350  -7.03509998 -13.63898849
0  -5.04828072  -7.03509998 -13.63898849
0  -2.16455793  -7.03509998 -13.63898849
0   0.71916503  -7.03509998 -13.63898849
0   3.60288787  -7.03509998 -13.63898849
0   6.48661089  -7.03509998 -13.63898849
0   9.37033367  -7.03509998 -13.63898849
0  -7.93200350  -4.15137672 -13.63898849
0   9.37033367  -4.15137672 -13.63898849
0  -7.93200350  -1.26765406 -13.63898849
0   9.37033367  -1.26765406 -13.63898849
0  -7.93200350   1.61606884 -13.63898849
0   9.37033367   1.61606884 -13.63898849
0  -7.93200350   4.49979162 -13.63898849
0   9.37033367   4.49979162 -13.63898849
0  -7.93200350   7.38351440 -13.63898849
0  -5.04828072   7.38351440 -13.63898849
0  -2.16455793   7.38351440 -13.63898849
0   0.71916503   7.38351440 -13.63898849
0   3.60288787   7.38351440 -13.63898849
0   6.48661089   7.38351440 -13.63898849
0   9.37033367   7.38351440 -13.63898849
0  -9.37386513  -8.47696114 -11.59988880
0  -6.49014235  -8.47696114 -11.59988880
0  -3.60641932  -8.47696114 -11.59988880
0  -0.72269642  -8.47696114 -11.59988880
0   2.16102648  -8.47696114 -11.59988880
0   5.04474926  -8.47696114 -11.59988880
0   7.92847204  -8.47696114 -11.59988880
0  10.81219482  -8.47696114 -11.59988880
0  -9.37386513  -5.59323835 -11.59988880
0  10.81219482  -5.59323835 -11.59988880
0  -9.37386513  -2.70951533 -11.59988880
0  10.81219482  -2.70951533 -11.59988880
0  -9.37386513   0.17420743 -11.59988880
0  10.81219482   0.17420743 -11.59988880
0  -9.37386513   3.05793023 -11.59988880
0  10.81219482   3.05793023 -11.59988880
0  -9.37386513   5.94165325 -11.59988880
0  10.81219482   5.94165325 -11.59988880
0  -9.37386513   8.82537651 -11.59988880
0  -6.49014235   8.82537651 -11.59988880
0  -3.60641932   8.82537651 -11.59988880
0  -0.72269642   8.82537651 -11.59988880
0   2.16102648   8.82537651 -11.59988880
0   5.04474926   8.82537651 -11.59988880
0   7.92847204   8.82537651 -11.59988880
0  10.81219482   8.82537651 -11.59988880
0 -10.81572628  -9.91882229  -9.56078815
0  -7.93200350  -9.91882229  -9.56078815
0  -5.04828072  -9.91882229  -9.56078815
0  -2.16455793  -9.91882229  -9.56078815
0   0.71916503  -9.91882229  -9.56078815
0   3.60288787  -9.91882229  -9.56078815
0   6.48661089  -9.91882229  -9.56078815
0   9.37033367  -9.91882229  -9.56078815
0  12.25405693  -9.91882229  -9.56078815
0 -10.81572628  -7.03509998  -9.56078815
0  12.25405693  -7.03509998  -9.56078815
0 -10.81572628  -4.15137672  -9.56078815
0  12.25405693  -4.15137672  -9.56078815
0 -10.81572628  -1.26765406  -9.56078815
0  12.25405693  -1.26765406  -9.56078815
0 -10.81572628   1.61606884  -9.56078815
0  12.25405693   1.61606884  -9.56078815
0 -10.81572628   4.49979162  -9.56078815
0  12.25405693   4.49979162  -9.56078815
0 -10.81572628   7.38351440  -9.56078815
0  12.25405693   7.38351440  -9.56078815
0 -10.81572628  10.26723766  -9.56078815
0  -7.93200350  10.26723766  -9.56078815
0  -5.04828072  10.26723766  -9.56078815
0  -2.16455793  10.26723766  -9.56078815
0   0.71916503  10.26723766  -9.56078815
0   3.60288787  10.26723766  -9.56078815
0   6.48661089  10.26723766  -9.56078815
0   9.37033367  10.26723766  -9.56078815
0  12.25405693  10.26723766  -9.56078815
0 -12.25758839 -11.36068439  -7.52168846
0  -9.37386513 -11.36068439  -7.52168846
0  -6.49014235 -11.36068439  -7.52168846
0  -3.60641932 -11.36068439  -7.52168846
0  -0.72269642 -11.36068439  -7.52168846
0   2.16102648 -11.36068439  -7.52168846
0   5.04474926 -11.36068439  -7.52168846
0   7.92847204 -11.36068439  -7.52168846
0  10.81219482 -11.36068439  -7.52168846
0  13.69591808 -11.36068439  -7.52168846
0 -12.25758839  -8.47696114  -7.52168846
0  13.69591808  -8.47696114  -7.52168846
0 -12.25758839  -5.59323835  -7.52168846
0  13.69591808  -5.59323835  -7.52168846
0 -12.25758839  -2.70951533  -7.52168846
0  13.69591808  -2.70951533  -7.52168846
0 -12.25758839   0.17420743  -7.52168846
0  13.69591808   0.17420743  -7.52168846
0 -12.25758839   3.05793023  -7.52168846
0  13.69591808   3.05793023  -7.52168846
0 -12.25758839   5.94165325  -7.52168846
0  13.69591808   5.94165325  -7.52168846
0 -12.25758839   8.82537651  -7.52168846
0  13.69591808   8.82537651  -7.52168846
0 -12.25758839  11.70909882  -7.52168846
0  -9.37386513  11.70909882  -7.52168846
0  -6.49014235  11.70909882  -7.52168846
0  -3.60641932  11.70909882  -7.52168846
0  -0.72269642  11.70909882  -7.52168846
0   2.16102648  11.70909882  -7.52168846
0   5.04474926  11.70909882  -7.52168846
0   7.92847204  11.70909882  -7.52168846
0  10.81219482  11.70909882  -7.52168846
0  13.69591808  11.70909882  -7.52168846
0 -13.69944954 -12.80254555  -5.48258829
0 -10.81572628 -12.80254555  -5.48258829
0  -7.93200350 -12.80254555  -5.48258829
0  -5.04828072 -12.80254555  -5.48258829
0  -2.16455793 -12.80254555  -5.48258829
0   0.71916503 -12.80254555  -5.48258829
0   3.60288787 -12.80254555  -5.48258829
0   6.48661089 -12.80254555  -5.48258829
0   9.37033367 -12.80254555  -5.48258829
0  12.25405693 -12.80254555  -5.48258829
0 -13.69944954  -9.91882229  -5.48258829
0  15.13777924  -9.91882229  -5.48258829
0 -13.69944954  -7.03509998  -5.48258829
0  15.13777924  -7.03509998  -5.48258829
0 -13.69944954  -4.15137672  -5.48258829
0  15.13777924  -4.15137672  -5.48258829
0 -13.69944954  -1.26765406  -5.48258829
0  15.13777924  -1.26765406  -5.48258829
0 -13.69944954   1.61606884  -5.48258829
0  15.13777924   1.61606884  -5.48258829
0 -13.69944954   4.49979162  -5.48258829
0  15.13777924   4.49979162  -5.48258829
0 -13.69944954   7.38351440  -5.48258829
0  15.13777924   7.38351440  -5.48258829
0 -13.69944954  10.26723766  -5.48258829
0  15.13777924  10.26723766  -5.48258829
0 -10.81572628  13.15095997  -5.48258829
0  -7.93200350  13.15095997  -5.48258829
0  -5.04828072  13.15095997  -5.48258829
0  -2.16455793  13.15095997  -5.48258829
0   0.71916503  13.15095997  -5.48258829
0   3.60288787  13.15095997  -5.48258829
0   6.48661089  13.15095997  -5.48258829
0   9.37033367  13.15095997  -5.48258829
0  12.25405693  13.15095997  -5.48258829
0 -12.25758839 -14.24440670  -3.44348836
0  -9.37386513 -14.24440670  -3.44348836
0  -6.49014235 -14.24440670  -3.44348836
0  -3.60641932 -14.24440670  -3.44348836
0  -0.72269642 -14.24440670  -3.44348836
0   2.16102648 -14.24440670  -3.44348836
0   5.04474926 -14.24440670  -3.44348836
0   7.92847204 -14.24440670  -3.44348836
0  10.81219482 -14.24440670  -3.44348836
0 -15.14131069 -11.36068439  -3.44348836
0  13.69591808 -11.36068439  -3.44348836
0 -15.14131069  -8.47696114  -3.44348836
0  16.57964134  -8.47696114  -3.44348836
0 -15.14131069  -5.59323835  -3.44348836
0  16.57964134  -5.59323835  -3.44348836
0 -15.14131069  -2.70951533  -3.44348836
0  16.57964134  -2.70951533  -3.44348836
0 -15.14131069   0.17420743  -3.44348836
0  16.57964134   0.17420743  -3.44348836
0 -15.14131069   3.05793023  -3.44348836
0  16.57964134   3.05793023  -3.44348836
0 -15.14131069   5.94165325  -3.44348836
0  16.57964134   5.94165325  -3.44348836
0 -15.14131069   8.82537651  -3.44348836
0  16.57964134   8.82537651  -3.44348836
0 -12.25758839  11.70909882  -3.44348836
0  13.69591808  11.70909882  -3.44348836
0  -9.37386513  14.59282207  -3.44348836
0  -6.49014235  14.59282207  -3.44348836
0  -3.60641932  14.59282207  -3.44348836
0  -0.72269642  14.59282207  -3.44348836
0   2.16102648  14.59282207  -3.44348836
0   5.04474926  14.59282207  -3.44348836
0   7.92847204  14.59282207  -3.44348836
0  10.81219482  14.59282207  -3.44348836
0 -10.81572628 -15.68626881  -1.40438843
0  -7.93200350 -15.68626881  -1.40438843
0  -5.04828072 -15.68626881  -1.40438843
0  -2.16455793 -15.68626881  -1.40438843
0   0.71916503 -15.68626881  -1.40438843
0   3.60288787 -15.68626881  -1.40438843
0   6.48661089 -15.68626881  -1.40438843
0   9.37033367 -15.68626881  -1.40438843
0 -13.69944954 -12.80254555  -1.40438843
0  12.25405693 -12.80254555  -1.40438843
0 -16.58317184  -9.91882229  -1.40438843
0  15.13777924  -9.91882229  -1.40438843
0 -16.58317184  -7.03509998  -1.40438843
0  18.02150154  -7.03509998  -1.40438843
0 -16.58317184  -4.15137672  -1.40438843
0  18.02150154  -4.15137672  -1.40438843
0 -16.58317184  -1.26765406  -1.40438843
0  18.02150154  -1.26765406  -1.40438843
0 -16.58317184   1.61606884  -1.40438843
0  18.02150154   1.61606884  -1.40438843
0 -16.58317184   4.49979162  -1.40438843
0  18.02150154   4.49979162  -1.40438843
0 -16.58317184   7.38351440  -1.40438843
0  18.02150154   7.38351440  -1.40438843
0 -13.69944954  10.26723766  -1.40438843
0  15.13777924  10.26723766  -1.40438843
0 -10.81572628  13.15095997  -1.40438843
0  12.25405693  13.15095997  -1.40438843
0  -7.93200350  16.03468323  -1.40438843
0  -5.04828072  16.03468323  -1.40438843
0  -2.16455793  16.03468323  -1.40438843
0   0.71916503  16.03468323  -1.40438843
0   3.60288787  16.03468323  -1.40438843
0   6.48661089  16.03468323  -1.40438843
0   9.37033367  16.03468323  -1.40438843
0  -9.37386513 -17.12812996   0.63471162
0  -6.49014235 -17.12812996   0.63471162
0  -3.60641932 -17.12812996   0.63471162
0  -0.72269642 -17.12812996   0.63471162
0   2.16102648 -17.12812996   0.63471162
0   5.04474926 -17.12812996   0.63471162
0   7.92847204 -17.12812996   0.63471162
0 -12.25758839 -14.24440670   0.63471162
0  10.81219482 -14.24440670   0.63471162
0 -15.14131069 -11.36068439   0.63471162
0  13.69591808 -11.36068439   0.63471162
0 -18.02503395  -8.47696114   0.63471162
0  16.57964134  -8.47696114   0.63471162
0 -18.02503395  -5.59323835   0.63471162
0  16.57964134  -5.59323835   0.63471162
0 -18.02503395  -2.70951533   0.63471162
0  16.57964134  -2.70951533   0.63471162
0 -18.02503395   0.17420743   0.63471162
0  16.57964134   0.17420743   0.63471162
0 -18.02503395   3.05793023   0.63471162
0  16.57964134   3.05793023   0.63471162
0 -18.02503395   5.94165325   0.63471162
0  16.57964134   5.94165325   0.63471162
0 -15.14131069   8.82537651   0.63471162
0  16.57964134   8.82537651   0.63471162
0 -12.25758839  11.70909882   0.63471162
0  13.69591808  11.70909882   0.63471162
0  -9.37386513  14.59282207   0.63471162
0  10.81219482  14.59282207   0.63471162
0  -6.49014235  17.47654533   0.63471162
0  -3.60641932  17.47654533   0.63471162
0  -0.72269642  17.47654533   0.63471162
0   2.16102648  17.47654533   0.63471162
0   5.04474926  17.47654533   0.63471162
0   7.92847204  17.47654533   0.63471162
0 -10.81572628 -15.68626881   2.67381167
0  -7.93200350 -15.68626881   2.67381167
0  -5.04828072 -15.68626881   2.67381167
0  -2.16455793 -15.68626881   2.67381167
0   0.71916503 -15.68626881   2.67381167
0   3.60288787 -15.68626881   2.67381167
0   6.48661089 -15.68626881   2.67381167
0   9.37033367 -15.68626881   2.67381167
0 -13.69944954 -12.80254555   2.67381167
0  12.25405693 -12.80254555   2.67381167
0 -16.58317184  -9.91882229   2.67381167
0  15.13777924  -9.91882229   2.67381167
0 -16.58317184  -7.03509998   2.67381167
0  15.13777924  -7.03509998   2.67381167
0 -16.58317184  -4.15137672   2.67381167
0  15.13777924  -4.15137672   2.67381167
0 -16.58317184  -1.26765406   2.67381167
0  15.13777924  -1.26765406   2.67381167
0 -16.58317184   1.61606884   2.67381167
0  15.13777924   1.61606884   2.67381167
0 -16.58317184   4.49979162   2.67381167
0  15.13777924   4.49979162   2.67381167
0 -16.58317184   7.38351440   2.67381167
0  15.13777924   7.38351440   2.67381167
0 -13.69944954  10.26723766   2.67381167
0  15.13777924  10.26723766   2.67381167
0 -10.81572628  13.15095997   2.67381167
0  12.25405693  13.15095997   2.67381167
0  -7.93200350  16.03468323   2.67381167
0  -5.04828072  16.03468323   2.67381167
0  -2.16455793  16.03468323   2.67381167
0   0.71916503  16.03468323   2.67381167
0   3.60288787  16.03468323   2.67381167
0   6.48661089  16.03468323   2.67381167
0   9.37033367  16.03468323   2.67381167
0 -12.25758839 -14.24440670   4.71291161
0  -9.37386513 -14.24440670   4.71291161
0  -6.49014235 -14.24440670   4.71291161
0  -3.60641932 -14.24440670   4.71291161
0  -0.72269642 -14.24440670   4.71291161
0   2.16102648 -14.24440670   4.71291161
0   5.04474926 -14.24440670   4.71291161
0   7.92847204 -14.24440670   4.71291161
0  10.81219482 -14.24440670   4.71291161
0 -15.14131069 -11.36068439   4.71291161
0  13.69591808 -11.36068439   4.71291161
0 -15.14131069  -8.47696114   4.71291161
0  13.69591808  -8.47696114   4.71291161
0 -15.14131069  -5.59323835   4.71291161
0  13.69591808  -5.59323835   4.71291161
0 -15.14131069  -2.70951533   4.71291161
0  13.69591808  -2.70951533   4.71291161
0 -15.14131069   0.17420743   4.71291161
0  13.69591808   0.17420743   4.71291161
0 -15.14131069   3.05793023   4.71291161
0  13.69591808   3.05793023   4.71291161
0 -15.14131069   5.94165325   4.71291161
0  13.69591808   5.94165325   4.71291161
0 -15.14131069   8.82537651   4.71291161
0  13.69591808   8.82537651   4.71291161
0 -12.25758839  11.70909882   4.71291161
0  13.69591808  11.70909882   4.71291161
0  -9.37386513  14.59282207   4.71291161
0  -6.49014235  14.59282207   4.71291161
0  -3.60641932  14.59282207   4.71291161
0  -0.72269642  14.59282207   4.71291161
0   2.16102648  14.59282207   4.71291161
0   5.04474926  14.59282207   4.71291161
0   7.92847204  14.59282207   4.71291161
0  10.81219482  14.59282207   4.71291161
0 -13.69944954 -12.80254555   6.75201178
0 -10.81572628 -12.80254555   6.75201178
0  -7.93200350 -12.80254555   6.75201178
0  -5.04828072 -12.80254555   6.75201178
0  -2.16455793 -12.80254555   6.75201178
0   0.71916503 -12.80254555   6.75201178
0   3.60288787 -12.80254555   6.75201178
0   6.48661089 -12.80254555   6.75201178
0   9.37033367 -12.80254555   6.75201178
0  12.25405693 -12.80254555   6.75201178
0 -13.69944954  -9.91882229   6.75201178
0  12.25405693  -9.91882229   6.75201178
0 -13.69944954  -7.03509998   6.75201178
0  12.25405693  -7.03509998   6.75201178
0 -13.69944954  -4.15137672   6.75201178
0  12.25405693  -4.15137672   6.75201178
0 -13.69944954  -1.26765406   6.75201178
0  12.25405693  -1.26765406   6.75201178
0 -13.69944954   1.61606884   6.75201178
0  12.25405693   1.61606884   6.75201178
0 -13.69944954   4.49979162   6.75201178
0  12.25405693   4.49979162   6.75201178
0 -13.69944954   7.38351440   6.75201178
0  12.25405693   7.38351440   6.75201178
0 -13.69944954  10.26723766   6.75201178
0  12.25405693  10.26723766   6.75201178
0 -10.81572628  13.15095997   6.75201178
0  -7.93200350  13.15095997   6.75201178
0  -5.04828072  13.15095997   6.75201178
0  -2.16455793  13.15095997   6.75201178
0   0.71916503  13.15095997   6.75201178
0   3.60288787  13.15095997   6.75201178
0   6.48661089  13.15095997   6.75201178
0   9.37033367  13.15095997   6.75201178
0  12.25405693  13.15095997   6.75201178
0 -12.25758839 -11.36068439   8.79111195
0  -9.37386513 -11.36068439   8.79111195
0  -6.49014235 -11.36068439   8.79111195
0  -3.60641932 -11.36068439   8.79111195
0  -0.72269642 -11.36068439   8.79111195
0   2.16102648 -11.36068439   8.79111195
0   5.04474926 -11.36068439   8.79111195
0   7.92847204 -11.36068439   8.79111195
0  10.81219482 -11.36068439   8.79111195
0 -12.25758839  -8.47696114   8.79111195
0  10.81219482  -8.47696114   8.79111195
0 -12.25758839  -5.59323835   8.79111195
0  10.81219482  -5.59323835   8.79111195
0 -12.25758839  -2.70951533   8.79111195
0  10.81219482  -2.70951533   8.79111195
0 -12.25758839   0.17420743   8.79111195
0  10.81219482   0.17420743   8.79111195
0 -12.25758839   3.05793023   8.79111195
0  10.81219482   3.05793023   8.79111195
0 -12.25758839   5.94165325   8.79111195
0  10.81219482   5.94165325   8.79111195
0 -12.25758839   8.82537651   8.79111195
0  10.81219482   8.82537651   8.79111195
0 -12.25758839  11.70909882   8.79111195
0  -9.37386513  11.70909882   8.79111195
0  -6.49014235  11.70909882   8.79111195
0  -3.60641932  11.70909882   8.79111195
0  -0.72269642  11.70909882   8.79111195
0   2.16102648  11.70909882   8.79111195
0   5.04474926  11.70909882   8.79111195
0   7.92847204  11.70909882   8.79111195
0  10.81219482  11.70909882   8.79111195
0 -10.81572628  -9.91882229  10.83021164
0  -7.93200350  -9.91882229  10.83021164
0  -5.04828072  -9.91882229  10.83021164
0  -2.16455793  -9.91882229  10.83021164
0   0.71916503  -9.91882229  10.83021164
0   3.60288787  -9.91882229  10.83021164
0   6.48661089  -9.91882229  10.83021164
0   9.37033367  -9.91882229  10.83021164
0 -10.81572628  -7.03509998  10.83021164
0   9.37033367  -7.03509998  10.83021164
0 -10.81572628  -4.15137672  10.83021164
0   9.37033367  -4.15137672  10.83021164
0 -10.81572628  -1.26765406  10.83021164
0   9.37033367  -1.26765406  10.83021164
0 -10.81572628   1.61606884  10.83021164
0   9.37033367   1.61606884  10.83021164
0 -10.81572628   4.49979162  10.83021164
0   9.37033367   4.49979162  10.83021164
0 -10.81572628   7.38351440  10.83021164
0   9.37033367   7.38351440  10.83021164
0 -10.81572628  10.26723766  10.83021164
0  -7.93200350  10.26723766  10.83021164
0  -5.04828072  10.26723766  10.83021164
0  -2.16455793  10.26723766  10.83021164
0   0.71916503  10.26723766  10.83021164
0   3.60288787  10.26723766  10.83021164
0   6.48661089  10.26723766  10.83021164
0   9.37033367  10.26723766  10.83021164
0  -9.37386513  -8.47696114  12.86931133
0  -6.49014235  -8.47696114  12.86931133
0  -3.60641932  -8.47696114  12.86931133
0  -0.72269642  -8.47696114  12.86931133
0   2.16102648  -8.47696114  12.86931133
0   5.04474926  -8.47696114  12.86931133
0   7.92847204  -8.47696114  12.86931133
0  -9.37386513  -5.59323835  12.86931133
0   7.92847204  -5.59323835  12.86931133
0  -9.37386513  -2.70951533  12.86931133
0   7.92847204  -2.70951533  12.86931133
0  -9.37386513   0.17420743  12.86931133
0   7.92847204   0.17420743  12.86931133
0  -9.37386513   3.05793023  12.86931133
0   7.92847204   3.05793023  12.86931133
0  -9.37386513   5.94165325  12.86931133
0   7.92847204   5.94165325  12.86931133
0  -9.37386513   8.82537651  12.86931133
0  -6.49014235   8.82537651  12.86931133
0  -3.60641932   8.82537651  12.86931133
0  -0.72269642   8.82537651  12.86931133
0   2.16102648   8.82537651  12.86931133
0   5.04474926   8.82537651  12.86931133
0   7.92847204   8.82537651  12.86931133
0  -7.93200350  -7.03509998  14.90841198
0  -5.04828072  -7.03509998  14.90841198
0  -2.16455793  -7.03509998  14.90841198
0   0.71916503  -7.03509998  14.90841198
0   3.60288787  -7.03509998  14.90841198
0   6.48661089  -7.03509998  14.90841198
0  -7.93200350  -4.15137672  14.90841198
0   6.48661089  -4.15137672  14.90841198
0  -7.93200350  -1.26765406  14.90841198
0   6.48661089  -1.26765406  14.90841198
0  -7.93200350   1.61606884  14.90841198
0   6.48661089   1.61606884  14.90841198
0  -7.93200350   4.49979162  14.90841198
0   6.48661089   4.49979162  14.90841198
0  -7.93200350   7.38351440  14.90841198
0  -5.04828072   7.38351440  14.90841198
0  -2.16455793   7.38351440  14.90841198
0   0.71916503   7.38351440  14.90841198
0   3.60288787   7.38351440  14.90841198
0   6.48661089   7.38351440  14.90841198
0  -6.49014235  -5.59323835  16.94751167
0  -3.60641932  -5.59323835  16.94751167
0  -0.72269642  -5.59323835  16.94751167
0   2.16102648  -5.59323835  16.94751167
0   5.04474926  -5.59323835  16.94751167
0  -6.49014235  -2.70951533  16.94751167
0  -3.60641932  -2.70951533  16.94751167
0  -0.72269642  -2.70951533  16.94751167
0   2.16102648  -2.70951533  16.94751167
0   5.04474926  -2.70951533  16.94751167
0  -6.49014235   0.17420743  16.94751167
0  -3.60641932   0.17420743  16.94751167
0  -0.72269642   0.17420743  16.94751167
0   2.16102648   0.17420743  16.94751167
0   5.04474926   0.17420743  16.94751167
0  -6.49014235   3.05793023  16.94751167
0  -3.60641932   3.05793023  16.94751167
0  -0.72269642   3.05793023  16.94751167
0   2.16102648   3.05793023  16.94751167
0   5.04474926   3.05793023  16.94751167
0  -6.49014235   5.94165325  16.94751167
0  -3.60641932   5.94165325  16.94751167
0  -0.72269642   5.94165325  16.94751167
0   2.16102648   5.94165325  16.94751167
0   5.04474926   5.94165325  16.94751167
1  15.40075016  13.61933899  -6.49116278
1  13.74025059  14.72908306  -3.24754930
1  16.78558540  11.68269444  -3.38052964
1  19.55629539   9.54490757  -0.17891137
1  10.99725533  17.66203117   0.30292055
1  16.62111473  11.83346176   0.61009395
1  13.82361126  14.67430592   0.70171195
1  13.91275024  14.64328671   4.75371695
1 -15.45893860 -15.08947182  -4.80253887
1 -13.71407318 -15.81093025  -1.33650708
1 -19.39291954 -10.84788704   1.07303357
1 -11.47252750 -18.96593857   1.37888169
1 -16.73423767 -12.91012383  -1.36698723
1 -13.80788803 -15.77167320   2.76623821
1 -16.52523422 -13.00908566   2.81536984
1 -15.16170216 -15.29386806   6.38294220
1 -13.80834961  13.12997627  -5.53895330
1 -13.86474991  13.25169373  -1.32059240
1 -10.81494808  16.26568222  -1.38969123
1 -16.74431610  10.24431896  -1.56461287
1 -10.81547165  16.24830055   2.60887051
1 -16.70871544  10.20489311   2.66162825
1 -13.65862083  13.29688358   2.68760753
1 -13.76945496  13.31617165   6.71224499
1  15.12909794 -13.78028107  -6.59001446
1  16.51169014 -11.63693428  -3.30099273
1  13.75287533 -14.55642986  -3.24297833
1  19.65340614  -9.19999218  -0.93481910
1  13.78519726 -14.46269894   0.69168776
1  10.79218006 -17.43524361   0.31437844
1  16.66429138 -11.56517887   0.80915284
1  13.92926502 -14.28438759   4.53211021
1  11.58928585 -17.13550758   4.11046267
1  -6.54118490   5.00532150  19.71047974
1  -5.07840681  -4.11664057  19.07521057
1   3.62348580   4.34289980  19.12802696
1  -5.00533152   1.37681520  19.13548470
1   4.60040712  -4.66960382  19.72061729
1  -2.04565883  -1.28654838  19.12785721
1   3.33549953  -1.06856751  19.17729187
1  -2.23762727   4.53049612  19.24821663
1   0.70015210  -4.19533968  19.16412544
1   0.73504853   1.74466550  19.21995544
1  -0.76599306   0.13904475 -19.80903053
1   2.19135952   3.16382694 -19.88237572
1  -3.77291512  -2.67075634 -19.90808868
1   2.10217977  -2.71011615 -19.97897148
1   5.02326918   0.04366031 -19.97617340
1  -3.54231215   3.14727449 -19.80852699
1   6.10066748  -3.75264382 -20.57569313
1   5.83516645   3.96064806 -20.46340370
1   0.73293817  19.58347321   2.06941819
1   4.32580996  18.72092819   3.14693666
1   8.33169174  19.68705368   2.52428031
1  -3.31458616  18.54685020   3.42759514
1  -3.00541091  15.98442078   7.10288048
1   7.43907881  17.36519623   5.49611425
1  -7.10564566  17.37036705   5.15851021
1   0.54659057  17.25640297   5.28052902
1  10.79257011  15.51808739   7.59032249
1   3.90823984  16.05553055   6.90987539
1 -10.39631271  16.11638069   6.97928953
1   0.84203911  14.32168865   9.36794662
1   7.35155916  14.52071953   9.20026588
1  -6.53650188  14.87343884   8.48184299
1 -10.79563618  13.96025848  10.08469963
1  -2.66630554  13.24105740  11.01488304
1   4.27396297  13.09662533  11.18147850
1 -10.73447704  11.60166931  13.38159752
1  -6.66270304  12.52446938  11.88750648
1   7.58601284  11.95245647  12.80584908
1  -3.71653390  10.91724586  14.74089718
1   0.05711824  11.66398811  13.28914261
1  -7.52046967  10.21373367  15.30115700
1   7.60868120   9.89025116  16.17445755
1   3.83993173  10.86918926  14.53871536
1  -4.80528164   8.36757565  17.80388260
1  -0.56786138   9.37318897  16.35597992
1   3.89920211   8.43416309  17.67328262
1 -19.84007072  -1.31232667   2.27654099
1 -18.10004807  -8.87058067   4.99191809
1 -19.03953934   2.98160601   3.47186422
1 -19.01863289  -5.30629063   3.53524184
1 -17.58649063  -1.19994056   5.40845871
1 -17.67925835   6.85305691   5.59200764
1 -16.39319038 -11.81574631   7.43935061
1 -16.47982407   2.16096354   7.17908716
1 -16.26829147  -5.69564247   7.34239864
1 -14.98487949   5.08119917   9.37407112
1 -15.43187046   9.02247715   8.66590595
1 -15.01070881  -8.57413197   9.16165066
1 -13.65006828   1.56641805  10.93797302
1 -13.12062168   8.59804153  11.79129601
1 -12.31305408  -8.59956360  12.85318279
1 -15.05475616  -2.03161645   9.27353191
1 -12.34056473   5.04275942  13.12497616
1 -13.33180141  -5.40335178  11.51386452
1 -10.84935474   7.99677086  15.15289593
1 -11.06845665   1.59532404  14.78870869
1 -12.02859306  -2.09990954  13.33028221
1  -9.30619335   5.26728392  17.16677856
1 -10.56796837  -5.98088408  15.38600540
1  -8.73231220   1.53868091  17.90636253
1  -9.51421928  -2.56676316  16.93629074
1  19.11249733  -4.04493046   1.22324312
1  17.98584557  -7.49336529   2.98915672
1  19.67740440   0.15799010   0.49431759
1  19.29547119   4.05418634   1.26977861
1  15.08085537  -7.07577419   6.82458305
1  16.37587547  10.80382919   5.24128342
1  17.44183922   0.10370969   3.89424706
1  16.69321632 -11.02581978   4.92276001
1  17.98981094   7.45830250   2.91691470
1  16.27196121  -3.62183523   5.25659037
1  14.25661755 -11.33316708   8.24688721
1  13.74674225  -2.84756422   8.81402683
1  15.30632687   7.30253506   6.75137186
1  12.82915688  -7.09302855  10.26922417
1  16.45006752   3.78239942   5.02699614
1  13.76051617  11.78126907   8.74426651
1  11.91099548 -11.10876942  11.44898224
1  13.34148216   4.08672142   9.34451008
1  14.89450169   0.27176932   7.26490498
1  13.01335335   7.83076525  10.16674900
1  11.51515484  -2.87964201  12.10849571
1  11.34596348   5.15734386  12.75433254
1  10.79040623   9.07556820  13.10746002
1  12.27984142   0.95872951  11.20847702
1   9.25635910  -2.18594980  15.43337631
1   9.03183365   5.95066071  15.67199039
1  10.40113544  -7.04273272  13.62822628
1   7.77877378   2.67432284  17.51143837
1   8.04909515  -5.55499315  16.86257172
1   9.98685455   1.38123608  14.44258308
1   7.13448334  -1.26560986  18.59020615
1   3.56724262 -19.39628029   1.80346608
1  -0.44058418 -18.38884354   3.14965439
1  -7.88605499 -18.47181702   3.19812989
1   7.82484865 -18.15884590   3.19306636
1  -3.59976983 -17.21397018   4.78464651
1   4.52368832 -17.04946327   5.04046535
1 -11.08432198 -16.97969437   5.23707390
1  -3.69887686 -14.95450878   8.06060886
1  -7.45686245 -16.00815964   6.71723413
1   0.56179219 -16.04933929   6.50771427
1 -12.05940342 -14.50623226   8.69014931
1   4.88345671 -14.74214172   8.34515190
1   8.89915752 -15.92391491   6.64330387
1  -7.80632019 -13.69343853   9.85713005
1   4.59840679 -12.45090008  11.49333954
1   0.70460159 -13.71543407   9.75293732
1   9.22764397 -13.71002293   9.71300316
1   8.23033333 -11.25543022  13.24771786
1  -3.78836608 -12.60835648  11.36935425
1  -9.26652431 -11.53474903  12.87471390
1   7.24044514  -9.25196075  16.67668915
1  -8.64337540  -9.42942333  16.18634224
1  -4.93137836 -10.40704346  14.44323063
1   3.64735460 -10.11809254  14.66695786
1  -0.35784429 -11.39465618  13.09405327
1  -4.97548485  -8.05685139  17.77165222
1   3.42210889  -7.86301804  17.82306671
1  -0.69580644  -8.53922558  16.98523521
1   2.70546126   7.19511890 -18.44458961
1  -4.18487549   7.12431860 -18.29396057
1  -0.50793386   8.69527340 -16.13280678
1  -3.92022133   9.87495327 -14.26838684
1  -7.33695889   8.76505089 -16.09208870
1   6.57856750   7.46651745 -17.75970268
1   3.80873942   9.44831562 -15.71801281
1  -3.71515536  12.37810707 -10.82093239
1   0.63154793  10.93718147 -12.88507462
1  -7.85578585  11.23382187 -12.33056831
1   4.70536089  11.70807552 -11.93235016
1  -3.15144300  14.54548264  -7.83728600
1   7.99093819   9.75172043 -14.45176983
1 -11.24186611  13.18817234  -9.76169777
1  -7.43709517  13.72817802  -9.26047707
1   8.17841434  12.71485519 -10.34186459
1   3.98000002  14.32627869  -8.16455173
1 -10.35676956  15.99083614  -5.94051266
1  12.20539951  13.48541069  -9.09754944
1   0.58429980  13.35920811  -9.40826893
1   4.27190351  17.24380875  -4.25386286
1  11.49490166  15.92610836  -6.05012274
1   7.93358898  14.99514580  -7.21721935
1  -6.22446871  15.79987240  -5.92777300
1   0.73977298  15.99701977  -5.71303368
1  -2.62720990  17.20833015  -4.07395840
1   6.17203760  19.38776588  -1.25246918
1   8.60209942  17.33761597  -3.83926463
1  -6.45905924  18.43744659  -2.21347690
1   1.72197998  18.70771217  -1.89990973
1  -2.22316694  19.68934250  -0.68225050
1  -7.83332920  -3.17871118 -18.19487572
1  -6.91557932   0.30548793 -19.58300400
1  -8.17192173   4.81674004 -17.77816582
1  -9.01209259   1.25953591 -16.24174881
1  -9.35248566  -6.00023413 -16.08545685
1 -10.42088318  -2.57618093 -14.32545280
1 -10.32586956   5.78625345 -14.40817261
1 -12.92855835  -2.73809934 -10.81205273
1 -11.90370369   9.90865517 -12.46779728
1 -11.61018372   1.58168268 -12.67734814
1 -11.83533001  -7.04513264 -12.29068756
1 -14.18455410   1.71471369  -9.22906399
1 -15.16407108  -2.57596970  -7.58971262
1 -12.88759327   5.84217453 -11.11295319
1 -14.47447395  -6.78061199  -8.74109077
1 -13.61973381 -10.56803894 -10.02414799
1 -17.58569527  -3.98076963  -4.14266539
1 -15.07180595   5.40651703  -7.77901554
1 -16.05734634 -11.29238319  -6.40087938
1 -16.44090652   1.02338517  -5.87168550
1 -14.19732761   9.96703148  -9.24738979
1 -16.78255653  -7.44533253  -5.67386007
1 -17.71685982   4.53395033  -4.13724089
1 -18.78446770  -8.41315174  -2.50279140
1 -16.30149841   8.83766842  -6.02584076
1 -19.89702225  -4.05089378  -1.17502332
1 -19.06655693   0.10935578  -2.07453060
1 -19.53794861   7.00889158  -1.69195867
1   8.77521420  -0.06423876 -19.27476501
1   9.61609459  -4.10833359 -17.54458618
1   9.40264416   3.88595557 -17.94376564
1  10.77459621  -0.41453007 -15.95978069
1  11.84105682   3.15360856 -14.29572964
1  11.80873108  -5.70717621 -14.40752029
1  10.61765385   7.29303312 -16.32196808
1  13.01576996  -1.27950251 -12.89886856
1  14.15005398  -5.50051880 -11.15079308
1  15.26599789  -9.96707153  -9.62723064
1  14.15250587   2.81638193 -11.36427307
1  13.26258469   7.20808887 -12.34215355
1  16.14587593   1.79958737  -8.21423244
1  16.05751038   5.81696701  -9.20984459
1  15.26426506  -1.70575106  -9.54635429
1  16.56610107  -5.80218935  -7.54422283
1  15.07998276  10.11622715  -9.86686325
1  17.89549255  -2.22291613  -5.88068962
1  19.35351562  -6.12267399  -3.88266110
1  17.93889809   4.95768929  -5.79364872
1  17.96502113  -9.02348709  -6.01311636
1  17.14512253   8.84386253  -6.84785557
1  20.35629272  -2.46419978  -2.36412024
1  19.44566154   7.93675613  -3.90310097
1  19.18973923   1.45559216  -4.09015083
1  -1.97527862  -8.07726765 -16.39739990
1   2.27709794  -6.73058462 -18.46287537
1   6.16553593  -7.06714344 -17.84652138
1  -5.32077694  -6.90530968 -18.21920395
1   1.97536695  -9.02661324 -15.20200348
1  -2.41418147 -10.43876171 -13.35784245
1   1.75538349 -11.36152649 -11.74507236
1   9.39979839  -8.49174023 -16.08802795
1  -6.71783113  -8.91344357 -15.31907654
1  -2.09739971 -12.71345711  -9.68146038
1   6.02197409  -9.89675045 -14.01519012
1  -6.25499010 -11.23648834 -11.77368164
1   9.58263874 -11.01036835 -12.20989895
1   5.22154188 -12.36167812 -10.30616474
1  -5.17834663 -14.06190300  -8.03925610
1  -9.52792263 -12.39473534 -10.22644711
1   7.80078077 -14.45027256  -7.56105757
1  12.12241936 -12.87546444  -9.60428047
1   3.78616905 -16.23056412  -4.99793386
1   2.32360744 -14.13050079  -7.71061659
1  11.27938461 -15.32840633  -6.18381596
1  -9.13078690 -14.79726410  -7.10764122
1 -13.01692200 -14.21753216  -7.90848255
1   8.43685818 -16.98083496  -3.88340449
1  -1.43465710 -15.56215572  -5.92489243
1 -10.79367161 -16.91885757  -4.00663042
1  -5.15256977 -16.62251091  -4.31552505
1   2.09146953 -18.20971489  -2.00717306
1  -7.81974077 -18.68927765  -1.53336906
1   6.47860098 -18.94773674  -1.17974007
1  -1.95931172 -18.48319435  -1.81123698
