# typeid, x, y, z
0  -0.56814122  -2.31898355  -8.95437717
0   2.31558156  -2.31898355  -8.95437717
0  -0.56814122   0.56473929  -8.95437717
0   2.31558156   0.56473929  -8.95437717
0  -2.01000261  -3.76084495  -6.91527700
0   0.87372017  -3.76084495  -6.91527700
0   3.75744295  -3.76084495  -6.91527700
0  -2.01000261  -0.87712210  -6.91527700
0   3.75744295  -0.87712210  -6.91527700
0  -2.01000261   2.00660086  -6.91527700
0   0.87372017   2.00660086  -6.91527700
0   3.75744295   2.00660086  -6.91527700
0  -3.45186424  -5.20270634  -4.87617683
0  -0.56814122  -5.20270634  -4.87617683
0   2.31558156  -5.20270634  -4.87617683
0   5.19930458  -5.20270634  -4.87617683
0  -3.45186424  -2.31898355  -4.87617683
0   5.19930458  -2.31898355  -4.87617683
0  -3.45186424   0.56473929  -4.87617683
0   5.19930458   0.56473929  -4.87617683
0  -3.45186424   3.44846225  -4.87617683
0  -0.56814122   3.44846225  -4.87617683
0   2.31558156   3.44846225  -4.87617683
0   5.19930458   3.44846225  -4.87617683
0  -4.89372540  -6.64456797  -2.83707714
0  -2.01000261  -6.64456797  -2.83707714
0   0.87372017  -6.64456797  -2.83707714
0   3.75744295  -6.64456797  -2.83707714
0  -4.89372540  -3.76084495  -2.83707714
0   6.64116573  -3.76084495  -2.83707714
0  -4.89372540  -0.87712210  -2.83707714
0   6.64116573  -0.87712210  -2.83707714
0  -4.89372540   2.00660086  -2.83707714
0   6.64116573   2.00660086  -2.83707714
0  -4.89372540   4.89032364  -2.83707714
0  -2.01000261   4.89032364  -2.83707714
0   0.87372017   4.89032364  -2.83707714
0   3.75744295   4.89032364  -2.83707714
0   6.64116573   4.89032364  -2.83707714
0  -3.45186424  -8.08642960  -0.79797703
0  -0.56814122  -8.08642960  -0.79797703
0   2.31558156  -8.08642960  -0.79797703
0  -6.33558702  -5.20270634  -0.79797703
0   5.19930458  -5.20270634  -0.79797703
0  -6.33558702  -2.31898355  -0.79797703
0   8.08302784  -2.31898355  -0.79797703
0  -6.33558702   0.56473929  -0.79797703
0   8.08302784   0.56473929  -0.79797703
0  -6.33558702   3.44846225  -0.79797703
0   8.08302784   3.44846225  -0.79797703
0  -6.33558702   6.33218527  -0.79797703
0  -3.45186424   6.33218527  -0.79797703
0  -0.56814122   6.33218527  -0.79797703
0   2.31558156   6.33218527  -0.79797703
0   5.19930458   6.33218527  -0.79797703
0  -4.89372540  -6.64456797   1.24112296
0  -2.01000261  -6.64456797   1.24112296
0   0.87372017  -6.64456797   1.24112296
0   3.75744295  -6.64456797   1.24112296
0  -7.77744865  -3.76084495   1.24112296
0   6.64116573  -3.76084495   1.24112296
0  -7.77744865  -0.87712210   1.24112296
0   6.64116573  -0.87712210   1.24112296
0  -7.77744865   2.00660086   1.24112296
0   6.64116573   2.00660086   1.24112296
0  -7.77744865   4.89032364   1.24112296
0   6.64116573   4.89032364   1.24112296
0  -4.89372540   7.77404642   1.24112296
0  -2.01000261   7.77404642   1.24112296
0   0.87372017   7.77404642   1.24112296
0   3.75744295   7.77404642   1.24112296
0  -6.33558702  -5.20270634   3.28022289
0  -3.45186424  -5.20270634   3.28022289
0  -0.56814122  -5.20270634   3.28022289
0   2.31558156  -5.20270634   3.28022289
0   5.19930458  -5.20270634   3.28022289
0  -6.33558702  -2.31898355   3.28022289
0   5.19930458  -2.31898355   3.28022289
0  -6.33558702   0.56473929   3.28022289
0   5.19930458   0.56473929   3.28022289
0  -6.33558702   3.44846225   3.28022289
0   5.19930458   3.44846225   3.28022289
0  -6.33558702   6.33218527   3.28022289
0  -3.45186424   6.33218527   3.28022289
0  -0.56814122   6.33218527   3.28022289
0   2.31558156   6.33218527   3.28022289
0   5.19930458   6.33218527   3.28022289
0  -4.89372540  -3.76084495   5.31932306
0  -2.01000261  -3.76084495   5.31932306
0   0.87372017  -3.76084495   5.31932306
0   3.75744295  -3.76084495   5.31932306
0  -4.89372540  -0.87712210   5.31932306
0   3.75744295  -0.87712210   5.31932306
0  -4.89372540   2.00660086   5.31932306
0   3.75744295   2.00660086   5.31932306
0  -4.89372540   4.89032364   5.31932306
0  -2.01000261   4.89032364   5.31932306
0   0.87372017   4.89032364   5.31932306
0   3.75744295   4.89032364   5.31932306
0  -3.45186424  -2.31898355   7.35842276
0  -0.56814122  -2.31898355   7.35842276
0   2.31558156  -2.31898355   7.35842276
0  -3.45186424   0.56473929   7.35842276
0  -0.56814122   0.56473929   7.35842276
0   2.31558156   0.56473929   7.35842276
0  -3.45186424   3.44846225   7.35842276
0  -0.56814122   3.44846225   7.35842276
0   2.31558156   3.44846225   7.35842276
1   8.86665630   6.28187180  -1.48246157
1   6.79143190   7.94642115   1.61759174
1  -6.28527880  -8.32535934  -0.83743209
1  -8.52423763  -6.55039597   1.70142245
1  -7.77750874   8.03321934   1.07879663
1   6.99258947  -6.61343002  -3.04547429
1   4.90614557  -9.26522636  -0.62239921
1  10.11071491  -4.41288757  -0.78674281
1   6.95475006  -6.58055258   1.29273665
1  -2.32532477   2.18682170   9.53140259
1   1.68496609   2.60724068  10.01372910
1  -2.91876054  -1.43355274  10.03899765
1   0.86825764  -0.92686874   9.40360641
1   0.88444465  -0.98371184 -11.05669880
1  -3.49066758   9.39410114   3.12843943
1   0.33128861   8.88220406   4.23191547
1   4.12474585   7.95233154   5.29873419
1  -3.39695573   7.23239565   6.33235216
1   0.25180423   6.14332771   7.88806200
1  -9.26792908   0.64321232   3.64268661
1  -8.23232651  -3.59131312   4.99442577
1  -7.69196129   4.34937143   5.54589605
1  -6.30541325   0.41855687   7.50828695
1   9.62348366  -0.70747018   1.33530712
1   7.97229767  -3.37261558   4.08739281
1   8.86591244   3.40209603   2.27428222
1   6.85003710   4.89102364   5.25861597
1   7.45644283   0.80934554   5.05333853
1   5.33166742  -2.31702352   7.23695135
1   4.83003759   1.66451132   8.14204788
1   0.82688820  -9.67902565   1.04731977
1  -3.56704712  -8.81203365   2.36429739
1   3.38806558  -7.78661442   3.79518652
1  -0.75075150  -7.32629824   5.18347836
1  -4.96269274  -6.66779852   5.39010239
1  -1.98747039  -4.76081324   8.03693676
1   2.29255199  -5.16193008   7.36760283
1   0.94655102   3.20043063  -9.65601254
1  -2.78445888   4.70230055  -7.48193264
1   4.54248095   4.63101530  -7.81561089
1   0.83642119   5.52861929  -6.27363396
1  -3.27462173   7.14711905  -4.09192514
1   0.55719417   7.84613895  -2.91427517
1   5.18061829   6.71631956  -4.48862171
1   4.04440737   8.90035439  -1.40699601
1  -3.79717612   9.25205517  -0.91944456
1  -3.35998774  -2.55636787  -9.09067535
1  -4.61938524   0.93333387  -7.38691854
1  -6.45662689   4.00177622  -5.19378710
1  -5.84296179  -3.63809800  -5.64862347
1  -7.20670319   0.30442986  -3.91194153
1  -7.45015669  -7.11658764  -4.51657963
1  -8.99595356   4.42730093  -1.56809580
1  -8.73568535  -3.87135839  -1.69448721
1  -9.31862450   0.49909556  -0.77335793
1   5.21983051  -2.58347321  -9.20704269
1   6.44033957   0.59203935  -7.44796371
1   7.72767401  -3.30356836  -5.73927879
1   8.35590935   3.45405245  -4.77721643
1   9.42518330  -0.86167485  -3.09221220
1  -3.28439832  -6.30526352  -7.51931429
1   0.90822268  -4.93464231  -9.60197449
1   4.42501402  -6.49148989  -7.53810167
1   0.72443676  -7.33523417  -6.22282124
1  -3.44048810  -8.43561172  -4.36102962
1   4.13957596  -9.20840454  -4.55211115
1   0.76758397  -9.61922932  -2.96948338
