# typeid, x, y, z
0  -0.73910278  -2.14463520  -8.93411255
0   2.14462018  -2.14463520  -8.93411255
0  -0.73910278   0.73908758  -8.93411255
0   2.14462018   0.73908758  -8.93411255
0  -2.18096423  -3.58649683  -6.89501238
0   0.70275867  -3.58649683  -6.89501238
0   3.58648157  -3.58649683  -6.89501238
0  -2.18096423  -0.70277387  -6.89501238
0   3.58648157  -0.70277387  -6.89501238
0  -2.18096423   2.18094897  -6.89501238
0   0.70275867   2.18094897  -6.89501238
0   3.58648157   2.18094897  -6.89501238
0  -3.62282562  -5.02835798  -4.85591221
0  -0.73910278  -5.02835798  -4.85591221
0   2.14462018  -5.02835798  -4.85591221
0   5.02834320  -5.02835798  -4.85591221
0  -3.62282562  -2.14463520  -4.85591221
0   5.02834320  -2.14463520  -4.85591221
0  -3.62282562   0.73908758  -4.85591221
0   5.02834320   0.73908758  -4.85591221
0  -3.62282562   3.62281036  -4.85591221
0  -0.73910278   3.62281036  -4.85591221
0   2.14462018   3.62281036  -4.85591221
0   5.02834320   3.62281036  -4.85591221
0  -5.06468725  -6.47021961  -2.81681228
0  -2.18096423  -6.47021961  -2.81681228
0   0.70275867  -6.47021961  -2.81681228
0   3.58648157  -6.47021961  -2.81681228
0   6.47020435  -6.47021961  -2.81681228
0  -5.06468725  -3.58649683  -2.81681228
0   6.47020435  -3.58649683  -2.81681228
0  -5.06468725  -0.70277387  -2.81681228
0   6.47020435  -0.70277387  -2.81681228
0  -5.06468725   2.18094897  -2.81681228
0   6.47020435   2.18094897  -2.81681228
0  -5.06468725   5.06467199  -2.81681228
0  -2.18096423   5.06467199  -2.81681228
0   0.70275867   5.06467199  -2.81681228
0   3.58648157   5.06467199  -2.81681228
0   6.47020435   5.06467199  -2.81681228
0  -3.62282562  -7.91208124  -0.77771229
0  -0.73910278  -7.91208124  -0.77771229
0   2.14462018  -7.91208124  -0.77771229
0   5.02834320  -7.91208124  -0.77771229
0  -6.50654840  -5.02835798  -0.77771229
0   7.91206598  -5.02835798  -0.77771229
0  -6.50654840  -2.14463520  -0.77771229
0   7.91206598  -2.14463520  -0.77771229
0  -6.50654840   0.73908758  -0.77771229
0   7.91206598   0.73908758  -0.77771229
0  -6.50654840   3.62281036  -0.77771229
0   7.91206598   3.62281036  -0.77771229
0  -6.50654840   6.50653315  -0.77771229
0  -3.62282562   6.50653315  -0.77771229
0  -0.73910278   6.50653315  -0.77771229
0   2.14462018   6.50653315  -0.77771229
0   5.02834320   6.50653315  -0.77771229
0  -5.06468725  -6.47021961   1.26138771
0  -2.18096423  -6.47021961   1.26138771
0   0.70275867  -6.47021961   1.26138771
0   3.58648157  -6.47021961   1.26138771
0   6.47020435  -6.47021961   1.26138771
0  -7.94841003  -3.58649683   1.26138771
0   6.47020435  -3.58649683   1.26138771
0  -7.94841003  -0.70277387   1.26138771
0   6.47020435  -0.70277387   1.26138771
0  -7.94841003   2.18094897   1.26138771
0   6.47020435   2.18094897   1.26138771
0  -7.94841003   5.06467199   1.26138771
0   6.47020435   5.06467199   1.26138771
0  -5.06468725   7.94839478   1.26138771
0  -2.18096423   7.94839478   1.26138771
0   0.70275867   7.94839478   1.26138771
0   3.58648157   7.94839478   1.26138771
0  -6.50654840  -5.02835798   3.30048776
0  -3.62282562  -5.02835798   3.30048776
0  -0.73910278  -5.02835798   3.30048776
0   2.14462018  -5.02835798   3.30048776
0   5.02834320  -5.02835798   3.30048776
0  -6.50654840  -2.14463520   3.30048776
0   5.02834320  -2.14463520   3.30048776
0  -6.50654840   0.73908758   3.30048776
0   5.02834320   0.73908758   3.30048776
0  -6.50654840   3.62281036   3.30048776
0   5.02834320   3.62281036   3.30048776
0  -6.50654840   6.50653315   3.30048776
0  -3.62282562   6.50653315   3.30048776
0  -0.73910278   6.50653315   3.30048776
0   2.14462018   6.50653315   3.30048776
0   5.02834320   6.50653315   3.30048776
0  -5.06468725  -3.58649683   5.33958769
0  -2.18096423  -3.58649683   5.33958769
0   0.70275867  -3.58649683   5.33958769
0   3.58648157  -3.58649683   5.33958769
0  -5.06468725  -0.70277387   5.33958769
0   3.58648157  -0.70277387   5.33958769
0  -5.06468725   2.18094897   5.33958769
0   3.58648157   2.18094897   5.33958769
0  -5.06468725   5.06467199   5.33958769
0  -2.18096423   5.06467199   5.33958769
0   0.70275867   5.06467199   5.33958769
0   3.58648157   5.06467199   5.33958769
0  -3.62282562  -2.14463520   7.37868786
0  -0.73910278  -2.14463520   7.37868786
0   2.14462018  -2.14463520   7.37868786
0  -3.62282562   0.73908758   7.37868786
0  -0.73910278   0.73908758   7.37868786
0   2.14462018   0.73908758   7.37868786
0  -3.62282562   3.62281036   7.37868786
0  -0.73910278   3.62281036   7.37868786
0   2.14462018   3.62281036   7.37868786
1   8.00063896   6.62358952  -0.91025335
1   6.38377523   8.69399929   1.76306903
1  -6.36648703  -8.59988403  -1.15630186
1  -8.19227695  -6.51518345   1.37902725
1  -7.90906858   7.99404097   1.29749346
1   7.89423704  -7.88305712  -0.76454979
1   1.97997332   3.04695129  10.21705055
1  -3.15363216  -1.16769731  10.04846096
1  -2.18934417   2.42025876   9.65606785
1   0.73406333  -0.75244749   9.57629681
1   0.80568624  -0.78384465 -11.14048481
1   2.26667643   9.52514839   3.32051373
1  -5.03545332   8.01648521   5.53512955
1  -1.61255169   9.14731884   4.04435110
1   2.08809352   6.65628719   7.37149382
1  -1.97558558   6.17556000   8.01676178
1  -8.93128777  -3.63770723   3.98614430
1  -9.34115219   0.38427663   3.54434657
1  -6.79496861  -2.17714357   7.09916019
1  -8.06294441   4.96334314   5.26169062
1  -6.16886520   1.76024425   7.92927837
1   9.40979671  -1.14294684   1.37898338
1   8.80681610  -5.05905199   2.14161611
1   9.40714073   2.61760712   1.35307443
1   7.52237701   5.05209160   3.88787985
1   7.70897388   0.90571076   4.59525585
1   6.69800043  -3.51882577   5.20509672
1   5.29994869   3.59019399   7.37516165
1   4.86975479  -0.35858932   7.88866377
1   0.60272443  -9.24768734   1.51245332
1  -3.57385516  -9.01180744   1.96652865
1   4.90530586  -8.67859936   2.41162491
1   3.09658337  -6.79534531   5.29015732
1  -5.68632650  -7.04304266   4.95879078
1  -1.56335080  -7.17037678   5.02502680
1  -3.76013589  -5.06463385   7.50090408
1   0.19560814  -4.88019896   7.92942810
1   0.83879799   3.30033875  -9.58134174
1  -2.69944382   4.75241947  -7.75569868
1   4.91266012   4.85119200  -7.64187813
1   0.92587763   5.77743149  -6.23219728
1  -3.56800699   6.86314344  -4.66476011
1   0.06954564   7.93069029  -3.15598917
1   4.91629314   7.28021049  -3.83675671
1   3.25205135   9.25143337  -1.15708220
1  -4.53881884   9.18976212  -1.38596320
1  -0.75440985  10.13661766   0.14084534
1  -3.63700962  -2.36314654  -9.07627487
1  -4.84300900   1.23747921  -7.44642496
1  -6.68347454   4.28329897  -4.97464561
1  -6.37700796  -2.81095481  -5.28557491
1  -7.58665705   0.79882985  -3.75237775
1  -7.16568184  -6.49074268  -4.90905380
1  -9.19971657   4.50225449  -1.51155591
1  -9.01106358  -3.50974703  -1.47533119
1  -9.88945007   0.81791931  -0.47349477
1   4.91716099   0.88164097  -9.21636105
1   6.16808414  -2.25926304  -7.44541693
1   7.48198271   1.82186401  -5.75467348
1   9.06465626  -1.75748503  -3.48600411
1   7.95547342  -5.10377836  -5.01259565
1   9.65256596   2.24841952  -2.60815692
1   0.18817045  -4.99191999  -9.44270897
1   4.46173477  -6.19602013  -7.59186172
1  -3.33727431  -6.19894361  -7.53223562
1   0.73589808  -7.21995211  -6.15614271
1   0.66498250  -9.40071011  -2.89336371
1  -3.47365642  -8.56489182  -4.30114365
1   5.15033579  -8.57695103  -4.29669476
