# typeid, x, y, z
0  -2.16230607  -3.60556746  -9.17595005
0   0.72141677  -3.60556746  -9.17595005
0   3.60513973  -3.60556746  -9.17595005
0  -2.16230607  -0.72184467  -9.17595005
0   0.72141677  -0.72184467  -9.17595005
0   3.60513973  -0.72184467  -9.17595005
0  -2.16230607   2.16187811  -9.17595005
0   0.72141677   2.16187811  -9.17595005
0   3.60513973   2.16187811  -9.17595005
0  -3.60416746  -5.04742908  -7.13684988
0  -0.72044468  -5.04742908  -7.13684988
0   2.16327810  -5.04742908  -7.13684988
0   5.04700089  -5.04742908  -7.13684988
0  -3.60416746  -2.16370606  -7.13684988
0   5.04700089  -2.16370606  -7.13684988
0  -3.60416746   0.72001678  -7.13684988
0   5.04700089   0.72001678  -7.13684988
0  -3.60416746   3.60373974  -7.13684988
0  -0.72044468   3.60373974  -7.13684988
0   2.16327810   3.60373974  -7.13684988
0   5.04700089   3.60373974  -7.13684988
0  -5.04602909  -6.48929024  -5.09775019
0  -2.16230607  -6.48929024  -5.09775019
0   0.72141677  -6.48929024  -5.09775019
0   3.60513973  -6.48929024  -5.09775019
0   6.48886251  -6.48929024  -5.09775019
0  -5.04602909  -3.60556746  -5.09775019
0   6.48886251  -3.60556746  -5.09775019
0  -5.04602909  -0.72184467  -5.09775019
0   6.48886251  -0.72184467  -5.09775019
0  -5.04602909   2.16187811  -5.09775019
0   6.48886251   2.16187811  -5.09775019
0  -5.04602909   5.04560089  -5.09775019
0  -2.16230607   5.04560089  -5.09775019
0   0.72141677   5.04560089  -5.09775019
0   3.60513973   5.04560089  -5.09775019
0   6.48886251   5.04560089  -5.09775019
0  -3.60416746  -7.93115187  -3.05865002
0  -0.72044468  -7.93115187  -3.05865002
0   2.16327810  -7.93115187  -3.05865002
0   5.04700089  -7.93115187  -3.05865002
0  -6.48789024  -5.04742908  -3.05865002
0   7.93072414  -5.04742908  -3.05865002
0  -6.48789024  -2.16370606  -3.05865002
0   7.93072414  -2.16370606  -3.05865002
0  -6.48789024   0.72001678  -3.05865002
0   7.93072414   0.72001678  -3.05865002
0  -6.48789024   3.60373974  -3.05865002
0   7.93072414   3.60373974  -3.05865002
0  -6.48789024   6.48746252  -3.05865002
0  -3.60416746   6.48746252  -3.05865002
0  -0.72044468   6.48746252  -3.05865002
0   2.16327810   6.48746252  -3.05865002
0   5.04700089   6.48746252  -3.05865002
0  -2.16230607  -9.37301350  -1.01954997
0   0.72141677  -9.37301350  -1.01954997
0   3.60513973  -9.37301350  -1.01954997
0  -5.04602909  -6.48929024  -1.01954997
0   6.48886251  -6.48929024  -1.01954997
0  -7.92975187  -3.60556746  -1.01954997
0   9.37258530  -3.60556746  -1.01954997
0  -7.92975187  -0.72184467  -1.01954997
0   9.37258530  -0.72184467  -1.01954997
0  -7.92975187   2.16187811  -1.01954997
0   9.37258530   2.16187811  -1.01954997
0  -7.92975187   5.04560089  -1.01954997
0   6.48886251   5.04560089  -1.01954997
0  -5.04602909   7.92932415  -1.01954997
0  -2.16230607   7.92932415  -1.01954997
0   0.72141677   7.92932415  -1.01954997
0   3.60513973   7.92932415  -1.01954997
0  -3.60416746  -7.93115187   1.01954997
0  -0.72044468  -7.93115187   1.01954997
0   2.16327810  -7.93115187   1.01954997
0   5.04700089  -7.93115187   1.01954997
0  -6.48789024  -5.04742908   1.01954997
0   7.93072414  -5.04742908   1.01954997
0  -9.37161350  -2.16370606   1.01954997
0   7.93072414  -2.16370606   1.01954997
0  -9.37161350   0.72001678   1.01954997
0   7.93072414   0.72001678   1.01954997
0  -9.37161350   3.60373974   1.01954997
0   7.93072414   3.60373974   1.01954997
0  -6.48789024   6.48746252   1.01954997
0   5.04700089   6.48746252   1.01954997
0  -3.60416746   9.37118530   1.01954997
0  -0.72044468   9.37118530   1.01954997
0   2.16327810   9.37118530   1.01954997
0  -5.04602909  -6.48929024   3.05865002
0  -2.16230607  -6.48929024   3.05865002
0   0.72141677  -6.48929024   3.05865002
0   3.60513973  -6.48929024   3.05865002
0   6.48886251  -6.48929024   3.05865002
0  -7.92975187  -3.60556746   3.05865002
0   6.48886251  -3.60556746   3.05865002
0  -7.92975187  -0.72184467   3.05865002
0   6.48886251  -0.72184467   3.05865002
0  -7.92975187   2.16187811   3.05865002
0   6.48886251   2.16187811   3.05865002
0  -7.92975187   5.04560089   3.05865002
0   6.48886251   5.04560089   3.05865002
0  -5.04602909   7.92932415   3.05865002
0  -2.16230607   7.92932415   3.05865002
0   0.72141677   7.92932415   3.05865002
0   3.60513973   7.92932415   3.05865002
0  -6.48789024  -5.04742908   5.09775019
0  -3.60416746  -5.04742908   5.09775019
0  -0.72044468  -5.04742908   5.09775019
0   2.16327810  -5.04742908   5.09775019
0   5.04700089  -5.04742908   5.09775019
0  -6.48789024  -2.16370606   5.09775019
0   5.04700089  -2.16370606   5.09775019
0  -6.48789024   0.72001678   5.09775019
0   5.04700089   0.72001678   5.09775019
0  -6.48789024   3.60373974   5.09775019
0   5.04700089   3.60373974   5.09775019
0  -6.48789024   6.48746252   5.09775019
0  -3.60416746   6.48746252   5.09775019
0  -0.72044468   6.48746252   5.09775019
0   2.16327810   6.48746252   5.09775019
0   5.04700089   6.48746252   5.09775019
0  -5.04602909  -3.60556746   7.13684988
0  -2.16230607  -3.60556746   7.13684988
0   0.72141677  -3.60556746   7.13684988
0   3.60513973  -3.60556746   7.13684988
0  -5.04602909  -0.72184467   7.13684988
0   3.60513973  -0.72184467   7.13684988
0  -5.04602909   2.16187811   7.13684988
0   3.60513973   2.16187811   7.13684988
0  -5.04602909   5.04560089   7.13684988
0  -2.16230607   5.04560089   7.13684988
0   0.72141677   5.04560089   7.13684988
0   3.60513973   5.04560089   7.13684988
0  -3.60416746  -2.16370606   9.17595005
0  -0.72044468  -2.16370606   9.17595005
0   2.16327810  -2.16370606   9.17595005
0  -3.60416746   0.72001678   9.17595005
0  -0.72044468   0.72001678   9.17595005
0   2.16327810   0.72001678   9.17595005
0  -3.60416746   3.60373974   9.17595005
0  -0.72044468   3.60373974   9.17595005
0   2.16327810   3.60373974   9.17595005
1  11.24054432   4.60823011  -1.74582446
1   7.94717550   6.61621094  -3.03626633
1   5.13131142   9.39322567   0.88581949
1   8.09781933   6.44333076   0.87577122
1   6.06447601   9.08269596   4.49271202
1  -6.77917528  -7.86025476  -3.32321572
1  -4.57281256 -10.80215454  -1.99431682
1  -6.58557081  -7.92736769   1.18666041
1  -9.47998238  -5.21863317   0.84103054
1  -9.12648964  -6.46243572   4.66943741
1  -8.10832405   7.88638830  -0.93110871
1  -5.97596312  11.00294018   1.16937578
1 -11.01309299   5.98906088   1.06759119
1  -7.99697638   8.07144737   3.20302963
1   7.97804976  -8.06440830  -3.06024671
1  11.16551971  -5.91820288  -0.81324816
1   6.17672825 -10.46321201  -0.57173657
1   8.26624966  -7.89602613   1.16017151
1  -2.27069831   2.31240678  11.49918365
1  -2.69227457  -1.99972641  11.80635262
1   1.38273609   2.88385367  11.90647602
1   1.00817311  -0.82643557  11.34858608
1   3.55591917   1.02672851 -11.90886021
1  -0.73998237   0.70837164 -11.29032040
1  -1.61878192  -3.41156101 -11.95883942
1   2.08245850  -2.34363294 -11.26165295
1  -2.03841209  11.01838398   2.95903611
1   2.10408926  10.19018745   3.84521413
1  -4.44466352   9.23469448   5.57274914
1  -0.64806801   8.76958370   6.98981905
1   3.48959541   8.08720684   7.22217655
1  -3.45718861   6.42426252   9.51335907
1   0.76235664   6.14867544   9.79386139
1 -10.88720798   2.03215480   3.16183686
1 -10.18396950  -2.16123843   4.06925154
1  -9.31822205   4.88236713   5.67517948
1  -7.84187412  -3.51039648   7.31740093
1  -8.83442211   1.28933549   6.58603525
1  -6.37241650   3.38071036   9.57288361
1  -6.09154034  -0.69605798   9.96487045
1  10.77623367  -2.11352658   1.06223083
1  10.77003384   1.72506952   1.52990055
1   9.08898258  -4.63138199   3.74455810
1   9.04251385  -0.54386371   4.44963551
1   8.67640591   3.60844755   4.29525900
1   7.25857067   6.35186863   7.13246393
1   6.52508307   2.11160493   7.12992620
1   6.74735403  -3.23869252   7.15964794
1   4.82073927   4.44488335   9.79862976
1   4.98794413  -0.11978839   9.77471161
1   2.40269351 -11.48166466   0.42019135
1  -1.44112301 -11.12293530   1.06627667
1   4.95180178  -9.24506855   3.62489986
1   0.88761777  -9.21580791   3.56005955
1  -3.30242372  -9.05673885   3.75851035
1   3.51955271  -6.71524048   7.04202938
1  -5.33454466  -7.06317949   6.86619282
1  -1.28554368  -7.16589737   6.76400852
1  -3.55501866  -4.95913696   9.35962963
1   0.52640468  -4.80213356   9.71611691
1  -0.64690292   4.57537556  -9.87141609
1  -3.30518055   6.49789524  -7.26684189
1   3.38888502   5.03925943  -9.31345844
1   0.39039001   7.29050636  -7.00959301
1   2.08382249   9.51621342  -3.04138565
1   4.41811037   7.66344213  -5.73938560
1  -2.13428879   8.69741154  -4.18866539
1  -5.61555529  10.16710281  -3.06953144
1  -2.22544003  10.97654343  -0.88043565
1  -5.02430201  -3.33681631  -9.42734337
1  -4.55794477   0.91627723 -10.13610268
1  -6.67085743  -0.48559630  -7.37438202
1  -6.43045616  -6.50777149  -7.61314297
1  -6.49504375   3.48892856  -7.26636410
1  -8.95627880   0.67040831  -4.24137259
1  -8.01373291  -3.53920770  -5.10584068
1  -8.91286373   4.86889410  -3.71749616
1 -10.22495937  -2.21737671  -1.96986270
1 -10.83247948   2.28159261  -1.03072774
1   6.23293686  -1.80781531  -9.79620266
1   6.65567684   2.15713215  -9.09635162
1   8.10257912  -5.08330488  -7.03360271
1   8.80743122  -1.12854195  -6.60902309
1   9.04093647   3.14461613  -5.79245043
1  10.30809975  -3.42236185  -3.92307234
1  10.97905636   0.70964241  -3.03181028
1  -1.98242569  -6.50269461  -9.23765945
1   1.91097713  -6.24515200  -9.80573177
1   0.67604280  -8.99590683  -6.65468597
1   5.05255318  -8.27883434  -6.92827415
1  -3.56968856  -8.95308971  -5.87172365
1   3.55119109 -10.43117428  -3.81478691
1  -0.55236560 -10.77488518  -3.25781775
