# typeid, x, y, z
0  -7.20932865  -7.20970297 -24.18002319
0  -4.32560587  -7.20970297 -24.18002319
0  -1.44188309  -7.20970297 -24.18002319
0   1.44183981  -7.20970297 -24.18002319
0   4.32556248  -7.20970297 -24.18002319
0   7.20928574  -7.20970297 -24.18002319
0  -7.20932865  -4.32598019 -24.18002319
0  -4.32560587  -4.32598019 -24.18002319
0  -1.44188309  -4.32598019 -24.18002319
0   1.44183981  -4.32598019 -24.18002319
0   4.32556248  -4.32598019 -24.18002319
0   7.20928574  -4.32598019 -24.18002319
0  -7.20932865  -1.44225717 -24.18002319
0  -4.32560587  -1.44225717 -24.18002319
0  -1.44188309  -1.44225717 -24.18002319
0   1.44183981  -1.44225717 -24.18002319
0   4.32556248  -1.44225717 -24.18002319
0   7.20928574  -1.44225717 -24.18002319
0  -7.20932865   1.44146562 -24.18002319
0  -4.32560587   1.44146562 -24.18002319
0  -1.44188309   1.44146562 -24.18002319
0   1.44183981   1.44146562 -24.18002319
0   4.32556248   1.44146562 -24.18002319
0   7.20928574   1.44146562 -24.18002319
0  -7.20932865   4.32518864 -24.18002319
0  -4.32560587   4.32518864 -24.18002319
0  -1.44188309   4.32518864 -24.18002319
0   1.44183981   4.32518864 -24.18002319
0   4.32556248   4.32518864 -24.18002319
0   7.20928574   4.32518864 -24.18002319
0  -7.20932865   7.20891142 -24.18002319
0  -4.32560587   7.20891142 -24.18002319
0  -1.44188309   7.20891142 -24.18002319
0   1.44183981   7.20891142 -24.18002319
0   4.32556248   7.20891142 -24.18002319
0   7.20928574   7.20891142 -24.18002319
0  -8.65118980  -8.65156460 -22.14092255
0  -5.76746750  -8.65156460 -22.14092255
0  -2.88374448  -8.65156460 -22.14092255
0  -0.00002161  -8.65156460 -22.14092255
0   2.88370132  -8.65156460 -22.14092255
0   5.76742411  -8.65156460 -22.14092255
0   8.65114689  -8.65156460 -22.14092255
0  -8.65118980  -5.76784134 -22.14092255
0   8.65114689  -5.76784134 -22.14092255
0  -8.65118980  -2.88411856 -22.14092255
0   8.65114689  -2.88411856 -22.14092255
0  -8.65118980  -0.00039578 -22.14092255
0   8.65114689  -0.00039578 -22.14092255
0  -8.65118980   2.88332701 -22.14092255
0   8.65114689   2.88332701 -22.14092255
0  -8.65118980   5.76704979 -22.14092255
0   8.65114689   5.76704979 -22.14092255
0  -8.65118980   8.65077305 -22.14092255
0  -5.76746750   8.65077305 -22.14092255
0  -2.88374448   8.65077305 -22.14092255
0  -0.00002161   8.65077305 -22.14092255
0   2.88370132   8.65077305 -22.14092255
0   5.76742411   8.65077305 -22.14092255
0   8.65114689   8.65077305 -22.14092255
0 -10.09305191 -10.09342575 -20.10182381
0  -7.20932865 -10.09342575 -20.10182381
0  -4.32560587 -10.09342575 -20.10182381
0  -1.44188309 -10.09342575 -20.10182381
0   1.44183981 -10.09342575 -20.10182381
0   4.32556248 -10.09342575 -20.10182381
0   7.20928574 -10.09342575 -20.10182381
0  10.09300804 -10.09342575 -20.10182381
0 -10.09305191  -7.20970297 -20.10182381
0  10.09300804  -7.20970297 -20.10182381
0 -10.09305191  -4.32598019 -20.10182381
0  10.09300804  -4.32598019 -20.10182381
0 -10.09305191  -1.44225717 -20.10182381
0  10.09300804  -1.44225717 -20.10182381
0 -10.09305191   1.44146562 -20.10182381
0  10.09300804   1.44146562 -20.10182381
0 -10.09305191   4.32518864 -20.10182381
0  10.09300804   4.32518864 -20.10182381
0 -10.09305191   7.20891142 -20.10182381
0  10.09300804   7.20891142 -20.10182381
0 -10.09305191  10.09263420 -20.10182381
0  -7.20932865  10.09263420 -20.10182381
0  -4.32560587  10.09263420 -20.10182381
0  -1.44188309  10.09263420 -20.10182381
0   1.44183981  10.09263420 -20.10182381
0   4.32556248  10.09263420 -20.10182381
0   7.20928574  10.09263420 -20.10182381
0  10.09300804  10.09263420 -20.10182381
0 -11.53491306 -11.53528690 -18.06272316
0  -8.65118980 -11.53528690 -18.06272316
0  -5.76746750 -11.53528690 -18.06272316
0  -2.88374448 -11.53528690 -18.06272316
0  -0.00002161 -11.53528690 -18.06272316
0   2.88370132 -11.53528690 -18.06272316
0   5.76742411 -11.53528690 -18.06272316
0   8.65114689 -11.53528690 -18.06272316
0  11.53487015 -11.53528690 -18.06272316
0 -11.53491306  -8.65156460 -18.06272316
0  11.53487015  -8.65156460 -18.06272316
0 -11.53491306  -5.76784134 -18.06272316
0  11.53487015  -5.76784134 -18.06272316
0 -11.53491306  -2.88411856 -18.06272316
0  11.53487015  -2.88411856 -18.06272316
0 -11.53491306  -0.00039578 -18.06272316
0  11.53487015  -0.00039578 -18.06272316
0 -11.53491306   2.88332701 -18.06272316
0  11.53487015   2.88332701 -18.06272316
0 -11.53491306   5.76704979 -18.06272316
0  11.53487015   5.76704979 -18.06272316
0 -11.53491306   8.65077305 -18.06272316
0  11.53487015   8.65077305 -18.06272316
0 -11.53491306  11.53449535 -18.06272316
0  -8.65118980  11.53449535 -18.06272316
0  -5.76746750  11.53449535 -18.06272316
0  -2.88374448  11.53449535 -18.06272316
0  -0.00002161  11.53449535 -18.06272316
0   2.88370132  11.53449535 -18.06272316
0   5.76742411  11.53449535 -18.06272316
0   8.65114689  11.53449535 -18.06272316
0  11.53487015  11.53449535 -18.06272316
0 -12.97677422 -12.97714901 -16.02362251
0 -10.09305191 -12.97714901 -16.02362251
0  -7.20932865 -12.97714901 -16.02362251
0  -4.32560587 -12.97714901 -16.02362251
0  -1.44188309 -12.97714901 -16.02362251
0   1.44183981 -12.97714901 -16.02362251
0   4.32556248 -12.97714901 -16.02362251
0   7.20928574 -12.97714901 -16.02362251
0  10.09300804 -12.97714901 -16.02362251
0  12.97673130 -12.97714901 -16.02362251
0 -12.97677422 -10.09342575 -16.02362251
0  12.97673130 -10.09342575 -16.02362251
0 -12.97677422  -7.20970297 -16.02362251
0  12.97673130  -7.20970297 -16.02362251
0 -12.97677422  -4.32598019 -16.02362251
0  12.97673130  -4.32598019 -16.02362251
0 -12.97677422  -1.44225717 -16.02362251
0  12.97673130  -1.44225717 -16.02362251
0 -12.97677422   1.44146562 -16.02362251
0  12.97673130   1.44146562 -16.02362251
0 -12.97677422   4.32518864 -16.02362251
0  12.97673130   4.32518864 -16.02362251
0 -12.97677422   7.20891142 -16.02362251
0  12.97673130   7.20891142 -16.02362251
0 -12.97677422  10.09263420 -16.02362251
0  12.97673130  10.09263420 -16.02362251
0 -12.97677422  12.97635746 -16.02362251
0 -10.09305191  12.97635746 -16.02362251
0  -7.20932865  12.97635746 -16.02362251
0  -4.32560587  12.97635746 -16.02362251
0  -1.44188309  12.97635746 -16.02362251
0   1.44183981  12.97635746 -16.02362251
0   4.32556248  12.97635746 -16.02362251
0   7.20928574  12.97635746 -16.02362251
0  10.09300804  12.97635746 -16.02362251
0  12.97673130  12.97635746 -16.02362251
0 -14.41863632 -14.41901016 -13.98452377
0 -11.53491306 -14.41901016 -13.98452377
0  -8.65118980 -14.41901016 -13.98452377
0  -5.76746750 -14.41901016 -13.98452377
0  -2.88374448 -14.41901016 -13.98452377
0  -0.00002161 -14.41901016 -13.98452377
0   2.88370132 -14.41901016 -13.98452377
0   5.76742411 -14.41901016 -13.98452377
0   8.65114689 -14.41901016 -13.98452377
0  11.53487015 -14.41901016 -13.98452377
0  14.41859245 -14.41901016 -13.98452377
0 -14.41863632 -11.53528690 -13.98452377
0  14.41859245 -11.53528690 -13.98452377
0 -14.41863632  -8.65156460 -13.98452377
0  14.41859245  -8.65156460 -13.98452377
0 -14.41863632  -5.76784134 -13.98452377
0  14.41859245  -5.76784134 -13.98452377
0 -14.41863632  -2.88411856 -13.98452377
0  14.41859245  -2.88411856 -13.98452377
0 -14.41863632  -0.00039578 -13.98452377
0  14.41859245  -0.00039578 -13.98452377
0 -14.41863632   2.88332701 -13.98452377
0  14.41859245   2.88332701 -13.98452377
0 -14.41863632   5.76704979 -13.98452377
0  14.41859245   5.76704979 -13.98452377
0 -14.41863632   8.65077305 -13.98452377
0  14.41859245   8.65077305 -13.98452377
0 -14.41863632  11.53449535 -13.98452377
0  14.41859245  11.53449535 -13.98452377
0 -14.41863632  14.41821861 -13.98452377
0 -11.53491306  14.41821861 -13.98452377
0  -8.65118980  14.41821861 -13.98452377
0  -5.76746750  14.41821861 -13.98452377
0  -2.88374448  14.41821861 -13.98452377
0  -0.00002161  14.41821861 -13.98452377
0   2.88370132  14.41821861 -13.98452377
0   5.76742411  14.41821861 -13.98452377
0   8.65114689  14.41821861 -13.98452377
0  11.53487015  14.41821861 -13.98452377
0  14.41859245  14.41821861 -13.98452377
0 -15.86049747 -15.86087132 -11.94542313
0 -12.97677422 -15.86087132 -11.94542313
0 -10.09305191 -15.86087132 -11.94542313
0  -7.20932865 -15.86087132 -11.94542313
0  -4.32560587 -15.86087132 -11.94542313
0  -1.44188309 -15.86087132 -11.94542313
0   1.44183981 -15.86087132 -11.94542313
0   4.32556248 -15.86087132 -11.94542313
0   7.20928574 -15.86087132 -11.94542313
0  10.09300804 -15.86087132 -11.94542313
0  12.97673130 -15.86087132 -11.94542313
0  15.86045456 -15.86087132 -11.94542313
0 -15.86049747 -12.97714901 -11.94542313
0  15.86045456 -12.97714901 -11.94542313
0 -15.86049747 -10.09342575 -11.94542313
0  15.86045456 -10.09342575 -11.94542313
0 -15.86049747  -7.20970297 -11.94542313
0  15.86045456  -7.20970297 -11.94542313
0 -15.86049747  -4.32598019 -11.94542313
0  15.86045456  -4.32598019 -11.94542313
0 -15.86049747  -1.44225717 -11.94542313
0  15.86045456  -1.44225717 -11.94542313
0 -15.86049747   1.44146562 -11.94542313
0  15.86045456   1.44146562 -11.94542313
0 -15.86049747   4.32518864 -11.94542313
0  15.86045456   4.32518864 -11.94542313
0 -15.86049747   7.20891142 -11.94542313
0  15.86045456   7.20891142 -11.94542313
0 -15.86049747  10.09263420 -11.94542313
0  15.86045456  10.09263420 -11.94542313
0 -15.86049747  12.97635746 -11.94542313
0  15.86045456  12.97635746 -11.94542313
0 -15.86049747  15.86007977 -11.94542313
0 -12.97677422  15.86007977 -11.94542313
0 -10.09305191  15.86007977 -11.94542313
0  -7.20932865  15.86007977 -11.94542313
0  -4.32560587  15.86007977 -11.94542313
0  -1.44188309  15.86007977 -11.94542313
0   1.44183981  15.86007977 -11.94542313
0   4.32556248  15.86007977 -11.94542313
0   7.20928574  15.86007977 -11.94542313
0  10.09300804  15.86007977 -11.94542313
0  12.97673130  15.86007977 -11.94542313
0  15.86045456  15.86007977 -11.94542313
0 -17.30235863 -17.30273247  -9.90632343
0 -14.41863632 -17.30273247  -9.90632343
0 -11.53491306 -17.30273247  -9.90632343
0  -8.65118980 -17.30273247  -9.90632343
0  -5.76746750 -17.30273247  -9.90632343
0  -2.88374448 -17.30273247  -9.90632343
0  -0.00002161 -17.30273247  -9.90632343
0   2.88370132 -17.30273247  -9.90632343
0   5.76742411 -17.30273247  -9.90632343
0   8.65114689 -17.30273247  -9.90632343
0  11.53487015 -17.30273247  -9.90632343
0  14.41859245 -17.30273247  -9.90632343
0  17.30231476 -17.30273247  -9.90632343
0 -17.30235863 -14.41901016  -9.90632343
0  17.30231476 -14.41901016  -9.90632343
0 -17.30235863 -11.53528690  -9.90632343
0  17.30231476 -11.53528690  -9.90632343
0 -17.30235863  -8.65156460  -9.90632343
0  17.30231476  -8.65156460  -9.90632343
0 -17.30235863  -5.76784134  -9.90632343
0  17.30231476  -5.76784134  -9.90632343
0 -17.30235863  -2.88411856  -9.90632343
0  17.30231476  -2.88411856  -9.90632343
0 -17.30235863  -0.00039578  -9.90632343
0  17.30231476  -0.00039578  -9.90632343
0 -17.30235863   2.88332701  -9.90632343
0  17.30231476   2.88332701  -9.90632343
0 -17.30235863   5.76704979  -9.90632343
0  17.30231476   5.76704979  -9.90632343
0 -17.30235863   8.65077305  -9.90632343
0  17.30231476   8.65077305  -9.90632343
0 -17.30235863  11.53449535  -9.90632343
0  17.30231476  11.53449535  -9.90632343
0 -17.30235863  14.41821861  -9.90632343
0  17.30231476  14.41821861  -9.90632343
0 -17.30235863  17.30194092  -9.90632343
0 -14.41863632  17.30194092  -9.90632343
0 -11.53491306  17.30194092  -9.90632343
0  -8.65118980  17.30194092  -9.90632343
0  -5.76746750  17.30194092  -9.90632343
0  -2.88374448  17.30194092  -9.90632343
0  -0.00002161  17.30194092  -9.90632343
0   2.88370132  17.30194092  -9.90632343
0   5.76742411  17.30194092  -9.90632343
0   8.65114689  17.30194092  -9.90632343
0  11.53487015  17.30194092  -9.90632343
0  14.41859245  17.30194092  -9.90632343
0  17.30231476  17.30194092  -9.90632343
0 -15.86049747 -18.74459457  -7.86722326
0 -12.97677422 -18.74459457  -7.86722326
0 -10.09305191 -18.74459457  -7.86722326
0  -7.20932865 -18.74459457  -7.86722326
0  -4.32560587 -18.74459457  -7.86722326
0  -1.44188309 -18.74459457  -7.86722326
0   1.44183981 -18.74459457  -7.86722326
0   4.32556248 -18.74459457  -7.86722326
0   7.20928574 -18.74459457  -7.86722326
0  10.09300804 -18.74459457  -7.86722326
0  12.97673130 -18.74459457  -7.86722326
0  15.86045456 -18.74459457  -7.86722326
0 -18.74422073 -15.86087132  -7.86722326
0  18.74417686 -15.86087132  -7.86722326
0 -18.74422073 -12.97714901  -7.86722326
0  18.74417686 -12.97714901  -7.86722326
0 -18.74422073 -10.09342575  -7.86722326
0  18.74417686 -10.09342575  -7.86722326
0 -18.74422073  -7.20970297  -7.86722326
0  18.74417686  -7.20970297  -7.86722326
0 -18.74422073  -4.32598019  -7.86722326
0  18.74417686  -4.32598019  -7.86722326
0 -18.74422073  -1.44225717  -7.86722326
0  18.74417686  -1.44225717  -7.86722326
0 -18.74422073   1.44146562  -7.86722326
0  18.74417686   1.44146562  -7.86722326
0 -18.74422073   4.32518864  -7.86722326
0  18.74417686   4.32518864  -7.86722326
0 -18.74422073   7.20891142  -7.86722326
0  18.74417686   7.20891142  -7.86722326
0 -18.74422073  10.09263420  -7.86722326
0  18.74417686  10.09263420  -7.86722326
0 -18.74422073  12.97635746  -7.86722326
0  18.74417686  12.97635746  -7.86722326
0 -18.74422073  15.86007977  -7.86722326
0  18.74417686  15.86007977  -7.86722326
0 -15.86049747  18.74380302  -7.86722326
0 -12.97677422  18.74380302  -7.86722326
0 -10.09305191  18.74380302  -7.86722326
0  -7.20932865  18.74380302  -7.86722326
0  -4.32560587  18.74380302  -7.86722326
0  -1.44188309  18.74380302  -7.86722326
0   1.44183981  18.74380302  -7.86722326
0   4.32556248  18.74380302  -7.86722326
0   7.20928574  18.74380302  -7.86722326
0  10.09300804  18.74380302  -7.86722326
0  12.97673130  18.74380302  -7.86722326
0  15.86045456  18.74380302  -7.86722326
0 -14.41863632 -20.18645668  -5.82812357
0 -11.53491306 -20.18645668  -5.82812357
0  -8.65118980 -20.18645668  -5.82812357
0  -5.76746750 -20.18645668  -5.82812357
0  -2.88374448 -20.18645668  -5.82812357
0  -0.00002161 -20.18645668  -5.82812357
0   2.88370132 -20.18645668  -5.82812357
0   5.76742411 -20.18645668  -5.82812357
0   8.65114689 -20.18645668  -5.82812357
0  11.53487015 -20.18645668  -5.82812357
0  14.41859245 -20.18645668  -5.82812357
0 -17.30235863 -17.30273247  -5.82812357
0  17.30231476 -17.30273247  -5.82812357
0 -20.18608093 -14.41901016  -5.82812357
0  20.18603897 -14.41901016  -5.82812357
0 -20.18608093 -11.53528690  -5.82812357
0  20.18603897 -11.53528690  -5.82812357
0 -20.18608093  -8.65156460  -5.82812357
0  20.18603897  -8.65156460  -5.82812357
0 -20.18608093  -5.76784134  -5.82812357
0  20.18603897  -5.76784134  -5.82812357
0 -20.18608093  -2.88411856  -5.82812357
0  20.18603897  -2.88411856  -5.82812357
0 -20.18608093  -0.00039578  -5.82812357
0  20.18603897  -0.00039578  -5.82812357
0 -20.18608093   2.88332701  -5.82812357
0  20.18603897   2.88332701  -5.82812357
0 -20.18608093   5.76704979  -5.82812357
0  20.18603897   5.76704979  -5.82812357
0 -20.18608093   8.65077305  -5.82812357
0  20.18603897   8.65077305  -5.82812357
0 -20.18608093  11.53449535  -5.82812357
0  20.18603897  11.53449535  -5.82812357
0 -20.18608093  14.41821861  -5.82812357
0  20.18603897  14.41821861  -5.82812357
0 -17.30235863  17.30194092  -5.82812357
0  17.30231476  17.30194092  -5.82812357
0 -14.41863632  20.18566513  -5.82812357
0 -11.53491306  20.18566513  -5.82812357
0  -8.65118980  20.18566513  -5.82812357
0  -5.76746750  20.18566513  -5.82812357
0  -2.88374448  20.18566513  -5.82812357
0  -0.00002161  20.18566513  -5.82812357
0   2.88370132  20.18566513  -5.82812357
0   5.76742411  20.18566513  -5.82812357
0   8.65114689  20.18566513  -5.82812357
0  11.53487015  20.18566513  -5.82812357
0  14.41859245  20.18566513  -5.82812357
0 -12.97677422 -21.62831688  -3.78902340
0 -10.09305191 -21.62831688  -3.78902340
0  -7.20932865 -21.62831688  -3.78902340
0  -4.32560587 -21.62831688  -3.78902340
0  -1.44188309 -21.62831688  -3.78902340
0   1.44183981 -21.62831688  -3.78902340
0   4.32556248 -21.62831688  -3.78902340
0   7.20928574 -21.62831688  -3.78902340
0  10.09300804 -21.62831688  -3.78902340
0  12.97673130 -21.62831688  -3.78902340
0 -15.86049747 -18.74459457  -3.78902340
0  15.86045456 -18.74459457  -3.78902340
0 -18.74422073 -15.86087132  -3.78902340
0  18.74417686 -15.86087132  -3.78902340
0 -21.62794304 -12.97714901  -3.78902340
0  21.62789917 -12.97714901  -3.78902340
0 -21.62794304 -10.09342575  -3.78902340
0  21.62789917 -10.09342575  -3.78902340
0 -21.62794304  -7.20970297  -3.78902340
0  21.62789917  -7.20970297  -3.78902340
0 -21.62794304  -4.32598019  -3.78902340
0  21.62789917  -4.32598019  -3.78902340
0 -21.62794304  -1.44225717  -3.78902340
0  21.62789917  -1.44225717  -3.78902340
0 -21.62794304   1.44146562  -3.78902340
0  21.62789917   1.44146562  -3.78902340
0 -21.62794304   4.32518864  -3.78902340
0  21.62789917   4.32518864  -3.78902340
0 -21.62794304   7.20891142  -3.78902340
0  21.62789917   7.20891142  -3.78902340
0 -21.62794304  10.09263420  -3.78902340
0  21.62789917  10.09263420  -3.78902340
0 -21.62794304  12.97635746  -3.78902340
0  21.62789917  12.97635746  -3.78902340
0 -18.74422073  15.86007977  -3.78902340
0  18.74417686  15.86007977  -3.78902340
0 -15.86049747  18.74380302  -3.78902340
0  15.86045456  18.74380302  -3.78902340
0 -12.97677422  21.62752533  -3.78902340
0 -10.09305191  21.62752533  -3.78902340
0  -7.20932865  21.62752533  -3.78902340
0  -4.32560587  21.62752533  -3.78902340
0  -1.44188309  21.62752533  -3.78902340
0   1.44183981  21.62752533  -3.78902340
0   4.32556248  21.62752533  -3.78902340
0   7.20928574  21.62752533  -3.78902340
0  10.09300804  21.62752533  -3.78902340
0  12.97673130  21.62752533  -3.78902340
0 -11.53491306 -23.07017899  -1.74992347
0  -8.65118980 -23.07017899  -1.74992347
0  -5.76746750 -23.07017899  -1.74992347
0  -2.88374448 -23.07017899  -1.74992347
0  -0.00002161 -23.07017899  -1.74992347
0   2.88370132 -23.07017899  -1.74992347
0   5.76742411 -23.07017899  -1.74992347
0   8.65114689 -23.07017899  -1.74992347
0  11.53487015 -23.07017899  -1.74992347
0 -14.41863632 -20.18645668  -1.74992347
0  14.41859245 -20.18645668  -1.74992347
0 -17.30235863 -17.30273247  -1.74992347
0  17.30231476 -17.30273247  -1.74992347
0 -20.18608093 -14.41901016  -1.74992347
0  20.18603897 -14.41901016  -1.74992347
0 -23.06980515 -11.53528690  -1.74992347
0  23.06976128 -11.53528690  -1.74992347
0 -23.06980515  -8.65156460  -1.74992347
0  23.06976128  -8.65156460  -1.74992347
0 -23.06980515  -5.76784134  -1.74992347
0  23.06976128  -5.76784134  -1.74992347
0 -23.06980515  -2.88411856  -1.74992347
0  23.06976128  -2.88411856  -1.74992347
0 -23.06980515  -0.00039578  -1.74992347
0  23.06976128  -0.00039578  -1.74992347
0 -23.06980515   2.88332701  -1.74992347
0  23.06976128   2.88332701  -1.74992347
0 -23.06980515   5.76704979  -1.74992347
0  23.06976128   5.76704979  -1.74992347
0 -23.06980515   8.65077305  -1.74992347
0  23.06976128   8.65077305  -1.74992347
0 -23.06980515  11.53449535  -1.74992347
0  23.06976128  11.53449535  -1.74992347
0 -20.18608093  14.41821861  -1.74992347
0  20.18603897  14.41821861  -1.74992347
0 -17.30235863  17.30194092  -1.74992347
0  17.30231476  17.30194092  -1.74992347
0 -14.41863632  20.18566513  -1.74992347
0  14.41859245  20.18566513  -1.74992347
0 -11.53491306  23.06938744  -1.74992347
0  -8.65118980  23.06938744  -1.74992347
0  -5.76746750  23.06938744  -1.74992347
0  -2.88374448  23.06938744  -1.74992347
0  -0.00002161  23.06938744  -1.74992347
0   2.88370132  23.06938744  -1.74992347
0   5.76742411  23.06938744  -1.74992347
0   8.65114689  23.06938744  -1.74992347
0  11.53487015  23.06938744  -1.74992347
0 -10.09305191 -24.51204109   0.28917658
0  -7.20932865 -24.51204109   0.28917658
0  -4.32560587 -24.51204109   0.28917658
0  -1.44188309 -24.51204109   0.28917658
0   1.44183981 -24.51204109   0.28917658
0   4.32556248 -24.51204109   0.28917658
0   7.20928574 -24.51204109   0.28917658
0  10.09300804 -24.51204109   0.28917658
0 -12.97677422 -21.62831688   0.28917658
0  12.97673130 -21.62831688   0.28917658
0 -15.86049747 -18.74459457   0.28917658
0  15.86045456 -18.74459457   0.28917658
0 -18.74422073 -15.86087132   0.28917658
0  18.74417686 -15.86087132   0.28917658
0 -21.62794304 -12.97714901   0.28917658
0  21.62789917 -12.97714901   0.28917658
0 -24.51166534 -10.09342575   0.28917658
0  24.51162338 -10.09342575   0.28917658
0 -24.51166534  -7.20970297   0.28917658
0  24.51162338  -7.20970297   0.28917658
0 -24.51166534  -4.32598019   0.28917658
0  24.51162338  -4.32598019   0.28917658
0 -24.51166534  -1.44225717   0.28917658
0  24.51162338  -1.44225717   0.28917658
0 -24.51166534   1.44146562   0.28917658
0  24.51162338   1.44146562   0.28917658
0 -24.51166534   4.32518864   0.28917658
0  24.51162338   4.32518864   0.28917658
0 -24.51166534   7.20891142   0.28917658
0  24.51162338   7.20891142   0.28917658
0 -24.51166534  10.09263420   0.28917658
0  24.51162338  10.09263420   0.28917658
0 -21.62794304  12.97635746   0.28917658
0  21.62789917  12.97635746   0.28917658
0 -18.74422073  15.86007977   0.28917658
0  18.74417686  15.86007977   0.28917658
0 -15.86049747  18.74380302   0.28917658
0  15.86045456  18.74380302   0.28917658
0 -12.97677422  21.62752533   0.28917658
0  12.97673130  21.62752533   0.28917658
0 -10.09305191  24.51124954   0.28917658
0  -7.20932865  24.51124954   0.28917658
0  -4.32560587  24.51124954   0.28917658
0  -1.44188309  24.51124954   0.28917658
0   1.44183981  24.51124954   0.28917658
0   4.32556248  24.51124954   0.28917658
0   7.20928574  24.51124954   0.28917658
0  10.09300804  24.51124954   0.28917658
0 -11.53491306 -23.07017899   2.32827663
0  -8.65118980 -23.07017899   2.32827663
0  -5.76746750 -23.07017899   2.32827663
0  -2.88374448 -23.07017899   2.32827663
0  -0.00002161 -23.07017899   2.32827663
0   2.88370132 -23.07017899   2.32827663
0   5.76742411 -23.07017899   2.32827663
0   8.65114689 -23.07017899   2.32827663
0  11.53487015 -23.07017899   2.32827663
0 -14.41863632 -20.18645668   2.32827663
0  14.41859245 -20.18645668   2.32827663
0 -17.30235863 -17.30273247   2.32827663
0  17.30231476 -17.30273247   2.32827663
0 -20.18608093 -14.41901016   2.32827663
0  20.18603897 -14.41901016   2.32827663
0 -23.06980515 -11.53528690   2.32827663
0  23.06976128 -11.53528690   2.32827663
0 -23.06980515  -8.65156460   2.32827663
0  23.06976128  -8.65156460   2.32827663
0 -23.06980515  -5.76784134   2.32827663
0  23.06976128  -5.76784134   2.32827663
0 -23.06980515  -2.88411856   2.32827663
0  23.06976128  -2.88411856   2.32827663
0 -23.06980515  -0.00039578   2.32827663
0  23.06976128  -0.00039578   2.32827663
0 -23.06980515   2.88332701   2.32827663
0  23.06976128   2.88332701   2.32827663
0 -23.06980515   5.76704979   2.32827663
0  23.06976128   5.76704979   2.32827663
0 -23.06980515   8.65077305   2.32827663
0  23.06976128   8.65077305   2.32827663
0 -23.06980515  11.53449535   2.32827663
0  23.06976128  11.53449535   2.32827663
0 -20.18608093  14.41821861   2.32827663
0  20.18603897  14.41821861   2.32827663
0 -17.30235863  17.30194092   2.32827663
0  17.30231476  17.30194092   2.32827663
0 -14.41863632  20.18566513   2.32827663
0  14.41859245  20.18566513   2.32827663
0 -11.53491306  23.06938744   2.32827663
0  -8.65118980  23.06938744   2.32827663
0  -5.76746750  23.06938744   2.32827663
0  -2.88374448  23.06938744   2.32827663
0  -0.00002161  23.06938744   2.32827663
0   2.88370132  23.06938744   2.32827663
0   5.76742411  23.06938744   2.32827663
0   8.65114689  23.06938744   2.32827663
0  11.53487015  23.06938744   2.32827663
0 -12.97677422 -21.62831688   4.36737680
0 -10.09305191 -21.62831688   4.36737680
0  -7.20932865 -21.62831688   4.36737680
0  -4.32560587 -21.62831688   4.36737680
0  -1.44188309 -21.62831688   4.36737680
0   1.44183981 -21.62831688   4.36737680
0   4.32556248 -21.62831688   4.36737680
0   7.20928574 -21.62831688   4.36737680
0  10.09300804 -21.62831688   4.36737680
0  12.97673130 -21.62831688   4.36737680
0 -15.86049747 -18.74459457   4.36737680
0  15.86045456 -18.74459457   4.36737680
0 -18.74422073 -15.86087132   4.36737680
0  18.74417686 -15.86087132   4.36737680
0 -21.62794304 -12.97714901   4.36737680
0  21.62789917 -12.97714901   4.36737680
0 -21.62794304 -10.09342575   4.36737680
0  21.62789917 -10.09342575   4.36737680
0 -21.62794304  -7.20970297   4.36737680
0  21.62789917  -7.20970297   4.36737680
0 -21.62794304  -4.32598019   4.36737680
0  21.62789917  -4.32598019   4.36737680
0 -21.62794304  -1.44225717   4.36737680
0  21.62789917  -1.44225717   4.36737680
0 -21.62794304   1.44146562   4.36737680
0  21.62789917   1.44146562   4.36737680
0 -21.62794304   4.32518864   4.36737680
0  21.62789917   4.32518864   4.36737680
0 -21.62794304   7.20891142   4.36737680
0  21.62789917   7.20891142   4.36737680
0 -21.62794304  10.09263420   4.36737680
0  21.62789917  10.09263420   4.36737680
0 -21.62794304  12.97635746   4.36737680
0  21.62789917  12.97635746   4.36737680
0 -18.74422073  15.86007977   4.36737680
0  18.74417686  15.86007977   4.36737680
0 -15.86049747  18.74380302   4.36737680
0  15.86045456  18.74380302   4.36737680
0 -12.97677422  21.62752533   4.36737680
0 -10.09305191  21.62752533   4.36737680
0  -7.20932865  21.62752533   4.36737680
0  -4.32560587  21.62752533   4.36737680
0  -1.44188309  21.62752533   4.36737680
0   1.44183981  21.62752533   4.36737680
0   4.32556248  21.62752533   4.36737680
0   7.20928574  21.62752533   4.36737680
0  10.09300804  21.62752533   4.36737680
0  12.97673130  21.62752533   4.36737680
0 -14.41863632 -20.18645668   6.40647650
0 -11.53491306 -20.18645668   6.40647650
0  -8.65118980 -20.18645668   6.40647650
0  -5.76746750 -20.18645668   6.40647650
0  -2.88374448 -20.18645668   6.40647650
0  -0.00002161 -20.18645668   6.40647650
0   2.88370132 -20.18645668   6.40647650
0   5.76742411 -20.18645668   6.40647650
0   8.65114689 -20.18645668   6.40647650
0  11.53487015 -20.18645668   6.40647650
0  14.41859245 -20.18645668   6.40647650
0 -17.30235863 -17.30273247   6.40647650
0  17.30231476 -17.30273247   6.40647650
0 -20.18608093 -14.41901016   6.40647650
0  20.18603897 -14.41901016   6.40647650
0 -20.18608093 -11.53528690   6.40647650
0  20.18603897 -11.53528690   6.40647650
0 -20.18608093  -8.65156460   6.40647650
0  20.18603897  -8.65156460   6.40647650
0 -20.18608093  -5.76784134   6.40647650
0  20.18603897  -5.76784134   6.40647650
0 -20.18608093  -2.88411856   6.40647650
0  20.18603897  -2.88411856   6.40647650
0 -20.18608093  -0.00039578   6.40647650
0  20.18603897  -0.00039578   6.40647650
0 -20.18608093   2.88332701   6.40647650
0  20.18603897   2.88332701   6.40647650
0 -20.18608093   5.76704979   6.40647650
0  20.18603897   5.76704979   6.40647650
0 -20.18608093   8.65077305   6.40647650
0  20.18603897   8.65077305   6.40647650
0 -20.18608093  11.53449535   6.40647650
0  20.18603897  11.53449535   6.40647650
0 -20.18608093  14.41821861   6.40647650
0  20.18603897  14.41821861   6.40647650
0 -17.30235863  17.30194092   6.40647650
0  17.30231476  17.30194092   6.40647650
0 -14.41863632  20.18566513   6.40647650
0 -11.53491306  20.18566513   6.40647650
0  -8.65118980  20.18566513   6.40647650
0  -5.76746750  20.18566513   6.40647650
0  -2.88374448  20.18566513   6.40647650
0  -0.00002161  20.18566513   6.40647650
0   2.88370132  20.18566513   6.40647650
0   5.76742411  20.18566513   6.40647650
0   8.65114689  20.18566513   6.40647650
0  11.53487015  20.18566513   6.40647650
0  14.41859245  20.18566513   6.40647650
0 -15.86049747 -18.74459457   8.44557667
0 -12.97677422 -18.74459457   8.44557667
0 -10.09305191 -18.74459457   8.44557667
0  -7.20932865 -18.74459457   8.44557667
0  -4.32560587 -18.74459457   8.44557667
0  -1.44188309 -18.74459457   8.44557667
0   1.44183981 -18.74459457   8.44557667
0   4.32556248 -18.74459457   8.44557667
0   7.20928574 -18.74459457   8.44557667
0  10.09300804 -18.74459457   8.44557667
0  12.97673130 -18.74459457   8.44557667
0  15.86045456 -18.74459457   8.44557667
0 -18.74422073 -15.86087132   8.44557667
0  18.74417686 -15.86087132   8.44557667
0 -18.74422073 -12.97714901   8.44557667
0  18.74417686 -12.97714901   8.44557667
0 -18.74422073 -10.09342575   8.44557667
0  18.74417686 -10.09342575   8.44557667
0 -18.74422073  -7.20970297   8.44557667
0  18.74417686  -7.20970297   8.44557667
0 -18.74422073  -4.32598019   8.44557667
0  18.74417686  -4.32598019   8.44557667
0 -18.74422073  -1.44225717   8.44557667
0  18.74417686  -1.44225717   8.44557667
0 -18.74422073   1.44146562   8.44557667
0  18.74417686   1.44146562   8.44557667
0 -18.74422073   4.32518864   8.44557667
0  18.74417686   4.32518864   8.44557667
0 -18.74422073   7.20891142   8.44557667
0  18.74417686   7.20891142   8.44557667
0 -18.74422073  10.09263420   8.44557667
0  18.74417686  10.09263420   8.44557667
0 -18.74422073  12.97635746   8.44557667
0  18.74417686  12.97635746   8.44557667
0 -18.74422073  15.86007977   8.44557667
0  18.74417686  15.86007977   8.44557667
0 -15.86049747  18.74380302   8.44557667
0 -12.97677422  18.74380302   8.44557667
0 -10.09305191  18.74380302   8.44557667
0  -7.20932865  18.74380302   8.44557667
0  -4.32560587  18.74380302   8.44557667
0  -1.44188309  18.74380302   8.44557667
0   1.44183981  18.74380302   8.44557667
0   4.32556248  18.74380302   8.44557667
0   7.20928574  18.74380302   8.44557667
0  10.09300804  18.74380302   8.44557667
0  12.97673130  18.74380302   8.44557667
0  15.86045456  18.74380302   8.44557667
0 -17.30235863 -17.30273247  10.48467636
0 -14.41863632 -17.30273247  10.48467636
0 -11.53491306 -17.30273247  10.48467636
0  -8.65118980 -17.30273247  10.48467636
0  -5.76746750 -17.30273247  10.48467636
0  -2.88374448 -17.30273247  10.48467636
0  -0.00002161 -17.30273247  10.48467636
0   2.88370132 -17.30273247  10.48467636
0   5.76742411 -17.30273247  10.48467636
0   8.65114689 -17.30273247  10.48467636
0  11.53487015 -17.30273247  10.48467636
0  14.41859245 -17.30273247  10.48467636
0  17.30231476 -17.30273247  10.48467636
0 -17.30235863 -14.41901016  10.48467636
0  17.30231476 -14.41901016  10.48467636
0 -17.30235863 -11.53528690  10.48467636
0  17.30231476 -11.53528690  10.48467636
0 -17.30235863  -8.65156460  10.48467636
0  17.30231476  -8.65156460  10.48467636
0 -17.30235863  -5.76784134  10.48467636
0  17.30231476  -5.76784134  10.48467636
0 -17.30235863  -2.88411856  10.48467636
0  17.30231476  -2.88411856  10.48467636
0 -17.30235863  -0.00039578  10.48467636
0  17.30231476  -0.00039578  10.48467636
0 -17.30235863   2.88332701  10.48467636
0  17.30231476   2.88332701  10.48467636
0 -17.30235863   5.76704979  10.48467636
0  17.30231476   5.76704979  10.48467636
0 -17.30235863   8.65077305  10.48467636
0  17.30231476   8.65077305  10.48467636
0 -17.30235863  11.53449535  10.48467636
0  17.30231476  11.53449535  10.48467636
0 -17.30235863  14.41821861  10.48467636
0  17.30231476  14.41821861  10.48467636
0 -17.30235863  17.30194092  10.48467636
0 -14.41863632  17.30194092  10.48467636
0 -11.53491306  17.30194092  10.48467636
0  -8.65118980  17.30194092  10.48467636
0  -5.76746750  17.30194092  10.48467636
0  -2.88374448  17.30194092  10.48467636
0  -0.00002161  17.30194092  10.48467636
0   2.88370132  17.30194092  10.48467636
0   5.76742411  17.30194092  10.48467636
0   8.65114689  17.30194092  10.48467636
0  11.53487015  17.30194092  10.48467636
0  14.41859245  17.30194092  10.48467636
0  17.30231476  17.30194092  10.48467636
0 -15.86049747 -15.86087132  12.52377701
0 -12.97677422 -15.86087132  12.52377701
0 -10.09305191 -15.86087132  12.52377701
0  -7.20932865 -15.86087132  12.52377701
0  -4.32560587 -15.86087132  12.52377701
0  -1.44188309 -15.86087132  12.52377701
0   1.44183981 -15.86087132  12.52377701
0   4.32556248 -15.86087132  12.52377701
0   7.20928574 -15.86087132  12.52377701
0  10.09300804 -15.86087132  12.52377701
0  12.97673130 -15.86087132  12.52377701
0  15.86045456 -15.86087132  12.52377701
0 -15.86049747 -12.97714901  12.52377701
0  15.86045456 -12.97714901  12.52377701
0 -15.86049747 -10.09342575  12.52377701
0  15.86045456 -10.09342575  12.52377701
0 -15.86049747  -7.20970297  12.52377701
0  15.86045456  -7.20970297  12.52377701
0 -15.86049747  -4.32598019  12.52377701
0  15.86045456  -4.32598019  12.52377701
0 -15.86049747  -1.44225717  12.52377701
0  15.86045456  -1.44225717  12.52377701
0 -15.86049747   1.44146562  12.52377701
0  15.86045456   1.44146562  12.52377701
0 -15.86049747   4.32518864  12.52377701
0  15.86045456   4.32518864  12.52377701
0 -15.86049747   7.20891142  12.52377701
0  15.86045456   7.20891142  12.52377701
0 -15.86049747  10.09263420  12.52377701
0  15.86045456  10.09263420  12.52377701
0 -15.86049747  12.97635746  12.52377701
0  15.86045456  12.97635746  12.52377701
0 -15.86049747  15.86007977  12.52377701
0 -12.97677422  15.86007977  12.52377701
0 -10.09305191  15.86007977  12.52377701
0  -7.20932865  15.86007977  12.52377701
0  -4.32560587  15.86007977  12.52377701
0  -1.44188309  15.86007977  12.52377701
0   1.44183981  15.86007977  12.52377701
0   4.32556248  15.86007977  12.52377701
0   7.20928574  15.86007977  12.52377701
0  10.09300804  15.86007977  12.52377701
0  12.97673130  15.86007977  12.52377701
0  15.86045456  15.86007977  12.52377701
0 -14.41863632 -14.41901016  14.56287670
0 -11.53491306 -14.41901016  14.56287670
0  -8.65118980 -14.41901016  14.56287670
0  -5.76746750 -14.41901016  14.56287670
0  -2.88374448 -14.41901016  14.56287670
0  -0.00002161 -14.41901016  14.56287670
0   2.88370132 -14.41901016  14.56287670
0   5.76742411 -14.41901016  14.56287670
0   8.65114689 -14.41901016  14.56287670
0  11.53487015 -14.41901016  14.56287670
0  14.41859245 -14.41901016  14.56287670
0 -14.41863632 -11.53528690  14.56287670
0  14.41859245 -11.53528690  14.56287670
0 -14.41863632  -8.65156460  14.56287670
0  14.41859245  -8.65156460  14.56287670
0 -14.41863632  -5.76784134  14.56287670
0  14.41859245  -5.76784134  14.56287670
0 -14.41863632  -2.88411856  14.56287670
0  14.41859245  -2.88411856  14.56287670
0 -14.41863632  -0.00039578  14.56287670
0  14.41859245  -0.00039578  14.56287670
0 -14.41863632   2.88332701  14.56287670
0  14.41859245   2.88332701  14.56287670
0 -14.41863632   5.76704979  14.56287670
0  14.41859245   5.76704979  14.56287670
0 -14.41863632   8.65077305  14.56287670
0  14.41859245   8.65077305  14.56287670
0 -14.41863632  11.53449535  14.56287670
0  14.41859245  11.53449535  14.56287670
0 -14.41863632  14.41821861  14.56287670
0 -11.53491306  14.41821861  14.56287670
0  -8.65118980  14.41821861  14.56287670
0  -5.76746750  14.41821861  14.56287670
0  -2.88374448  14.41821861  14.56287670
0  -0.00002161  14.41821861  14.56287670
0   2.88370132  14.41821861  14.56287670
0   5.76742411  14.41821861  14.56287670
0   8.65114689  14.41821861  14.56287670
0  11.53487015  14.41821861  14.56287670
0  14.41859245  14.41821861  14.56287670
0 -12.97677422 -12.97714901  16.60197639
0 -10.09305191 -12.97714901  16.60197639
0  -7.20932865 -12.97714901  16.60197639
0  -4.32560587 -12.97714901  16.60197639
0  -1.44188309 -12.97714901  16.60197639
0   1.44183981 -12.97714901  16.60197639
0   4.32556248 -12.97714901  16.60197639
0   7.20928574 -12.97714901  16.60197639
0  10.09300804 -12.97714901  16.60197639
0  12.97673130 -12.97714901  16.60197639
0 -12.97677422 -10.09342575  16.60197639
0  12.97673130 -10.09342575  16.60197639
0 -12.97677422  -7.20970297  16.60197639
0  12.97673130  -7.20970297  16.60197639
0 -12.97677422  -4.32598019  16.60197639
0  12.97673130  -4.32598019  16.60197639
0 -12.97677422  -1.44225717  16.60197639
0  12.97673130  -1.44225717  16.60197639
0 -12.97677422   1.44146562  16.60197639
0  12.97673130   1.44146562  16.60197639
0 -12.97677422   4.32518864  16.60197639
0  12.97673130   4.32518864  16.60197639
0 -12.97677422   7.20891142  16.60197639
0  12.97673130   7.20891142  16.60197639
0 -12.97677422  10.09263420  16.60197639
0  12.97673130  10.09263420  16.60197639
0 -12.97677422  12.97635746  16.60197639
0 -10.09305191  12.97635746  16.60197639
0  -7.20932865  12.97635746  16.60197639
0  -4.32560587  12.97635746  16.60197639
0  -1.44188309  12.97635746  16.60197639
0   1.44183981  12.97635746  16.60197639
0   4.32556248  12.97635746  16.60197639
0   7.20928574  12.97635746  16.60197639
0  10.09300804  12.97635746  16.60197639
0  12.97673130  12.97635746  16.60197639
0 -11.53491306 -11.53528690  18.64107704
0  -8.65118980 -11.53528690  18.64107704
0  -5.76746750 -11.53528690  18.64107704
0  -2.88374448 -11.53528690  18.64107704
0  -0.00002161 -11.53528690  18.64107704
0   2.88370132 -11.53528690  18.64107704
0   5.76742411 -11.53528690  18.64107704
0   8.65114689 -11.53528690  18.64107704
0  11.53487015 -11.53528690  18.64107704
0 -11.53491306  -8.65156460  18.64107704
0  11.53487015  -8.65156460  18.64107704
0 -11.53491306  -5.76784134  18.64107704
0  11.53487015  -5.76784134  18.64107704
0 -11.53491306  -2.88411856  18.64107704
0  11.53487015  -2.88411856  18.64107704
0 -11.53491306  -0.00039578  18.64107704
0  11.53487015  -0.00039578  18.64107704
0 -11.53491306   2.88332701  18.64107704
0  11.53487015   2.88332701  18.64107704
0 -11.53491306   5.76704979  18.64107704
0  11.53487015   5.76704979  18.64107704
0 -11.53491306   8.65077305  18.64107704
0  11.53487015   8.65077305  18.64107704
0 -11.53491306  11.53449535  18.64107704
0  -8.65118980  11.53449535  18.64107704
0  -5.76746750  11.53449535  18.64107704
0  -2.88374448  11.53449535  18.64107704
0  -0.00002161  11.53449535  18.64107704
0   2.88370132  11.53449535  18.64107704
0   5.76742411  11.53449535  18.64107704
0   8.65114689  11.53449535  18.64107704
0  11.53487015  11.53449535  18.64107704
0 -10.09305191 -10.09342575  20.68017578
0  -7.20932865 -10.09342575  20.68017578
0  -4.32560587 -10.09342575  20.68017578
0  -1.44188309 -10.09342575  20.68017578
0   1.44183981 -10.09342575  20.68017578
0   4.32556248 -10.09342575  20.68017578
0   7.20928574 -10.09342575  20.68017578
0  10.09300804 -10.09342575  20.68017578
0 -10.09305191  -7.20970297  20.68017578
0  10.09300804  -7.20970297  20.68017578
0 -10.09305191  -4.32598019  20.68017578
0  10.09300804  -4.32598019  20.68017578
0 -10.09305191  -1.44225717  20.68017578
0  10.09300804  -1.44225717  20.68017578
0 -10.09305191   1.44146562  20.68017578
0  10.09300804   1.44146562  20.68017578
0 -10.09305191   4.32518864  20.68017578
0  10.09300804   4.32518864  20.68017578
0 -10.09305191   7.20891142  20.68017578
0  10.09300804   7.20891142  20.68017578
0 -10.09305191  10.09263420  20.68017578
0  -7.20932865  10.09263420  20.68017578
0  -4.32560587  10.09263420  20.68017578
0  -1.44188309  10.09263420  20.68017578
0   1.44183981  10.09263420  20.68017578
0   4.32556248  10.09263420  20.68017578
0   7.20928574  10.09263420  20.68017578
0  10.09300804  10.09263420  20.68017578
0  -8.65118980  -8.65156460  22.71927643
0  -5.76746750  -8.65156460  22.71927643
0  -2.88374448  -8.65156460  22.71927643
0  -0.00002161  -8.65156460  22.71927643
0   2.88370132  -8.65156460  22.71927643
0   5.76742411  -8.65156460  22.71927643
0   8.65114689  -8.65156460  22.71927643
0  -8.65118980  -5.76784134  22.71927643
0  -5.76746750  -5.76784134  22.71927643
0  -2.88374448  -5.76784134  22.71927643
0  -0.00002161  -5.76784134  22.71927643
0   2.88370132  -5.76784134  22.71927643
0   5.76742411  -5.76784134  22.71927643
0   8.65114689  -5.76784134  22.71927643
0  -8.65118980  -2.88411856  22.71927643
0  -5.76746750  -2.88411856  22.71927643
0  -2.88374448  -2.88411856  22.71927643
0  -0.00002161  -2.88411856  22.71927643
0   2.88370132  -2.88411856  22.71927643
0   5.76742411  -2.88411856  22.71927643
0   8.65114689  -2.88411856  22.71927643
0  -8.65118980  -0.00039578  22.71927643
0  -5.76746750  -0.00039578  22.71927643
0  -2.88374448  -0.00039578  22.71927643
0  -0.00002161  -0.00039578  22.71927643
0   2.88370132  -0.00039578  22.71927643
0   5.76742411  -0.00039578  22.71927643
0   8.65114689  -0.00039578  22.71927643
0  -8.65118980   2.88332701  22.71927643
0  -5.76746750   2.88332701  22.71927643
0  -2.88374448   2.88332701  22.71927643
0  -0.00002161   2.88332701  22.71927643
0   2.88370132   2.88332701  22.71927643
0   5.76742411   2.88332701  22.71927643
0   8.65114689   2.88332701  22.71927643
0  -8.65118980   5.76704979  22.71927643
0  -5.76746750   5.76704979  22.71927643
0  -2.88374448   5.76704979  22.71927643
0  -0.00002161   5.76704979  22.71927643
0   2.88370132   5.76704979  22.71927643
0   5.76742411   5.76704979  22.71927643
0   8.65114689   5.76704979  22.71927643
0  -8.65118980   8.65077305  22.71927643
0  -5.76746750   8.65077305  22.71927643
0  -2.88374448   8.65077305  22.71927643
0  -0.00002161   8.65077305  22.71927643
0   2.88370132   8.65077305  22.71927643
0   5.76742411   8.65077305  22.71927643
0   8.65114689   8.65077305  22.71927643
1  18.73295021  18.94722748  -7.90491199
1  15.90083885  21.73734283  -3.82503176
1  18.90750313  19.01621819  -3.89011264
1  21.72398949  15.84482479  -3.75312829
1  13.11107159  24.64356232   0.33726448
1  24.59651566  13.01885891   0.31600028
1  18.76217461  18.69004631   0.29764724
1  21.75317764  15.89426899   0.38785195
1  15.83995914  21.75067902   0.32414743
1  18.78624535  18.85534477   4.25545073
1  16.09872818  21.66259193   4.43214846
1  21.66606712  15.96061897   4.45956755
1  18.90310287  18.69539642   8.42537785
1 -19.35150146 -19.29304314  -9.20823574
1 -17.31270027 -20.36027718  -5.83067560
1 -20.21582031 -17.39652824  -5.76688576
1 -17.50432968 -20.17156601  -1.81662977
1 -20.22364426 -17.40003777  -1.78275919
1 -12.47548485 -26.11713600  -0.33724776
1 -23.26663971 -14.62259102  -1.83444071
1 -23.21723557 -14.55447769   2.31038404
1 -14.43955517 -23.11286736  -1.86939883
1 -26.09730721 -12.42169094  -0.49582502
1 -20.36010933 -17.28358650   2.28912520
1 -17.49843597 -20.21826363   2.22829700
1 -20.30838203 -17.44924545   6.57422018
1 -14.50222206 -23.08191299   2.38145089
1 -17.28773689 -20.36523056   6.18814707
1 -19.23350334 -19.47257423   9.92931843
1 -17.39378166  20.17929840  -5.82494545
1 -20.30453873  17.33834648  -5.82183743
1 -14.47250080  23.05749702  -1.74567735
1 -23.20772934  14.47146320  -1.68881965
1 -17.42807007  20.32449722  -2.02914643
1 -12.43239307  26.00213623  -0.00353815
1 -20.38963509  17.31322479  -1.60628891
1 -25.90015984  12.39262199   1.36063838
1 -14.56766415  23.17646408   2.28422356
1 -20.20859146  17.41489792   2.43137932
1 -17.39912796  20.26800728   2.28165865
1 -23.10223961  14.67635345   2.39109135
1 -20.37468529  17.37578201   6.40272045
1 -17.39151764  20.20001602   6.31608725
1 -19.06417847  19.46496010   9.67950821
1  18.74985123 -19.07404137  -8.06986713
1  15.88938046 -21.72958183  -3.72079420
1  21.79530144 -16.08180618  -3.78349161
1  18.71917343 -18.82568169  -3.79712462
1  13.08133888 -24.64274788   0.44667098
1  18.81410980 -18.74909973   0.18901879
1  24.69700050 -13.01466465   0.30742541
1  15.86983299 -21.89463043   0.49782017
1  21.64523697 -15.98930645   0.35452801
1  21.73923683 -15.94558811   4.18732071
1  16.00419235 -21.74511528   4.48735476
1  18.84303093 -18.79007530   4.23076439
1  18.68155289 -19.09587097   8.46542072
1  -8.75045967   8.37746048  25.64370918
1   7.39260578   7.36287498  24.80783463
1   7.02220821  -7.42733383  24.91404533
1  -8.41767406  -8.71520233  25.62047195
1  -7.23217201   4.27160788  24.88236618
1  -4.24386930   7.34052801  24.90710068
1  -4.38436079  -7.31130743  24.80277252
1   7.95076895   3.14387083  25.41145325
1   1.44858861  -7.29654598  24.80647278
1   1.20817697   7.35384560  24.98080063
1  -7.28768873  -4.55490875  24.95478249
1   7.22345924  -1.47262597  24.86447716
1  -1.39825404   4.26603842  24.82689857
1   4.09573984   4.88053179  25.00855637
1  -7.91533279   0.09794072  25.44091225
1  -4.30058622  -1.93729246  24.95627213
1   4.23390150   1.35615265  24.81015205
1  -4.25467920   1.80917025  24.91109657
1   4.48205709  -4.28063774  24.91798973
1   1.26613057  -1.44800794  24.85023880
1  -1.49587858  -4.49906683  24.93795395
1   0.27302164   2.91883540 -26.41245461
1  -0.00929631  -2.90813661 -26.28759384
1   5.84069586   2.87108731 -26.39291573
1  -2.66828251   0.01425915 -26.37220764
1   2.91240072  -0.02143978 -26.40935707
1  -2.87917161  -5.81060600 -26.34089661
1  -5.92500591   2.67238903 -26.34072685
1   3.09952426  -5.89570236 -26.38118935
1   3.02014399   5.86455441 -26.29165459
1  -5.75068426  -2.65457821 -26.34744453
1   5.99491215  -2.87708688 -26.39065552
1  -2.78750634   5.73697519 -26.36407280
1  -6.89732170  -6.48260736 -26.88520622
1  -6.61453056   6.61243296 -26.87801361
1   4.61036491  25.56337738   3.15157151
1  -4.18901682  25.57718468   3.04351401
1   8.69247246  26.72911263   1.57819891
1   0.03986318  26.22841454   2.09907317
1  -8.34319782  26.14536667   2.39628386
1   8.31570625  24.20891953   5.06978893
1 -11.02189541  24.39327621   4.79566860
1   0.30223477  23.94059563   5.28908205
1   0.62624210  21.41962051   8.97384930
1  11.45145130  22.85146904   7.11610317
1  -6.84586477  24.14237213   5.50215769
1  -3.22645783  23.08439827   6.89116096
1   7.93936205  21.54219246   8.87129593
1  15.63324356  21.83639717   8.59708214
1 -10.31021976  21.94799042   8.21678829
1  -6.36397457  21.38470268   8.99734783
1   4.15237045  22.65925789   6.96688843
1 -14.34991169  20.79907036   9.72129536
1  15.80228138  19.47669983  11.57544994
1 -10.12222576  19.75598717  11.20251274
1 -14.51838112  18.28170967  13.20802593
1  -2.84911609  20.14216614  10.59612942
1  11.61377335  20.24465370  10.45680523
1  -6.75350761  18.78487778  12.78266621
1   4.31915998  19.86511421  11.03667164
1  15.07958412  17.18074608  15.03013134
1   7.54706812  18.75965691  12.65099430
1 -10.87266064  17.16997528  14.90679741
1   0.25303715  18.36731720  13.11874676
1  11.46897793  17.47636604  14.44183350
1   3.52245426  17.15057564  15.02203751
1 -14.58183670  15.88684368  17.03585815
1  11.42318630  15.30093765  17.76359177
1  -7.07829809  15.82897854  16.69577408
1  -0.29656386  15.61722755  17.24724388
1   7.16271544  15.96950912  16.51441383
1 -10.85575008  14.59671688  18.86227989
1  -3.40856528  17.26265335  14.95457172
1  11.16390991  12.88288116  21.08682251
1  -7.28428125  13.65735340  19.93835068
1   7.15674067  13.69211292  19.97605705
1  -0.58840120  13.02118206  21.04659462
1  -8.98950005  11.49417591  22.84804916
1  -5.02576733  11.42252350  23.11457253
1   3.09340429  14.45847321  18.81532097
1   7.45934486  11.24074364  23.25097084
1  -3.66763306  14.44647598  18.91744423
1   3.04154277  12.09005260  22.19912148
1  -1.33549809  10.70575047  24.18663788
1 -25.52521515 -10.01236629   3.08806825
1 -25.93388367  -0.74109435   2.61997104
1 -26.79652405   3.16762733   1.53376114
1 -25.91594887  -5.90708113   2.46497631
1 -25.37482262   7.20909166   3.30878711
1 -23.17341232 -11.64571190   6.49132919
1 -24.30115700   3.41483259   5.05855799
1 -24.23624802  -3.30925179   5.27292824
1 -22.63252640   7.34580135   7.32669020
1 -23.06350327   0.07082230   6.53011751
1 -24.28250313  10.59709644   5.01822472
1 -22.92354965  -7.40726089   6.98611403
1 -21.30026054 -14.30011749   9.18977261
1 -21.32195282   3.36964679   9.08132839
1 -23.01549721  14.12462234   6.92366171
1 -20.11188126  -0.08010007  10.66418552
1 -21.50475121  10.73142338   8.93183708
1 -20.45371246  -8.72364616  10.21193123
1 -20.21786880  14.44447517  10.52851295
1 -21.57006836  -3.88899660   8.63801861
1 -18.80686760 -16.33088875  12.83966923
1 -19.80748749   7.27221727  11.30020905
1 -19.36024666 -12.57362366  12.23841763
1 -17.57661819  14.25057220  14.58463860
1 -19.14781761  -4.22623062  12.12370968
1 -18.69930267  10.78310108  12.88643742
1 -18.03585243  -8.71212673  13.65635681
1 -18.25453758   2.96646261  13.06352711
1 -16.98043060   7.21499729  15.29569721
1 -16.97433662 -12.99019814  15.28219700
1 -15.53827667  11.66568375  17.24989891
1 -14.35968208  -5.52060699  18.82241058
1 -14.32653904   8.10389233  18.99278831
1 -15.60049057  -9.07972145  17.17164993
1 -17.51238060  -0.45929638  14.53292942
1 -15.71694279   3.37162280  17.08154869
1 -16.76579285  -4.50335169  15.43932819
1 -14.24499130 -12.51077938  19.34184074
1 -13.13639164   4.30728674  20.57676506
1 -12.99666214  -9.22084045  20.98735428
1 -14.58593082  -0.38237068  18.71669769
1 -11.74926186   8.26259327  22.82351303
1 -12.72882557  -2.92629719  21.40196609
1 -11.02831745   4.25068235  23.59991455
1 -11.33237267  -6.74406719  23.54833031
1 -11.61358643   0.48651484  22.83302498
1 -10.74786282  -2.80177522  24.80188560
1  25.74868584  -2.03508234   2.98814416
1  26.69999695  -5.95225191   1.97736776
1  27.27206993   1.63642824   1.27287459
1  26.57262039   8.86195755   2.08767009
1  25.55058670  -9.73728561   3.02795744
1  24.55219269   1.42298698   4.40417433
1  24.16041183  -5.65298414   4.85449696
1  23.03262711   5.20150995   6.54690933
1  23.12273216  -8.99853134   6.46777201
1  24.08996391   8.77616215   5.24853706
1  22.74382019  -1.83509612   6.97370100
1  25.94962311   4.96744108   2.89900708
1  22.33852386  12.80166435   7.62617636
1  21.41574669 -12.31767559   8.90242672
1  20.88583183  15.69752502  10.37041378
1  21.43438148   7.77942991   9.21913338
1  19.64816093 -15.96126461  11.41116524
1  20.14363289  11.41642475  10.70014286
1  20.15736580  -8.71246147  10.74051762
1  18.69407082   7.50618505  12.86340141
1  18.22523308  14.58018780  13.33323669
1  18.59977531 -12.18802643  12.87062836
1  21.45006752  -5.34730196   9.21025944
1  19.92011833  -1.43333817  11.06976414
1  18.64418793  -4.93519449  12.85905647
1  15.66353989  14.21622849  17.33360100
1  17.14872360 -15.46659756  15.03311443
1  21.59122276   1.40486026   8.49882603
1  19.86233521   4.05056000  11.14996624
1  17.49320984  -0.20546576  14.61411667
1  15.68817997 -12.33645153  16.92879868
1  17.19029617  10.80028915  14.92834091
1  16.98471832   3.99389482  15.25583363
1  17.51966095  -8.55869770  14.41693306
1  14.37035751  10.88397884  18.91485596
1  12.98633671 -10.10235119  20.94472313
1  15.99162006  -4.27378130  16.47959137
1  15.76743126   7.42583370  16.78830528
1  15.00768375  -8.50117207  18.20211029
1  12.95352077   7.25949144  20.66662979
1  15.24122334  -0.19014534  17.81905365
1  11.27443600   9.44896507  23.39145279
1  11.17541790  -7.39152479  23.34851646
1  13.85062027  -4.27651548  19.62124443
1  11.29790974   4.57132673  23.23144150
1  11.63688183  -3.00937581  22.61280251
1  14.43216038   4.13178205  19.13321495
1  13.05703068   0.88915843  20.89529610
1  10.93033695   0.75460851  24.36534119
1   1.35876274 -24.70063210   4.21748877
1   8.70937729 -26.71838188   1.75007045
1  -6.27985954 -25.97379112   2.52495956
1   4.91854334 -25.83740044   2.93883657
1 -10.30024624 -25.43765450   3.07873964
1  -2.22439241 -26.26329422   2.27845740
1  -0.10639951 -22.66128159   7.84556770
1   8.40951157 -24.13967323   5.04036522
1  -2.91292381 -24.02441788   5.16047668
1   3.84197068 -22.90208244   6.80165291
1  -7.76610136 -23.90537262   6.01317072
1  11.64455795 -22.84945679   7.09629965
1  14.87420082 -21.35002327   9.04182529
1 -11.63556290 -23.10690689   6.40218592
1   7.33809185 -21.77584076   8.46972656
1  -4.25257921 -21.69331551   8.36188126
1 -14.64986229 -21.34347343   9.03990173
1   7.41568661 -19.53326035  11.84448147
1  -8.52189445 -21.18126106   9.19020462
1  11.32426739 -20.49462318  10.52867317
1  15.75100517 -18.89994431  12.70074272
1 -15.75947285 -18.82702827  12.51717663
1   2.92104530 -20.60579872  10.09257603
1 -11.56587410 -20.26089287  10.99273682
1  11.43841743 -18.03756905  13.77306461
1  -1.29561973 -19.68816185  11.22415161
1 -11.51858521 -17.80609512  14.18153000
1 -15.13810635 -16.75389671  15.96112347
1  -7.36370325 -18.78393364  12.61959743
1  13.36695576 -15.80130196  16.77313614
1  -7.31476450 -16.44209671  15.93240643
1   6.01656199 -17.19045639  14.88681984
1 -11.49602413 -15.35455799  17.47729111
1   2.78164959 -18.28125572  13.30665207
1   9.41581917 -15.83327675  16.80373001
1  -2.95460010 -17.56246376  14.40058136
1   1.37537289 -15.89142799  16.66344643
1  -2.70388937 -15.31518650  17.50994110
1  10.00506020 -13.75293541  19.94051170
1  -6.91804981 -13.98890495  19.38587570
1   5.75085831 -14.48001099  18.66162109
1 -10.27367210 -13.01315022  20.98180962
1   1.35549283 -13.54315758  20.06865883
1  -6.06089401 -11.45338917  22.94873810
1   5.96231318 -12.11744404  22.13841057
1  -2.73673248 -12.66407108  21.18115234
1   2.15753698 -11.35683632  23.33594513
1  -1.53126025 -10.58337307  24.37945938
1   0.63048530   9.01033878 -26.42057610
1   1.36150789  11.00123215 -23.03055763
1   5.59194326   9.50390244 -25.35334969
1  -3.05551386   9.75059414 -24.87907791
1   1.62397683  13.44712734 -19.82921982
1   9.35512066  10.84957027 -23.77861214
1  -2.31186604  12.72684097 -20.69857025
1   5.75206804  11.65071201 -22.02451706
1  -5.90378666  11.54254341 -22.35200119
1   5.22422171  14.26918030 -18.40344048
1  -9.64746761  12.97585297 -20.62613106
1   9.12467670  12.99983025 -20.51292801
1  -5.82501841  14.34009361 -18.47716141
1  -2.44529963  15.48966217 -16.96379089
1   8.64513302  15.47694683 -16.67860222
1  12.00710487  14.55913639 -18.20926666
1  -9.03000927  15.47299767 -16.57690239
1   1.45264173  15.83717442 -16.09766197
1  11.76909065  17.22068214 -14.24692440
1  -5.13066721  17.26841736 -14.32152557
1  -0.17314582  18.28775597 -12.96412754
1   8.33167458  18.47725105 -12.49735451
1   4.99189138  17.10341072 -14.54893112
1  11.97931862  20.06091499 -10.39976883
1  -4.59293985  19.69481468 -10.98692608
1 -12.90554619  16.57243156 -15.07793427
1  -4.24398661  21.96568298  -7.60167027
1   8.37914562  21.12459564  -8.73748112
1  -8.69975471  18.17483139 -12.82858562
1 -16.52662277  18.00301933 -13.83087540
1  15.73557949  19.75517654 -10.71723080
1  -8.59158134  20.79130936  -9.39755630
1 -12.84304810  18.94718933 -11.74085331
1 -12.66947269  21.44287872  -8.40891743
1   0.05730749  20.58982468  -9.48043919
1  12.71053982  22.60419083  -6.69425869
1   4.47176552  19.56334877 -11.13076496
1 -16.53207016  20.15813637 -10.38264275
1  -0.52335238  23.16011810  -6.02977228
1   8.49033451  23.42262840  -5.63097525
1 -11.61742401  24.18503571  -4.57690811
1   6.36495543  25.87145996  -2.08657765
1  -8.18629265  23.17856216  -5.99156809
1   3.00562501  24.23749352  -4.30427551
1  -8.60321236  25.85902405  -1.91647470
1   4.26360273  21.88063049  -7.69426441
1  -4.62621355  24.42812347  -4.11252260
1  10.14948273  25.53539467  -2.51501417
1  -4.93014383  27.11261559  -0.69737309
1  -1.38341272  25.61797905  -2.38259864
1 -11.76832390  -2.55951571 -22.06956673
1  -9.53036594  -2.75018954 -25.19516754
1 -10.35233879   1.73873723 -24.04712296
1 -10.18715572  -7.09206772 -24.16590500
1  -9.78153992   5.63805580 -24.73631287
1 -12.65323830  -6.14105558 -20.76079559
1 -13.12154198   1.32690024 -20.13485527
1 -13.07988453 -10.13130665 -20.08458328
1 -12.73336029   5.41704702 -20.56753731
1 -16.78656769  -4.25162983 -14.95017338
1 -11.52521706   8.86681557 -22.20790100
1 -15.28180695   5.84710836 -17.20648956
1 -15.12489605  -8.64764881 -17.24503517
1 -14.37209129  -3.05394983 -18.21055603
1 -14.21237946   9.97096252 -18.62743568
1 -15.56964779   0.26043928 -16.72755432
1 -17.01170540   9.82843494 -14.53922367
1 -15.89774513  13.18935013 -16.07131767
1 -18.23444557   0.16858588 -12.69160366
1 -17.26856995   3.97462201 -14.44672012
1 -20.07593155   3.57609916 -10.23912144
1 -16.85110474 -13.04785347 -14.73792267
1 -18.34612465  14.34299469 -12.66679096
1 -18.82643318  -4.07361126 -11.81382751
1 -17.41240311  -8.58998203 -13.85859299
1 -19.52647018 -11.99881458 -11.81048107
1 -18.82350731   7.16182661 -12.04109097
1 -18.71198463 -16.35641670 -12.24049854
1 -22.92601395  -7.19431782  -6.39118099
1 -21.30250168  14.21348095  -8.53832340
1 -19.93127823  -7.47795486 -10.46656227
1 -20.95940781 -14.58572769  -9.23928547
1 -20.12932014  10.95411968 -10.37599850
1 -21.50629997 -10.60094070  -8.27942753
1 -21.59719467   7.52601814  -7.97469425
1 -23.07186508 -14.32582283  -5.95474911
1 -21.22784042   0.24279915  -8.62045002
1 -23.24274826  11.71273613  -5.92273235
1 -22.80600548   4.08522320  -6.31099558
1 -24.55268288  -4.16733027  -3.89776397
1 -24.22838211 -10.98387241  -4.45038843
1 -21.57903671  -3.98263884  -8.21248531
1 -23.87252235   0.02522486  -4.85559273
1 -25.74006081  10.70028210  -2.36795211
1 -25.65382004  -7.65397501  -2.19554210
1 -25.71039200   3.89045238  -2.42976999
1 -24.47608566   7.45950556  -3.86474514
1 -26.08270264  -0.01223508  -1.70288253
1   9.28701019   0.12829259 -25.95919609
1  11.39791965   0.70162064 -22.52678871
1   9.85442352  -3.47929120 -24.69651031
1  10.00434113   4.01277828 -24.56229591
1  10.96751499  -7.11224031 -23.12722969
1  13.06198120   4.23016119 -20.28573990
1  12.27340317  -3.05325866 -21.36744881
1  14.25871372   0.47212231 -18.50883293
1  11.15360641   7.41628599 -22.86344910
1  12.65230751 -11.02483940 -20.92164612
1  13.18704796  -7.21180487 -19.91067505
1  14.24100876   7.87425423 -18.42110062
1  14.44480896  -3.58357453 -18.18914604
1  12.88751698  10.96640682 -20.67067528
1  15.85185814  -6.76881695 -16.19742966
1  15.72886753   4.03943539 -16.51359367
1  16.66598701  -1.55752683 -15.15047169
1  14.90541077 -11.21659088 -17.79449844
1  17.10306931 -10.12732601 -14.39423752
1  15.32518101  11.44812393 -17.24412727
1  17.47747040 -14.24608135 -14.00317669
1  19.21592903   5.76345158 -12.02673149
1  18.44645309  -6.09635687 -12.52391720
1  17.00254822   7.43253899 -14.69132137
1  20.12652779 -14.17654800 -10.24835300
1  17.23758125  13.30022812 -14.46205330
1  17.58886528   2.61722922 -13.69060612
1  19.71564293 -10.14167118 -10.89315891
1  18.78763580  10.06765366 -11.88277245
1  18.88818169  -2.09244156 -12.05781555
1  18.79911232  16.75037003 -12.24091721
1  19.71597672   1.38897645 -10.51475525
1  20.06426811  13.36605167 -10.30912495
1  21.35745049  -2.76866436  -8.37011337
1  21.64122963   4.59275484  -8.02916622
1  21.43219185  -7.68890476  -8.38972664
1  21.07184601   8.73755074  -8.90636158
1  22.63777161 -12.55718899  -6.82804346
1  22.82522202   1.13602483  -6.57670069
1  22.60131073  12.59799671  -6.80162048
1  24.42163658  -1.87626624  -3.92107940
1  23.23888779  -5.79698849  -5.64985085
1  24.33419418  -9.45577049  -4.26302338
1  23.20136261   8.73945713  -5.71424484
1  24.40758896   4.89664459  -4.11615753
1  27.09949303  -9.11668205  -0.78491521
1  24.82132149  12.76278210  -3.78190112
1  27.17657852  -1.85457790  -0.80975920
1  25.84682083   9.45627499  -2.20375037
1  25.81987190  -5.59636116  -2.04256487
1  25.56467247   1.64104784  -2.41105127
1  26.85301971   5.55325747  -0.93730205
1   1.45697248 -10.91140175 -23.26641273
1  -3.10936594  -9.75254631 -24.82742119
1   5.48555946  -9.77146053 -24.68211365
1   1.40472436 -13.09562969 -20.14364624
1  -6.88092947 -10.13427353 -24.22902298
1   5.56626844 -12.36129475 -21.20084190
1  -2.41200423 -12.22191143 -21.70338821
1   8.98357964 -11.34385681 -22.62265587
1  -6.06969500 -12.52956772 -20.68259621
1  -7.46746874 -15.42841625 -17.31110573
1   5.93093014 -14.59739590 -17.95883942
1  10.05522346 -13.67250824 -19.42103386
1 -10.05781937 -13.30502319 -19.81836891
1   2.45795393 -15.57468414 -16.60102463
1  -2.94285250 -14.40698147 -17.98146057
1   6.69721746 -17.06158447 -14.59839249
1  -4.32860565 -16.72512817 -15.11895180
1  -8.44020176 -17.53595161 -13.77070141
1  10.34133434 -15.94592285 -16.07909775
1  -0.52324551 -17.33104515 -14.19126892
1  -4.30364418 -18.93351936 -11.72731781
1  14.48817730 -17.31272507 -14.14718819
1 -11.40773678 -15.71789646 -16.64598846
1   2.93471169 -18.29797935 -12.56322289
1   7.00654650 -19.56633377 -10.98548698
1 -11.90759659 -18.61686325 -12.37695122
1  15.60043144 -19.71849632 -10.91698456
1  -4.25027609 -21.59282494  -7.93393469
1 -14.97976685 -17.28544617 -14.36965179
1  10.98535252 -18.50485420 -12.44598198
1 -15.56697464 -19.74239540 -10.75967598
1   7.19731140 -21.84657097  -7.70583963
1  15.41739082 -21.87819481  -7.90743542
1  -7.86864662 -20.12203026 -10.23726845
1  11.49249363 -20.88327789  -9.20314312
1  -8.08158684 -22.87315369  -6.33255291
1  -0.51094300 -20.18465424 -10.19808388
1 -11.70303535 -21.17580605  -8.49760818
1   7.50063515 -24.25806046  -4.62919378
1  -4.85603905 -24.50855064  -4.02756262
1   2.90704083 -21.13986969  -8.59568501
1 -11.43226528 -24.06727982  -4.51301861
1  11.68554687 -23.14962769  -5.74617100
1  -0.93409020 -22.87514305  -6.23089218
1 -14.54323769 -23.20222473  -6.45917845
1  10.19118881 -25.63813782  -2.35756683
1  -4.85600710 -27.05673027  -1.08748746
1  -1.22487628 -25.59301758  -2.49959874
1   2.75110269 -24.04293633  -4.41497612
1  -8.80237579 -25.81229019  -2.08024001
1   5.86880589 -26.30399895  -1.51848781
