# typeid, x, y, z
0  -0.72403681  -2.16063094  -5.09775019
0   2.15968609  -2.16063094  -5.09775019
0  -0.72403681   0.72309184  -5.09775019
0   2.15968609   0.72309184  -5.09775019
0  -2.16589832  -3.60249233  -3.05865002
0   0.71782464  -3.60249233  -3.05865002
0   3.60154748  -3.60249233  -3.05865002
0  -2.16589832  -0.71876955  -3.05865002
0   3.60154748  -0.71876955  -3.05865002
0  -2.16589832   2.16495323  -3.05865002
0   0.71782464   2.16495323  -3.05865002
0   3.60154748   2.16495323  -3.05865002
0  -0.72403681  -5.04435396  -1.01954997
0   2.15968609  -5.04435396  -1.01954997
0  -3.60775971  -2.16063094  -1.01954997
0   5.04340887  -2.16063094  -1.01954997
0  -3.60775971   0.72309184  -1.01954997
0   5.04340887   0.72309184  -1.01954997
0  -3.60775971   3.60681462  -1.01954997
0  -0.72403681   3.60681462  -1.01954997
0   2.15968609   3.60681462  -1.01954997
0  -2.16589832  -3.60249233   1.01954997
0   0.71782464  -3.60249233   1.01954997
0   3.60154748  -3.60249233   1.01954997
0  -5.04962111  -0.71876955   1.01954997
0   3.60154748  -0.71876955   1.01954997
0  -5.04962111   2.16495323   1.01954997
0   3.60154748   2.16495323   1.01954997
0  -2.16589832   5.04867601   1.01954997
0   0.71782464   5.04867601   1.01954997
0  -3.60775971  -2.16063094   3.05865002
0  -0.72403681  -2.16063094   3.05865002
0   2.15968609  -2.16063094   3.05865002
0  -3.60775971   0.72309184   3.05865002
0   2.15968609   0.72309184   3.05865002
0  -3.60775971   3.60681462   3.05865002
0  -0.72403681   3.60681462   3.05865002
0   2.15968609   3.60681462   3.05865002
0  -2.16589832  -0.71876955   5.09775019
0   0.71782464  -0.71876955   5.09775019
0  -2.16589832   2.16495323   5.09775019
0   0.71782464   2.16495323   5.09775019
1   5.99185753   3.39629483  -1.84755063
1   3.56715202   5.12703276   1.11816263
1  -3.77128339  -5.54889870  -1.43140244
1  -5.55610752  -3.60433650   1.32656503
1  -5.05401993   5.25688553   0.71957701
1   5.15147638  -5.23227644  -0.80084777
1  -0.69166666   0.35868728   7.40852308
1   0.63148075  -0.46768516  -7.35183334
1  -2.64404702   6.26725245   3.67026424
1   0.88088024   6.43993187   3.52143407
1  -0.70257461   4.36373615   6.52827072
1  -6.20368671   2.71230388   3.62711596
1  -4.25011206   2.30783296   7.30761433
1  -5.28242540  -0.94559842   5.05851698
1   7.50956345  -2.47859192   0.61389172
1   6.43552065   1.68473685   1.65402520
1   5.00650024  -2.12329245   3.32764983
1   3.26151633   0.51450807   5.86609697
1  -1.11819875  -6.31638479   1.59787250
1   2.22070956  -5.18471813   3.02144408
1  -2.10161948  -3.65639305   4.99701595
1   1.51736176  -3.17571211   6.36028624
1   0.54484367   3.30744743  -5.87398529
1   2.56079173   5.34356880  -3.18720007
1  -2.14296508   5.10349655  -3.19822288
1  -0.67871201   7.28988934  -0.44836953
1  -3.46883774   0.89519465  -5.39498758
1  -3.43103814  -2.84972119  -5.48252678
1  -5.88387203   2.25928354  -2.01126766
1  -6.02743292  -1.50664890  -2.33568931
1   4.84337902  -2.27382588  -6.00955534
1   6.68738890  -0.65718096  -2.95417881
1   0.75698572  -4.31300402  -6.74868536
1   3.35607815  -6.16538334  -4.29322338
1  -0.82382059  -6.14853573  -3.75395060
