# typeid, x, y, z
0  -4.32741690  -4.32647467 -12.23460007
0  -1.44369388  -4.32647467 -12.23460007
0   1.44002903  -4.32647467 -12.23460007
0   4.32375193  -4.32647467 -12.23460007
0  -4.32741690  -1.44275188 -12.23460007
0  -1.44369388  -1.44275188 -12.23460007
0   1.44002903  -1.44275188 -12.23460007
0   4.32375193  -1.44275188 -12.23460007
0  -4.32741690   1.44097102 -12.23460007
0  -1.44369388   1.44097102 -12.23460007
0   1.44002903   1.44097102 -12.23460007
0   4.32375193   1.44097102 -12.23460007
0  -4.32741690   4.32469368 -12.23460007
0  -1.44369388   4.32469368 -12.23460007
0   1.44002903   4.32469368 -12.23460007
0   4.32375193   4.32469368 -12.23460007
0  -5.76927805  -5.76833630 -10.19550037
0  -2.88555527  -5.76833630 -10.19550037
0  -0.00183242  -5.76833630 -10.19550037
0   2.88189054  -5.76833630 -10.19550037
0   5.76561356  -5.76833630 -10.19550037
0  -5.76927805  -2.88461328 -10.19550037
0   5.76561356  -2.88461328 -10.19550037
0  -5.76927805  -0.00089041 -10.19550037
0   5.76561356  -0.00089041 -10.19550037
0  -5.76927805   2.88283253 -10.19550037
0   5.76561356   2.88283253 -10.19550037
0  -5.76927805   5.76655531 -10.19550037
0  -2.88555527   5.76655531 -10.19550037
0  -0.00183242   5.76655531 -10.19550037
0   2.88189054   5.76655531 -10.19550037
0   5.76561356   5.76655531 -10.19550037
0  -7.21113968  -7.21019745  -8.15639973
0  -4.32741690  -7.21019745  -8.15639973
0  -1.44369388  -7.21019745  -8.15639973
0   1.44002903  -7.21019745  -8.15639973
0   4.32375193  -7.21019745  -8.15639973
0   7.20747471  -7.21019745  -8.15639973
0  -7.21113968  -4.32647467  -8.15639973
0   7.20747471  -4.32647467  -8.15639973
0  -7.21113968  -1.44275188  -8.15639973
0   7.20747471  -1.44275188  -8.15639973
0  -7.21113968   1.44097102  -8.15639973
0   7.20747471   1.44097102  -8.15639973
0  -7.21113968   4.32469368  -8.15639973
0   7.20747471   4.32469368  -8.15639973
0  -7.21113968   7.20841694  -8.15639973
0  -4.32741690   7.20841694  -8.15639973
0  -1.44369388   7.20841694  -8.15639973
0   1.44002903   7.20841694  -8.15639973
0   4.32375193   7.20841694  -8.15639973
0   7.20747471   7.20841694  -8.15639973
0  -8.65300083  -8.65205860  -6.11730003
0  -5.76927805  -8.65205860  -6.11730003
0  -2.88555527  -8.65205860  -6.11730003
0  -0.00183242  -8.65205860  -6.11730003
0   2.88189054  -8.65205860  -6.11730003
0   5.76561356  -8.65205860  -6.11730003
0   8.64933586  -8.65205860  -6.11730003
0  -8.65300083  -5.76833630  -6.11730003
0   8.64933586  -5.76833630  -6.11730003
0  -8.65300083  -2.88461328  -6.11730003
0   8.64933586  -2.88461328  -6.11730003
0  -8.65300083  -0.00089041  -6.11730003
0   8.64933586  -0.00089041  -6.11730003
0  -8.65300083   2.88283253  -6.11730003
0   8.64933586   2.88283253  -6.11730003
0  -8.65300083   5.76655531  -6.11730003
0   8.64933586   5.76655531  -6.11730003
0  -8.65300083   8.65027809  -6.11730003
0  -5.76927805   8.65027809  -6.11730003
0  -2.88555527   8.65027809  -6.11730003
0  -0.00183242   8.65027809  -6.11730003
0   2.88189054   8.65027809  -6.11730003
0   5.76561356   8.65027809  -6.11730003
0   8.64933586   8.65027809  -6.11730003
0  -7.21113968 -10.09392071  -4.07819986
0  -4.32741690 -10.09392071  -4.07819986
0  -1.44369388 -10.09392071  -4.07819986
0   1.44002903 -10.09392071  -4.07819986
0   4.32375193 -10.09392071  -4.07819986
0   7.20747471 -10.09392071  -4.07819986
0 -10.09486294  -7.21019745  -4.07819986
0  10.09119797  -7.21019745  -4.07819986
0 -10.09486294  -4.32647467  -4.07819986
0  10.09119797  -4.32647467  -4.07819986
0 -10.09486294  -1.44275188  -4.07819986
0  10.09119797  -1.44275188  -4.07819986
0 -10.09486294   1.44097102  -4.07819986
0  10.09119797   1.44097102  -4.07819986
0 -10.09486294   4.32469368  -4.07819986
0  10.09119797   4.32469368  -4.07819986
0 -10.09486294   7.20841694  -4.07819986
0  10.09119797   7.20841694  -4.07819986
0  -7.21113968  10.09213924  -4.07819986
0  -4.32741690  10.09213924  -4.07819986
0  -1.44369388  10.09213924  -4.07819986
0   1.44002903  10.09213924  -4.07819986
0   4.32375193  10.09213924  -4.07819986
0   7.20747471  10.09213924  -4.07819986
0  -5.76927805 -11.53578186  -2.03909993
0  -2.88555527 -11.53578186  -2.03909993
0  -0.00183242 -11.53578186  -2.03909993
0   2.88189054 -11.53578186  -2.03909993
0   5.76561356 -11.53578186  -2.03909993
0  -8.65300083  -8.65205860  -2.03909993
0   8.64933586  -8.65205860  -2.03909993
0 -11.53672409  -5.76833630  -2.03909993
0  11.53305912  -5.76833630  -2.03909993
0 -11.53672409  -2.88461328  -2.03909993
0  11.53305912  -2.88461328  -2.03909993
0 -11.53672409  -0.00089041  -2.03909993
0  11.53305912  -0.00089041  -2.03909993
0 -11.53672409   2.88283253  -2.03909993
0  11.53305912   2.88283253  -2.03909993
0 -11.53672409   5.76655531  -2.03909993
0  11.53305912   5.76655531  -2.03909993
0  -8.65300083   8.65027809  -2.03909993
0   8.64933586   8.65027809  -2.03909993
0  -5.76927805  11.53400135  -2.03909993
0  -2.88555527  11.53400135  -2.03909993
0  -0.00183242  11.53400135  -2.03909993
0   2.88189054  11.53400135  -2.03909993
0   5.76561356  11.53400135  -2.03909993
0  -4.32741690 -12.97764301   0.00000000
0  -1.44369388 -12.97764301   0.00000000
0   1.44002903 -12.97764301   0.00000000
0   4.32375193 -12.97764301   0.00000000
0  -7.21113968 -10.09392071   0.00000000
0   7.20747471 -10.09392071   0.00000000
0 -10.09486294  -7.21019745   0.00000000
0  10.09119797  -7.21019745   0.00000000
0 -12.97858524  -4.32647467   0.00000000
0  12.97492027  -4.32647467   0.00000000
0 -12.97858524  -1.44275188   0.00000000
0  12.97492027  -1.44275188   0.00000000
0 -12.97858524   1.44097102   0.00000000
0  12.97492027   1.44097102   0.00000000
0 -12.97858524   4.32469368   0.00000000
0  12.97492027   4.32469368   0.00000000
0 -10.09486294   7.20841694   0.00000000
0  10.09119797   7.20841694   0.00000000
0  -7.21113968  10.09213924   0.00000000
0   7.20747471  10.09213924   0.00000000
0  -4.32741690  12.97586250   0.00000000
0  -1.44369388  12.97586250   0.00000000
0   1.44002903  12.97586250   0.00000000
0   4.32375193  12.97586250   0.00000000
0  -5.76927805 -11.53578186   2.03909993
0  -2.88555527 -11.53578186   2.03909993
0  -0.00183242 -11.53578186   2.03909993
0   2.88189054 -11.53578186   2.03909993
0   5.76561356 -11.53578186   2.03909993
0  -8.65300083  -8.65205860   2.03909993
0   8.64933586  -8.65205860   2.03909993
0 -11.53672409  -5.76833630   2.03909993
0  11.53305912  -5.76833630   2.03909993
0 -11.53672409  -2.88461328   2.03909993
0  11.53305912  -2.88461328   2.03909993
0 -11.53672409  -0.00089041   2.03909993
0  11.53305912  -0.00089041   2.03909993
0 -11.53672409   2.88283253   2.03909993
0  11.53305912   2.88283253   2.03909993
0 -11.53672409   5.76655531   2.03909993
0  11.53305912   5.76655531   2.03909993
0  -8.65300083   8.65027809   2.03909993
0   8.64933586   8.65027809   2.03909993
0  -5.76927805  11.53400135   2.03909993
0  -2.88555527  11.53400135   2.03909993
0  -0.00183242  11.53400135   2.03909993
0   2.88189054  11.53400135   2.03909993
0   5.76561356  11.53400135   2.03909993
0  -7.21113968 -10.09392071   4.07819986
0  -4.32741690 -10.09392071   4.07819986
0  -1.44369388 -10.09392071   4.07819986
0   1.44002903 -10.09392071   4.07819986
0   4.32375193 -10.09392071   4.07819986
0   7.20747471 -10.09392071   4.07819986
0 -10.09486294  -7.21019745   4.07819986
0  10.09119797  -7.21019745   4.07819986
0 -10.09486294  -4.32647467   4.07819986
0  10.09119797  -4.32647467   4.07819986
0 -10.09486294  -1.44275188   4.07819986
0  10.09119797  -1.44275188   4.07819986
0 -10.09486294   1.44097102   4.07819986
0  10.09119797   1.44097102   4.07819986
0 -10.09486294   4.32469368   4.07819986
0  10.09119797   4.32469368   4.07819986
0 -10.09486294   7.20841694   4.07819986
0  10.09119797   7.20841694   4.07819986
0  -7.21113968  10.09213924   4.07819986
0  -4.32741690  10.09213924   4.07819986
0  -1.44369388  10.09213924   4.07819986
0   1.44002903  10.09213924   4.07819986
0   4.32375193  10.09213924   4.07819986
0   7.20747471  10.09213924   4.07819986
0  -8.65300083  -8.65205860   6.11730003
0  -5.76927805  -8.65205860   6.11730003
0  -2.88555527  -8.65205860   6.11730003
0  -0.00183242  -8.65205860   6.11730003
0   2.88189054  -8.65205860   6.11730003
0   5.76561356  -8.65205860   6.11730003
0   8.64933586  -8.65205860   6.11730003
0  -8.65300083  -5.76833630   6.11730003
0   8.64933586  -5.76833630   6.11730003
0  -8.65300083  -2.88461328   6.11730003
0   8.64933586  -2.88461328   6.11730003
0  -8.65300083  -0.00089041   6.11730003
0   8.64933586  -0.00089041   6.11730003
0  -8.65300083   2.88283253   6.11730003
0   8.64933586   2.88283253   6.11730003
0  -8.65300083   5.76655531   6.11730003
0   8.64933586   5.76655531   6.11730003
0  -8.65300083   8.65027809   6.11730003
0  -5.76927805   8.65027809   6.11730003
0  -2.88555527   8.65027809   6.11730003
0  -0.00183242   8.65027809   6.11730003
0   2.88189054   8.65027809   6.11730003
0   5.76561356   8.65027809   6.11730003
0   8.64933586   8.65027809   6.11730003
0  -7.21113968  -7.21019745   8.15639973
0  -4.32741690  -7.21019745   8.15639973
0  -1.44369388  -7.21019745   8.15639973
0   1.44002903  -7.21019745   8.15639973
0   4.32375193  -7.21019745   8.15639973
0   7.20747471  -7.21019745   8.15639973
0  -7.21113968  -4.32647467   8.15639973
0   7.20747471  -4.32647467   8.15639973
0  -7.21113968  -1.44275188   8.15639973
0   7.20747471  -1.44275188   8.15639973
0  -7.21113968   1.44097102   8.15639973
0   7.20747471   1.44097102   8.15639973
0  -7.21113968   4.32469368   8.15639973
0   7.20747471   4.32469368   8.15639973
0  -7.21113968   7.20841694   8.15639973
0  -4.32741690   7.20841694   8.15639973
0  -1.44369388   7.20841694   8.15639973
0   1.44002903   7.20841694   8.15639973
0   4.32375193   7.20841694   8.15639973
0   7.20747471   7.20841694   8.15639973
0  -5.76927805  -5.76833630  10.19550037
0  -2.88555527  -5.76833630  10.19550037
0  -0.00183242  -5.76833630  10.19550037
0   2.88189054  -5.76833630  10.19550037
0   5.76561356  -5.76833630  10.19550037
0  -5.76927805  -2.88461328  10.19550037
0   5.76561356  -2.88461328  10.19550037
0  -5.76927805  -0.00089041  10.19550037
0   5.76561356  -0.00089041  10.19550037
0  -5.76927805   2.88283253  10.19550037
0   5.76561356   2.88283253  10.19550037
0  -5.76927805   5.76655531  10.19550037
0  -2.88555527   5.76655531  10.19550037
0  -0.00183242   5.76655531  10.19550037
0   2.88189054   5.76655531  10.19550037
0   5.76561356   5.76655531  10.19550037
0  -4.32741690  -4.32647467  12.23460007
0  -1.44369388  -4.32647467  12.23460007
0   1.44002903  -4.32647467  12.23460007
0   4.32375193  -4.32647467  12.23460007
0  -4.32741690  -1.44275188  12.23460007
0  -1.44369388  -1.44275188  12.23460007
0   1.44002903  -1.44275188  12.23460007
0   4.32375193  -1.44275188  12.23460007
0  -4.32741690   1.44097102  12.23460007
0  -1.44369388   1.44097102  12.23460007
0   1.44002903   1.44097102  12.23460007
0   4.32375193   1.44097102  12.23460007
0  -4.32741690   4.32469368  12.23460007
0  -1.44369388   4.32469368  12.23460007
0   1.44002903   4.32469368  12.23460007
0   4.32375193   4.32469368  12.23460007
1  11.10051918   9.95436859  -5.13965321
1   8.80419731  11.62334919  -2.09944153
1   6.35812998  14.44980526  -1.23367012
1  11.76109886   8.60650730  -1.79760587
1  14.37976170   6.67523146   1.01091909
1  11.43952465   9.00197124   2.21066284
1   8.57194614  11.59447765   2.13393164
1  10.07266045  11.11805630   5.39803934
1 -11.55124378  -8.77635765  -2.29724193
1 -14.54728413  -6.78552246  -0.85328251
1  -8.59199047 -11.62501049  -2.09788918
1  -6.65949726 -14.49812222   0.62387973
1 -11.76439762  -8.67776775   1.81484783
1  -8.95554256 -11.55592060   2.04693079
1 -10.67293739 -10.59425449   5.47300053
1 -10.63603210  10.77721119  -5.96792984
1  -8.79130840  11.59665585  -2.05509734
1 -11.55945587   8.73480988  -2.21815705
1 -11.53293133   8.78782749   1.99156511
1 -14.60547447   6.69410133   0.05593859
1  -8.81930256  11.58943272   2.10402322
1 -10.66044426  10.64786053   5.68003559
1  10.27202415 -11.08759689  -5.99643660
1  11.60589981  -8.69836330  -2.04222679
1   8.89983082 -11.53882599  -2.05474186
1   6.70630693 -14.56851196  -0.68755591
1  11.60764790  -8.76173687   2.09943295
1   8.61924267 -11.72418880   1.98450172
1   9.56925392 -11.40789986   5.65449715
1   2.84889817   2.82575560  14.39108276
1   2.89224982  -2.80957174  14.41796303
1  -2.74120378   3.32080674  14.48035240
1  -2.67113638  -3.18846726  14.49554634
1  -4.67511034   0.07675447  14.90570927
1  -0.05957202   0.06618566  14.40254593
1   2.78611016   0.00432526 -14.36378765
1   0.20235267   2.92979074 -14.54533482
1   0.11623682  -2.86956191 -14.34395504
1   4.41576862   3.69055271 -15.16493130
1  -2.66820693   0.09557884 -14.25392723
1  -3.85355663  -3.58374000 -15.01581764
1  -3.44704437   4.16219187 -14.91565609
1   4.52855492  -3.62064219 -15.04845619
1   1.21043360  13.36328316   3.87951612
1  -2.49801803  14.29537106   2.50225115
1   5.16571999  14.06427860   2.96538734
1  -5.96937656  12.47202301   4.92780256
1   1.49918342  10.97170830   7.05101109
1  -7.31092072  10.13430882   8.18652630
1  -2.55024242  11.59995747   6.24179125
1   5.82500601  11.60670280   6.08507156
1  -3.33448029   9.46387196   9.53828526
1   4.74458408   9.75232601   9.20779896
1   0.45360881   8.67912102  10.47286510
1  -3.96707296   7.24447870  12.76329899
1   0.21034674   6.27046299  13.95331001
1   4.37136698   7.31013727  12.34231186
1 -14.28120327   3.29354286   2.40206671
1 -15.14917088  -0.29170793   1.44140756
1 -14.04606152  -3.97130108   2.69149709
1 -12.75087738  -0.36982444   4.60428476
1 -12.83753872   6.09841108   4.65059805
1 -12.76512432  -6.89972305   5.26428175
1 -10.35069942   7.08683109   8.03788185
1 -11.50982189   3.04651070   6.49875498
1 -10.17257977  -7.28760910   8.34869099
1 -11.17568207  -3.82547617   6.96857929
1  -8.42555809   6.75512123  11.56365681
1  -9.82306862  -0.52696276   8.73181915
1  -9.13133430   2.98625326   9.89510441
1  -8.31193638  -4.52203274  10.87276554
1  -6.76947117   3.05166364  13.04363632
1  -7.34793949  -1.11748993  12.43389320
1  14.50192451  -2.10675430   2.26625896
1  11.26923656   7.27854681   6.78400278
1  15.08469200   2.76389217   1.58697176
1  12.93485260   4.32643032   4.14826202
1  12.62787819   0.30084455   4.78914022
1  10.39637852  -1.36858451   7.95455313
1  12.65886974  -3.93834352   5.19625187
1  12.06717205  -8.19528198   6.10117388
1  10.92216015   3.25797129   7.84547424
1   9.87142849  -5.63211060   8.75691128
1   8.83254814   5.68690491  10.16136360
1   8.34118271   1.30804789  10.70138359
1   8.47864437  -2.81223798  11.37659264
1   6.92061043   4.12271690  13.07915020
1   6.12095737  -0.17863350  14.11397266
1   1.16443253 -13.05420685   4.23896742
1   4.67948103 -14.10131836   2.73030567
1  -3.04199386 -14.39982986   2.40117455
1  -6.27050304 -12.79854107   4.68178892
1   5.71283007 -11.78552818   5.99677658
1  -2.61228848 -11.79576778   6.04994154
1  -7.26501989 -10.40374660   7.82215738
1   1.35307419 -10.67954922   7.52676821
1  -3.01658416  -9.51991177   9.13493347
1   5.63032150  -9.44888496   9.28136063
1  -3.25668526  -7.14333057  12.75032711
1   0.58582330  -8.49612331  10.67954445
1  -6.74629211  -8.39814663  10.94394207
1   3.92167974  -7.22658348  12.58283043
1   0.24291003  -6.08340979  14.04038715
1  -0.09053005   6.60870981 -13.40669823
1   3.66921425   7.10170460 -12.60310459
1  -4.34175253   7.32656002 -12.21722221
1   0.32632983   9.00564861 -10.21379852
1  -7.49261093   9.92541218  -8.70318794
1  -3.45233130   9.97609901  -8.64696503
1   4.03618860   9.97554588  -8.67401314
1   1.03461194  11.23962784  -6.63498783
1   7.29711914  11.00285625  -6.95454454
1  -2.02349496  12.85007763  -4.39719200
1  -5.85158777  11.93662071  -5.86754608
1   1.57326210  13.95611763  -2.64506769
1   4.80945921  12.92170525  -4.34586143
1  -5.32849932  14.49102020  -2.32121372
1  -1.75571835  15.72207355  -1.04212463
1  -7.29749298  -4.45152473 -12.36283016
1  -6.44144726  -0.66602749 -13.96156883
1  -6.92021942   3.08030939 -12.95111465
1  -9.17177200   2.77822328  -9.71317768
1  -9.92739201  -5.07648802  -8.63535023
1  -8.40494823  -1.05489814 -10.66434574
1  -8.38101482   6.75961685 -11.00394249
1 -11.49906540   2.69629860  -6.45448303
1 -10.59924412   7.13321590  -7.66562843
1 -10.89565563  -1.45447087  -7.26683998
1 -11.74707031  -8.42710590  -6.49566793
1 -13.22372532  -0.79589707  -4.06755543
1 -12.74226570   5.97464371  -4.74131393
1 -12.90086746  -4.66267633  -4.46387148
1 -14.41534138   2.85782456  -1.94133258
1 -15.09816933  -2.91439629  -1.45582092
1   6.51441908  -0.20995441 -13.40889168
1   7.21062756   3.99891424 -12.35229301
1   8.58253288   0.02842191 -10.32233143
1   7.50643444  -4.08994150 -12.01021957
1   9.84446716   3.58181214  -8.63497162
1   9.95750618  -3.39522934  -8.66307354
1  10.12008572   7.47218847  -8.31291485
1  11.19893265   0.07408231  -7.13261557
1  10.08237934  -7.69709635  -8.49702263
1  13.02319145  -2.21817589  -4.41509056
1  12.91189194   1.83688676  -4.33943224
1  12.10216713  -5.83939219  -5.64996624
1  12.32839203   5.70051861  -5.35661459
1  14.62657833   4.68542099  -2.22421527
1  14.58802795  -5.32305717  -2.27164316
1  14.95939159  -0.04958931  -1.60767913
1   2.86371875  -6.77733469 -13.00767708
1  -1.00044930  -6.48983002 -14.39528179
1  -4.43236923  -7.24084520 -12.28019905
1   6.81802511  -8.11122036 -11.52210999
1  -0.94421560  -8.56779861 -10.68132401
1  -5.24819565  -9.79684544  -8.66335392
1   3.10730958  -9.27579784  -9.65987396
1  -1.37433505 -10.88088322  -7.29205179
1   7.00055218 -10.17045975  -8.19267559
1  -4.66260481 -12.89796257  -4.40274334
1   2.80084014 -11.60299587  -6.08152056
1  -0.46123576 -12.99676609  -4.35704184
1  -8.27568913 -11.44538879  -6.47713995
1  -2.82573557 -14.85566616  -1.63804495
1   6.12010717 -12.77353001  -4.59972525
1   2.96068740 -14.44920444  -2.21449637
