# typeid, x, y, z
0  -1.45140231  -0.00024376  -6.11730003
0   1.43232048  -0.00024376  -6.11730003
0  -1.45140231   2.88347912  -6.11730003
0   1.43232048   2.88347912  -6.11730003
0  -2.89326382  -1.44210517  -4.07819986
0  -0.00954090  -1.44210517  -4.07819986
0   2.87418199  -1.44210517  -4.07819986
0  -2.89326382   1.44161773  -4.07819986
0   2.87418199   1.44161773  -4.07819986
0  -2.89326382   4.32534075  -4.07819986
0  -0.00954090   4.32534075  -4.07819986
0   2.87418199   4.32534075  -4.07819986
0  -4.33512545  -2.88396668  -2.03909993
0  -1.45140231  -2.88396668  -2.03909993
0   1.43232048  -2.88396668  -2.03909993
0   4.31604338  -2.88396668  -2.03909993
0  -4.33512545  -0.00024376  -2.03909993
0   4.31604338  -0.00024376  -2.03909993
0  -4.33512545   2.88347912  -2.03909993
0   4.31604338   2.88347912  -2.03909993
0  -1.45140231   5.76720190  -2.03909993
0   1.43232048   5.76720190  -2.03909993
0  -2.89326382  -4.32582808  -0.00000000
0  -0.00954090  -4.32582808  -0.00000000
0   2.87418199  -4.32582808  -0.00000000
0  -5.77698660  -1.44210517  -0.00000000
0   5.75790501  -1.44210517  -0.00000000
0  -5.77698660   1.44161773  -0.00000000
0   5.75790501   1.44161773  -0.00000000
0  -2.89326382   4.32534075  -0.00000000
0  -0.00954090   4.32534075  -0.00000000
0   2.87418199   4.32534075  -0.00000000
0  -1.45140231  -5.76768970   2.03909993
0   1.43232048  -5.76768970   2.03909993
0  -4.33512545  -2.88396668   2.03909993
0   4.31604338  -2.88396668   2.03909993
0  -4.33512545  -0.00024376   2.03909993
0   4.31604338  -0.00024376   2.03909993
0  -4.33512545   2.88347912   2.03909993
0  -1.45140231   2.88347912   2.03909993
0   1.43232048   2.88347912   2.03909993
0   4.31604338   2.88347912   2.03909993
0  -2.89326382  -4.32582808   4.07819986
0  -0.00954090  -4.32582808   4.07819986
0   2.87418199  -4.32582808   4.07819986
0  -2.89326382  -1.44210517   4.07819986
0   2.87418199  -1.44210517   4.07819986
0  -2.89326382   1.44161773   4.07819986
0  -0.00954090   1.44161773   4.07819986
0   2.87418199   1.44161773   4.07819986
0  -1.45140231  -2.88396668   6.11730003
0   1.43232048  -2.88396668   6.11730003
0  -1.45140231  -0.00024376   6.11730003
0   1.43232048  -0.00024376   6.11730003
1   4.21079731   6.47175598  -2.61521482
1   5.97191143   4.27682304   0.11199333
1  -5.89998817  -4.33104277  -0.12764111
1  -4.36529255  -6.50007296   2.78742099
1  -4.34189558   6.21818829  -2.65840793
1  -7.05358553   3.83718443  -0.88635737
1   6.51368141  -4.30746841  -0.79498792
1   4.48839760  -5.88525391   2.23050427
1  -0.07037310  -1.56378472   8.17928696
1   0.04511444   1.46011174  -8.35962200
1   2.29010272   7.00643301   0.93521279
1  -1.46030343   7.16753244   0.40676478
1   3.54897380   4.43433142   4.46106720
1  -0.25502700   5.04087591   3.38365364
1  -3.69153142   4.26171732   4.70660734
1  -0.31315529   2.39482951   6.88460732
1  -7.00007153   2.09348035   2.62919354
1  -6.93250990  -1.79357731   2.80227423
1  -4.37561750  -3.05609465   6.25339651
1  -4.25864363   0.80821389   6.58924484
1   7.19931459  -2.49188185   2.46836185
1   4.55709696  -2.62650442   6.13713884
1   6.38373280   1.51702249   3.49022555
1   3.96555948   1.17058492   6.83650494
1  -0.02262189  -8.07966805   3.52302217
1  -1.64647293  -5.73836565   6.31161118
1   2.15453959  -5.83664989   6.40550852
1  -0.18180004   5.26010609  -6.91802835
1   0.14235279   7.49851084  -3.86743331
1  -3.64039636   1.31212151  -7.35591984
1  -5.57314253  -1.56890845  -4.51669455
1  -5.76914835   2.44719076  -4.49689484
1  -7.76009750   0.02297344  -1.49472868
1   3.81753421   1.23006570  -7.09536505
1   5.88857126  -1.37212348  -4.01320839
1   6.20341206   3.11126804  -4.27474403
1  -2.18261528  -2.76499009  -6.64195347
1   1.69772327  -2.72459555  -6.57694483
1   0.24893785  -4.96531677  -3.57710814
1   4.12725449  -4.91914892  -4.21402788
1  -3.77689362  -5.29663086  -3.53117895
1  -1.85205245  -7.05953264  -0.71938199
1   2.04298925  -7.05285168  -0.57109249
