# typeid, x, y, z
0  -1.45110464  -0.93181527  -6.11730003
0   1.43261826  -0.93181527  -6.11730003
0  -1.45110464   1.95190763  -6.11730003
0   1.43261826   1.95190763  -6.11730003
0  -2.89296603  -2.37367678  -4.07819986
0  -0.00924322  -2.37367678  -4.07819986
0   2.87447977  -2.37367678  -4.07819986
0  -2.89296603   0.51004618  -4.07819986
0   2.87447977   0.51004618  -4.07819986
0  -2.89296603   3.39376903  -4.07819986
0  -0.00924322   3.39376903  -4.07819986
0   2.87447977   3.39376903  -4.07819986
0  -4.33482742  -3.81553817  -2.03909993
0  -1.45110464  -3.81553817  -2.03909993
0   1.43261826  -3.81553817  -2.03909993
0   4.31634092  -3.81553817  -2.03909993
0  -4.33482742  -0.93181527  -2.03909993
0   4.31634092  -0.93181527  -2.03909993
0  -4.33482742   1.95190763  -2.03909993
0   4.31634092   1.95190763  -2.03909993
0  -1.45110464   4.83563042  -2.03909993
0   1.43261826   4.83563042  -2.03909993
0  -2.89296603  -5.25739956  -0.00000000
0  -0.00924322  -5.25739956  -0.00000000
0   2.87447977  -5.25739956  -0.00000000
0  -5.77668905  -2.37367678  -0.00000000
0   5.75820255  -2.37367678  -0.00000000
0  -5.77668905   0.51004618  -0.00000000
0   5.75820255   0.51004618  -0.00000000
0  -2.89296603   3.39376903  -0.00000000
0   2.87447977   3.39376903  -0.00000000
0  -0.00924322   6.27749205  -0.00000000
0  -4.33482742  -3.81553817   2.03909993
0  -1.45110464  -3.81553817   2.03909993
0   1.43261826  -3.81553817   2.03909993
0   4.31634092  -3.81553817   2.03909993
0  -4.33482742  -0.93181527   2.03909993
0   4.31634092  -0.93181527   2.03909993
0  -4.33482742   1.95190763   2.03909993
0   4.31634092   1.95190763   2.03909993
0  -1.45110464   4.83563042   2.03909993
0   1.43261826   4.83563042   2.03909993
0  -2.89296603  -2.37367678   4.07819986
0  -0.00924322  -2.37367678   4.07819986
0   2.87447977  -2.37367678   4.07819986
0  -2.89296603   0.51004618   4.07819986
0   2.87447977   0.51004618   4.07819986
0  -2.89296603   3.39376903   4.07819986
0  -0.00924322   3.39376903   4.07819986
0   2.87447977   3.39376903   4.07819986
0  -1.45110464  -0.93181527   6.11730003
0   1.43261826  -0.93181527   6.11730003
0  -1.45110464   1.95190763   6.11730003
0   1.43261826   1.95190763   6.11730003
1   4.31587553   4.91982222  -2.09970593
1   2.47969437   7.83038902   0.49000189
1   4.55447149   4.85029459   2.27143860
1  -5.82412052  -5.36100245   0.19795628
1  -4.37411404   5.70558834  -3.54909492
1  -2.90209246   6.42128706  -0.00614734
1  -5.86468410   3.49771166  -0.18736899
1  -4.72311592   5.49304008   3.35442948
1   5.95570803  -5.27308559   0.01073405
1  -0.04131418   0.58307493   8.27290630
1  -0.04577983   0.55079091  -8.37694359
1  -0.16096179   7.16994381   3.24652576
1   2.21882534   5.00958681   6.40740013
1  -1.71901476   4.75935984   6.39370155
1  -7.03233242   1.48801875   3.01024866
1  -5.91535568  -2.40207243   3.93990469
1  -4.41628218   1.92533982   6.09678221
1   6.38225651  -2.47350693   3.59246588
1   6.98737097   1.23400772   2.91184974
1   4.05917645  -2.06822062   6.84232473
1   4.54414272   1.88928044   6.05379581
1  -3.05175829  -5.39557314   4.10659695
1   3.62984467  -5.48590040   4.63294268
1   0.35519090  -6.38178062   2.64278436
1  -0.01157951  -3.47860432   6.73556471
1  -1.43818474   4.86291933  -6.15921116
1   2.46712184   5.72340631  -5.75241327
1   0.00578463   7.23274183  -2.91141582
1  -4.17958546  -1.88421023  -6.63315105
1  -4.41670704   1.90507245  -6.01253605
1  -6.85596275   1.00085282  -3.02752900
1  -6.69070196  -2.69544554  -3.16796231
1   4.17518091  -1.63065863  -6.55045319
1   6.62091923  -2.39788604  -3.10873246
1   5.42432165   1.56664765  -4.63113070
1   0.10460380  -3.45265436  -6.71536160
1  -2.81649494  -5.21528339  -4.26415968
1   3.60557818  -5.13460875  -4.40219116
1   0.54105538  -6.50618839  -2.56865621
